{
    "name": "feraligatr",
    "nationalPokedexNumber": 160,
    "primaryType": "water",
    "abilities": [
        "torrent",
        "h:sheerforce"
    ],
    "baseStats": {
        "hp": 85,
        "attack": 105,
        "defence": 100,
        "special_attack": 79,
        "special_defence": 83,
        "speed": 78
    },
    "catchRate": 45,
    "maleRatio": 0.875,
    "shoulderMountable": false,
    "forms": [],
    "baseExperienceYield": 239,
    "experienceGroup": "mediumslow",
    "eggCycles": 20,
    "eggGroups": [
        "monster",
        "water_1"
    ],
    "moves": [
        "1:scratch",
        "1:leer",
        "1:watergun",
        "1:agility",
        "1:rage",
        "6:watergun",
        "8:rage",
        "13:bite",
        "15:scaryface",
        "21:icefang",
        "24:flail",
        "32:crunch",
        "37:chipaway",
        "45:slash",
        "50:screech",
        "58:thrash",
        "63:aquatail",
        "71:superpower",
        "76:hydropump",
        "tm:aerialace",
        "tm:attract",
        "tm:avalanche",
        "tm:blizzard",
        "tm:brickbreak",
        "tm:bulldoze",
        "tm:captivate",
        "tm:confide",
        "tm:curse",
        "tm:cut",
        "tm:detect",
        "tm:dig",
        "tm:dive",
        "tm:doubleteam",
        "tm:dragonclaw",
        "tm:dragontail",
        "tm:earthquake",
        "tm:endure",
        "tm:facade",
        "tm:fling",
        "tm:focusblast",
        "tm:frustration",
        "tm:gigaimpact",
        "tm:hail",
        "tm:hiddenpower",
        "tm:honeclaws",
        "tm:hyperbeam",
        "tm:icebeam",
        "tm:naturalgift",
        "tm:poweruppunch",
        "tm:protect",
        "tm:raindance",
        "tm:rest",
        "tm:return",
        "tm:roar",
        "tm:rockclimb",
        "tm:rockslide",
        "tm:rocksmash",
        "tm:rocktomb",
        "tm:round",
        "tm:scald",
        "tm:secretpower",
        "tm:shadowclaw",
        "tm:sleeptalk",
        "tm:strength",
        "tm:substitute",
        "tm:surf",
        "tm:swagger",
        "tm:swordsdance",
        "tm:toxic",
        "tm:waterfall",
        "tm:whirlpool",
        "tm:workup",
        "tutor:ancientpower",
        "tutor:aquatail",
        "tutor:block",
        "tutor:bodyslam",
        "tutor:counter",
        "tutor:doubleedge",
        "tutor:dragonpulse",
        "tutor:dynamicpunch",
        "tutor:focuspunch",
        "tutor:furycutter",
        "tutor:headbutt",
        "tutor:hydrocannon",
        "tutor:icepunch",
        "tutor:icywind",
        "tutor:irontail",
        "tutor:liquidation",
        "tutor:lowkick",
        "tutor:megakick",
        "tutor:megapunch",
        "tutor:mimic",
        "tutor:mudslap",
        "tutor:outrage",
        "tutor:seismictoss",
        "tutor:snore",
        "tutor:spite",
        "tutor:superpower",
        "tutor:uproar",
        "tutor:waterpledge",
        "tutor:waterpulse"
    ],
    "labels": [
        "gen2"
    ],
    "pokedex": [
        "cobblemon.species.feraligatr.desc1",
        "cobblemon.species.feraligatr.desc2"
    ],
    "preEvolution": "croconaw",
    "evolutions": [],
    "baseScale": 1.0,
    "hitbox": {
        "width": 1.0,
        "height": 1.0,
        "fixed": false
    },
    "baseFriendship": 70,
    "evYield": {
        "attack": 2,
        "defence": 1
    },
    "height": 23,
    "weight": 888
}