{
    "name": "lugia",
    "nationalPokedexNumber": 249,
    "primaryType": "psychic",
    "secondaryType": "flying",
    "abilities": [
        "pressure",
        "h:multiscale"
    ],
    "baseStats": {
        "hp": 106,
        "attack": 90,
        "defence": 130,
        "special_attack": 90,
        "special_defence": 154,
        "speed": 110
    },
    "catchRate": 3,
    "maleRatio": -1,
    "shoulderMountable": false,
    "forms": [],
    "baseExperienceYield": 340,
    "experienceGroup": "slow",
    "eggCycles": 120,
    "eggGroups": [
        "undiscovered"
    ],
    "moves": [
        "1:gust",
        "1:whirlwind",
        "1:ancientpower",
        "1:weatherball",
        "1:dragonrush",
        "9:mist",
        "18:safeguard",
        "27:calmmind",
        "36:extrasensory",
        "45:recover",
        "50:punishment",
        "54:aeroblast",
        "63:raindance",
        "72:hydropump",
        "81:futuresight",
        "85:naturalgift",
        "90:skyattack",
        "tm:aerialace",
        "tm:airslash",
        "tm:avalanche",
        "tm:blizzard",
        "tm:bodyslam",
        "tm:brine",
        "tm:bulldoze",
        "tm:calmmind",
        "tm:chargebeam",
        "tm:confide",
        "tm:curse",
        "tm:detect",
        "tm:dive",
        "tm:doubleteam",
        "tm:dragonbreath",
        "tm:dragonpulse",
        "tm:dragontail",
        "tm:dreameater",
        "tm:earthpower",
        "tm:earthquake",
        "tm:echoedvoice",
        "tm:endure",
        "tm:facade",
        "tm:flash",
        "tm:fly",
        "tm:frustration",
        "tm:futuresight",
        "tm:gigadrain",
        "tm:gigaimpact",
        "tm:hail",
        "tm:helpinghand",
        "tm:hiddenpower",
        "tm:hurricane",
        "tm:hydropump",
        "tm:hyperbeam",
        "tm:hypervoice",
        "tm:icebeam",
        "tm:icywind",
        "tm:imprison",
        "tm:ironhead",
        "tm:irontail",
        "tm:lightscreen",
        "tm:protect",
        "tm:psychic",
        "tm:psychup",
        "tm:psyshock",
        "tm:raindance",
        "tm:reflect",
        "tm:rest",
        "tm:return",
        "tm:roar",
        "tm:rocksmash",
        "tm:roost",
        "tm:round",
        "tm:safeguard",
        "tm:sandstorm",
        "tm:secretpower",
        "tm:shadowball",
        "tm:skillswap",
        "tm:skydrop",
        "tm:sleeptalk",
        "tm:snore",
        "tm:steelwing",
        "tm:strength",
        "tm:substitute",
        "tm:sunnyday",
        "tm:surf",
        "tm:swagger",
        "tm:swift",
        "tm:thunder",
        "tm:thunderbolt",
        "tm:thunderwave",
        "tm:toxic",
        "tm:trick",
        "tm:waterfall",
        "tm:weatherball",
        "tm:whirlpool",
        "tm:wonderroom",
        "tm:zapcannon",
        "tm:zenheadbutt",
        "tutor:aircutter",
        "tutor:aquatail",
        "tutor:defog",
        "tutor:doubleedge",
        "tutor:dualwingbeat",
        "tutor:headbutt",
        "tutor:laserfocus",
        "tutor:mimic",
        "tutor:mudslap",
        "tutor:nightmare",
        "tutor:ominouswind",
        "tutor:scaleshot",
        "tutor:shockwave",
        "tutor:signalbeam",
        "tutor:tailwind",
        "tutor:telekinesis",
        "tutor:twister",
        "tutor:waterpulse"
    ],
    "labels": [
        "gen2",
        "legendary"
    ],
    "pokedex": [
        "cobblemon.species.lugia.desc1",
        "cobblemon.species.lugia.desc2"
    ],
    "evolutions": [],
    "baseScale": 1.0,
    "hitbox": {
        "width": 1.0,
        "height": 1.0,
        "fixed": false
    },
    "baseFriendship": 0,
    "evYield": {
        "special_defence": 3
    },
    "height": 52,
    "weight": 2160
}