{
    "name": "magcargo",
    "nationalPokedexNumber": 219,
    "primaryType": "fire",
    "secondaryType": "rock",
    "abilities": [
        "magmaarmor",
        "flamebody",
        "h:weakarmor"
    ],
    "baseStats": {
        "hp": 60,
        "attack": 50,
        "defence": 120,
        "special_attack": 90,
        "special_defence": 80,
        "speed": 30
    },
    "catchRate": 75,
    "maleRatio": 0.5,
    "shoulderMountable": false,
    "forms": [],
    "baseExperienceYield": 151,
    "experienceGroup": "mediumfast",
    "eggCycles": 20,
    "eggGroups": [
        "amorphous"
    ],
    "moves": [
        "0:shellsmash",
        "1:ember",
        "1:rockthrow",
        "1:smog",
        "1:yawn",
        "1:earthpower",
        "1:shellsmash",
        "6:ember",
        "8:rockthrow",
        "13:harden",
        "15:incinerate",
        "20:clearsmog",
        "22:ancientpower",
        "27:flameburst",
        "29:rockslide",
        "34:lavaplume",
        "36:amnesia",
        "43:bodyslam",
        "47:recover",
        "54:flamethrower",
        "58:earthpower",
        "tm:attract",
        "tm:bulldoze",
        "tm:captivate",
        "tm:confide",
        "tm:curse",
        "tm:doubleteam",
        "tm:earthquake",
        "tm:endure",
        "tm:explosion",
        "tm:facade",
        "tm:fireblast",
        "tm:flamecharge",
        "tm:flamethrower",
        "tm:frustration",
        "tm:gigaimpact",
        "tm:gyroball",
        "tm:hiddenpower",
        "tm:hyperbeam",
        "tm:infestation",
        "tm:lightscreen",
        "tm:naturalgift",
        "tm:naturepower",
        "tm:overheat",
        "tm:protect",
        "tm:reflect",
        "tm:rest",
        "tm:return",
        "tm:rockpolish",
        "tm:rockslide",
        "tm:rocksmash",
        "tm:rocktomb",
        "tm:round",
        "tm:sandstorm",
        "tm:secretpower",
        "tm:sleeptalk",
        "tm:smackdown",
        "tm:solarbeam",
        "tm:stoneedge",
        "tm:strength",
        "tm:substitute",
        "tm:sunnyday",
        "tm:swagger",
        "tm:toxic",
        "tm:willowisp",
        "tutor:afteryou",
        "tutor:defensecurl",
        "tutor:doubleedge",
        "tutor:earthpower",
        "tutor:heatwave",
        "tutor:irondefense",
        "tutor:mimic",
        "tutor:mudslap",
        "tutor:painsplit",
        "tutor:rollout",
        "tutor:selfdestruct",
        "tutor:snore",
        "tutor:stealthrock",
        "tutor:stompingtantrum"
    ],
    "labels": [
        "gen2"
    ],
    "pokedex": [
        "cobblemon.species.magcargo.desc1",
        "cobblemon.species.magcargo.desc2"
    ],
    "preEvolution": "slugma",
    "evolutions": [],
    "baseScale": 1.0,
    "hitbox": {
        "width": 1.0,
        "height": 1.0,
        "fixed": false
    },
    "baseFriendship": 70,
    "evYield": {
        "defence": 2
    },
    "height": 8,
    "weight": 550
}