{
    "implemented": true,
    "name": "scizor",
    "nationalPokedexNumber": 212,
    "primaryType": "bug",
    "secondaryType": "steel",
    "abilities": [
        "swarm",
        "technician",
        "h:lightmetal"
    ],
    "baseStats": {
        "hp": 70,
        "attack": 130,
        "defence": 100,
        "special_attack": 55,
        "special_defence": 80,
        "speed": 65
    },
    "catchRate": 25,
    "maleRatio": 0.5,
    "shoulderMountable": false,
    "forms": [
        {
            "name": "normal"
        },
        {
            "name": "mega",
            "aspects": ["mega"],
            "abilities": [
                "technician"
            ],
            "baseStats": {
                "hp": 70,
                "attack": 150,
                "defence": 140,
                "special_attack": 65,
                "special_defence": 100,
                "speed": 75
            },
            "baseExperienceYield": 210,
            "labels": [
                "gen2",
                "mega_evolution"
            ],
            "pokedex": [
                "cobblemon.form.scizor-mega.desc1",
                "cobblemon.form.scizor-mega.desc2"
            ],
            "height": 20,
            "weight": 1250
        }
    ],
    "baseExperienceYield": 175,
    "experienceGroup": "mediumfast",
    "eggCycles": 25,
    "eggGroups": [
        "bug"
    ],
    "behaviour": {
        "moving": {
            "fly": {
                "canFly": true
            }
        }
    },
    "moves": [
        "0:bulletpunch",
        "1:wingattack",
        "1:leer",
        "1:agility",
        "1:quickattack",
        "1:falseswipe",
        "1:furycutter",
        "1:feint",
        "1:airslash",
        "1:bulletpunch",
        "9:pursuit",
        "12:metalclaw",
        "16:doubleteam",
        "20:doublehit",
        "24:slash",
        "28:focusenergy",
        "32:irondefense",
        "33:razorwind",
        "36:ironhead",
        "40:xscissor",
        "44:laserfocus",
        "45:nightslash",
        "48:swordsdance",
        "61:feint",
        "tm:acrobatics",
        "tm:aerialace",
        "tm:agility",
        "tm:airslash",
        "tm:assurance",
        "tm:attract",
        "tm:batonpass",
        "tm:brickbreak",
        "tm:brutalswing",
        "tm:bugbuzz",
        "tm:captivate",
        "tm:confide",
        "tm:crosspoison",
        "tm:curse",
        "tm:cut",
        "tm:detect",
        "tm:endure",
        "tm:facade",
        "tm:falseswipe",
        "tm:flashcannon",
        "tm:fling",
        "tm:focusenergy",
        "tm:frustration",
        "tm:gigaimpact",
        "tm:hiddenpower",
        "tm:hyperbeam",
        "tm:irondefense",
        "tm:ironhead",
        "tm:lightscreen",
        "tm:naturalgift",
        "tm:protect",
        "tm:psychocut",
        "tm:raindance",
        "tm:rest",
        "tm:return",
        "tm:reversal",
        "tm:rocksmash",
        "tm:roost",
        "tm:round",
        "tm:safeguard",
        "tm:sandstorm",
        "tm:sandtomb",
        "tm:secretpower",
        "tm:silverwind",
        "tm:sleeptalk",
        "tm:snore",
        "tm:steelwing",
        "tm:strength",
        "tm:strugglebug",
        "tm:substitute",
        "tm:sunnyday",
        "tm:superpower",
        "tm:swagger",
        "tm:swift",
        "tm:swordsdance",
        "tm:thief",
        "tm:toxic",
        "tm:uturn",
        "tm:venoshock",
        "tm:xscissor",
        "tutor:bugbite",
        "tutor:counter",
        "tutor:defog",
        "tutor:doubleedge",
        "tutor:dualwingbeat",
        "tutor:headbutt",
        "tutor:knockoff",
        "tutor:mimic",
        "tutor:ominouswind",
        "tutor:steelbeam",
        "tutor:tailwind"
    ],
    "labels": [
        "gen2"
    ],
    "pokedex": [
        "cobblemon.species.scizor.desc1",
        "cobblemon.species.scizor.desc2"
    ],
    "preEvolution": "scyther",
    "evolutions": [],
    "baseScale": 0.9,
    "hitbox": {
        "width": 1.0,
        "height": 2.2,
        "fixed": false
    },
    "baseFriendship": 50,
    "evYield": {
        "attack": 2
    },
    "height": 18,
    "weight": 1180
}