{
    "name": "snubbull",
    "nationalPokedexNumber": 209,
    "primaryType": "fairy",
    "abilities": [
        "intimidate",
        "runaway",
        "h:rattled"
    ],
    "baseStats": {
        "hp": 60,
        "attack": 80,
        "defence": 50,
        "special_attack": 40,
        "special_defence": 40,
        "speed": 30
    },
    "catchRate": 190,
    "maleRatio": 0.25,
    "shoulderMountable": false,
    "forms": [],
    "baseExperienceYield": 60,
    "experienceGroup": "fast",
    "eggCycles": 20,
    "eggGroups": [
        "field",
        "fairy"
    ],
    "moves": [
        "1:tackle",
        "1:tailwhip",
        "1:scaryface",
        "1:charm",
        "1:thunderfang",
        "1:icefang",
        "1:firefang",
        "7:bite",
        "13:lick",
        "19:headbutt",
        "25:roar",
        "31:rage",
        "37:takedown",
        "37:playrough",
        "43:payback",
        "49:crunch",
        "egg:closecombat",
        "egg:crunch",
        "egg:doubleedge",
        "egg:faketears",
        "egg:feintattack",
        "egg:firefang",
        "egg:focuspunch",
        "egg:healbell",
        "egg:icefang",
        "egg:leer",
        "egg:metronome",
        "egg:mimic",
        "egg:present",
        "egg:smellingsalts",
        "egg:snore",
        "egg:thunderfang",
        "tm:attract",
        "tm:brickbreak",
        "tm:bulkup",
        "tm:bulldoze",
        "tm:captivate",
        "tm:confide",
        "tm:curse",
        "tm:dazzlinggleam",
        "tm:detect",
        "tm:dig",
        "tm:doubleteam",
        "tm:earthquake",
        "tm:endure",
        "tm:facade",
        "tm:fireblast",
        "tm:flamethrower",
        "tm:fling",
        "tm:frustration",
        "tm:hiddenpower",
        "tm:incinerate",
        "tm:naturalgift",
        "tm:overheat",
        "tm:payback",
        "tm:poweruppunch",
        "tm:protect",
        "tm:raindance",
        "tm:reflect",
        "tm:rest",
        "tm:retaliate",
        "tm:return",
        "tm:roar",
        "tm:rocksmash",
        "tm:round",
        "tm:secretpower",
        "tm:shadowball",
        "tm:sleeptalk",
        "tm:sludgebomb",
        "tm:snarl",
        "tm:solarbeam",
        "tm:strength",
        "tm:substitute",
        "tm:sunnyday",
        "tm:swagger",
        "tm:taunt",
        "tm:thief",
        "tm:thunder",
        "tm:thunderbolt",
        "tm:thunderwave",
        "tm:torment",
        "tm:toxic",
        "tm:wildcharge",
        "tm:workup",
        "tm:zapcannon",
        "tutor:bodyslam",
        "tutor:counter",
        "tutor:covet",
        "tutor:defensecurl",
        "tutor:dynamicpunch",
        "tutor:firepunch",
        "tutor:focuspunch",
        "tutor:healbell",
        "tutor:hypervoice",
        "tutor:icepunch",
        "tutor:lastresort",
        "tutor:lowkick",
        "tutor:megakick",
        "tutor:megapunch",
        "tutor:mudslap",
        "tutor:seismictoss",
        "tutor:shockwave",
        "tutor:snore",
        "tutor:superfang",
        "tutor:superpower",
        "tutor:thunderpunch",
        "tutor:waterpulse"
    ],
    "labels": [
        "gen2"
    ],
    "pokedex": [
        "cobblemon.species.snubbull.desc1",
        "cobblemon.species.snubbull.desc2"
    ],
    "evolutions": [
        {
            "id": "snubbull_granbull",
            "variant": "level_up",
            "result": "granbull",
            "consumeHeldItem": false,
            "learnableMoves": [],
            "requirements": [
                {
                    "variant": "level",
                    "minLevel": 23
                }
            ]
        }
    ],
    "baseScale": 1.0,
    "hitbox": {
        "width": 1.0,
        "height": 1.0,
        "fixed": false
    },
    "baseFriendship": 70,
    "evYield": {
        "attack": 1
    },
    "height": 6,
    "weight": 78
}