{
    "name": "unown",
    "nationalPokedexNumber": 201,
    "primaryType": "psychic",
    "abilities": [
        "levitate"
    ],
    "baseStats": {
        "hp": 48,
        "attack": 72,
        "defence": 48,
        "special_attack": 72,
        "special_defence": 48,
        "speed": 48
    },
    "catchRate": 225,
    "maleRatio": -1,
    "shoulderMountable": false,
    "forms": [],
    "baseExperienceYield": 118,
    "experienceGroup": "mediumfast",
    "eggCycles": 40,
    "eggGroups": [
        "undiscovered"
    ],
    "moves": [
        "1:hiddenpower",
        "tm:hiddenpower"
    ],
    "labels": [
        "gen2"
    ],
    "pokedex": [
        "cobblemon.species.unown.desc1",
        "cobblemon.species.unown.desc2"
    ],
    "evolutions": [],
    "baseScale": 1.0,
    "hitbox": {
        "width": 1.0,
        "height": 1.0,
        "fixed": false
    },
    "baseFriendship": 70,
    "evYield": {
        "attack": 1,
        "special_attack": 1
    },
    "height": 5,
    "weight": 50
}