{
    "name": "chesnaught",
    "nationalPokedexNumber": 652,
    "primaryType": "grass",
    "secondaryType": "fighting",
    "abilities": [
        "overgrow",
        "h:bulletproof"
    ],
    "baseStats": {
        "hp": 88,
        "attack": 107,
        "defence": 122,
        "special_attack": 74,
        "special_defence": 75,
        "speed": 64
    },
    "catchRate": 45,
    "maleRatio": 0.875,
    "shoulderMountable": false,
    "forms": [],
    "baseExperienceYield": 239,
    "experienceGroup": "mediumslow",
    "eggCycles": 20,
    "eggGroups": [
        "field"
    ],
    "moves": [
        "0:spikyshield",
        "1:vinewhip",
        "1:tackle",
        "1:growl",
        "1:bellydrum",
        "1:rollout",
        "1:needlearm",
        "1:hammerarm",
        "1:feint",
        "1:spikyshield",
        "5:vinewhip",
        "8:rollout",
        "11:bite",
        "15:leechseed",
        "19:pinmissile",
        "29:takedown",
        "35:seedbomb",
        "41:mudshot",
        "48:bulkup",
        "54:bodyslam",
        "60:painsplit",
        "66:woodhammer",
        "72:hammerarm",
        "78:gigaimpact",
        "tm:aerialace",
        "tm:attract",
        "tm:brickbreak",
        "tm:bulkup",
        "tm:bulldoze",
        "tm:confide",
        "tm:cut",
        "tm:dig",
        "tm:doubleteam",
        "tm:dragonclaw",
        "tm:earthquake",
        "tm:energyball",
        "tm:facade",
        "tm:flash",
        "tm:fling",
        "tm:focusblast",
        "tm:frustration",
        "tm:gigaimpact",
        "tm:grassknot",
        "tm:gyroball",
        "tm:hiddenpower",
        "tm:honeclaws",
        "tm:hyperbeam",
        "tm:lowsweep",
        "tm:naturepower",
        "tm:payback",
        "tm:poisonjab",
        "tm:poweruppunch",
        "tm:protect",
        "tm:reflect",
        "tm:rest",
        "tm:retaliate",
        "tm:return",
        "tm:roar",
        "tm:rockslide",
        "tm:rocksmash",
        "tm:rocktomb",
        "tm:round",
        "tm:secretpower",
        "tm:shadowclaw",
        "tm:sleeptalk",
        "tm:sludgebomb",
        "tm:smackdown",
        "tm:solarbeam",
        "tm:stoneedge",
        "tm:strength",
        "tm:substitute",
        "tm:sunnyday",
        "tm:swagger",
        "tm:swordsdance",
        "tm:taunt",
        "tm:toxic",
        "tm:workup",
        "tutor:block",
        "tutor:drainpunch",
        "tutor:dualchop",
        "tutor:endeavor",
        "tutor:focuspunch",
        "tutor:frenzyplant",
        "tutor:gigadrain",
        "tutor:grasspledge",
        "tutor:helpinghand",
        "tutor:irondefense",
        "tutor:ironhead",
        "tutor:irontail",
        "tutor:lowkick",
        "tutor:painsplit",
        "tutor:seedbomb",
        "tutor:snore",
        "tutor:stompingtantrum",
        "tutor:superfang",
        "tutor:superpower",
        "tutor:synthesis",
        "tutor:thunderpunch",
        "tutor:worryseed",
        "tutor:zenheadbutt"
    ],
    "labels": [
        "gen6"
    ],
    "pokedex": [
        "cobblemon.species.chesnaught.desc1",
        "cobblemon.species.chesnaught.desc2"
    ],
    "preEvolution": "quilladin",
    "evolutions": [],
    "baseScale": 1.0,
    "hitbox": {
        "width": 1.0,
        "height": 1.0,
        "fixed": false
    },
    "baseFriendship": 70,
    "evYield": {
        "defence": 3
    },
    "height": 16,
    "weight": 900
}