{
    "name": "chespin",
    "nationalPokedexNumber": 650,
    "primaryType": "grass",
    "abilities": [
        "overgrow",
        "h:bulletproof"
    ],
    "baseStats": {
        "hp": 56,
        "attack": 61,
        "defence": 65,
        "special_attack": 48,
        "special_defence": 45,
        "speed": 38
    },
    "catchRate": 45,
    "maleRatio": 0.875,
    "shoulderMountable": false,
    "forms": [],
    "baseExperienceYield": 63,
    "experienceGroup": "mediumslow",
    "eggCycles": 20,
    "eggGroups": [
        "field"
    ],
    "moves": [
        "1:vinewhip",
        "1:tackle",
        "1:growl",
        "5:vinewhip",
        "8:rollout",
        "11:bite",
        "15:leechseed",
        "18:pinmissile",
        "27:takedown",
        "32:seedbomb",
        "35:mudshot",
        "39:bulkup",
        "42:bodyslam",
        "45:painsplit",
        "48:woodhammer",
        "egg:bellydrum",
        "egg:curse",
        "egg:defensecurl",
        "egg:poweruppunch",
        "egg:quickguard",
        "egg:rollout",
        "egg:spikes",
        "egg:synthesis",
        "tm:aerialace",
        "tm:attract",
        "tm:brickbreak",
        "tm:bulkup",
        "tm:bulldoze",
        "tm:confide",
        "tm:cut",
        "tm:dig",
        "tm:doubleteam",
        "tm:energyball",
        "tm:facade",
        "tm:flash",
        "tm:fling",
        "tm:frustration",
        "tm:grassknot",
        "tm:gyroball",
        "tm:hiddenpower",
        "tm:lowsweep",
        "tm:naturepower",
        "tm:payback",
        "tm:poisonjab",
        "tm:protect",
        "tm:reflect",
        "tm:rest",
        "tm:retaliate",
        "tm:return",
        "tm:roar",
        "tm:rockslide",
        "tm:rocksmash",
        "tm:rocktomb",
        "tm:round",
        "tm:secretpower",
        "tm:shadowclaw",
        "tm:sleeptalk",
        "tm:sludgebomb",
        "tm:smackdown",
        "tm:solarbeam",
        "tm:stoneedge",
        "tm:strength",
        "tm:substitute",
        "tm:sunnyday",
        "tm:swagger",
        "tm:swordsdance",
        "tm:taunt",
        "tm:toxic",
        "tm:workup",
        "tutor:drainpunch",
        "tutor:dualchop",
        "tutor:endeavor",
        "tutor:focuspunch",
        "tutor:gigadrain",
        "tutor:grasspledge",
        "tutor:helpinghand",
        "tutor:irondefense",
        "tutor:ironhead",
        "tutor:irontail",
        "tutor:lowkick",
        "tutor:painsplit",
        "tutor:seedbomb",
        "tutor:snore",
        "tutor:stompingtantrum",
        "tutor:superfang",
        "tutor:superpower",
        "tutor:synthesis",
        "tutor:thunderpunch",
        "tutor:worryseed",
        "tutor:zenheadbutt"
    ],
    "labels": [
        "gen6"
    ],
    "pokedex": [
        "cobblemon.species.chespin.desc1",
        "cobblemon.species.chespin.desc2"
    ],
    "evolutions": [
        {
            "id": "chespin_quilladin",
            "variant": "level_up",
            "result": "quilladin",
            "consumeHeldItem": false,
            "learnableMoves": [],
            "requirements": [
                {
                    "variant": "level",
                    "minLevel": 16
                }
            ]
        }
    ],
    "baseScale": 1.0,
    "hitbox": {
        "width": 1.0,
        "height": 1.0,
        "fixed": false
    },
    "baseFriendship": 70,
    "evYield": {
        "defence": 1
    },
    "height": 4,
    "weight": 90
}