{
  "name": "goodra",
  "nationalPokedexNumber": 706,
  "primaryType": "dragon",
  "abilities": ["sapsipper", "hydration", "h:gooey"],
  "baseStats": {
    "hp": 90,
    "attack": 100,
    "defence": 70,
    "special_attack": 110,
    "special_defence": 150,
    "speed": 80
  },
  "catchRate": 45,
  "maleRatio": 0.5,
  "shoulderMountable": false,
  "forms": [
    {
      "name": "normal"
    },
    {
      "name": "hisui",
      "aspects": ["hisuian"],
      "primaryType": "steel",
      "secondaryType": "dragon",
      "abilities": ["sapsipper", "overcoat", "h:gooey"],
      "baseStats": {
        "hp": 80,
        "attack": 100,
        "defence": 100,
        "special_attack": 110,
        "special_defence": 150,
        "speed": 60
      },
      "moves": [
        "1:bubble",
        "6:acidspray",
        "11:acidarmor",
        "18:waterpulse",
        "25:dragonpulse",
        "25:ironhead",
        "34:shelter",
        "43:hydropump",
        "tutor:bulldoze",
        "tutor:dracometeor",
        "tutor:firepunch",
        "tutor:flamethrower",
        "tutor:gigaimpact",
        "tutor:hyperbeam",
        "tutor:icebeam",
        "tutor:ironhead",
        "tutor:irontail",
        "tutor:outrage",
        "tutor:rest",
        "tutor:rockslide",
        "tutor:rocksmash",
        "tutor:sludgebomb",
        "tutor:steelbeam",
        "tutor:thunderpunch",
        "tutor:thunderbolt",
        "tutor:waterpulse"
      ],
      "pokedex": [
        "cobblemon.form.goodra-hisui.desc1",
        "cobblemon.form.goodra-hisui.desc2"
      ],
      "height": 17,
      "weight": 3341,
      "labels": ["gen6", "pseudo_legendary", "hisui_regional", "regional"]
    }
  ],
  "baseExperienceYield": 300,
  "experienceGroup": "slow",
  "eggCycles": 40,
  "eggGroups": ["dragon"],
  "moves": [
    "0:aquatail",
    "1:tackle",
    "1:watergun",
    "1:absorb",
    "1:bubble",
    "1:dragonbreath",
    "1:poisontail",
    "1:feint",
    "1:aquatail",
    "1:acidspray",
    "1:tearfullook",
    "13:bide",
    "15:protect",
    "20:flail",
    "25:waterpulse",
    "30:raindance",
    "35:dragonpulse",
    "43:curse",
    "49:bodyslam",
    "58:muddywater",
    "67:powerwhip",
    "tm:assurance",
    "tm:attract",
    "tm:blizzard",
    "tm:bodypress",
    "tm:bodyslam",
    "tm:breakingswipe",
    "tm:brutalswing",
    "tm:bulldoze",
    "tm:confide",
    "tm:doubleteam",
    "tm:dragonpulse",
    "tm:dragontail",
    "tm:earthquake",
    "tm:endure",
    "tm:facade",
    "tm:fireblast",
    "tm:firepunch",
    "tm:flamethrower",
    "tm:focusblast",
    "tm:frustration",
    "tm:gigaimpact",
    "tm:hail",
    "tm:hiddenpower",
    "tm:hydropump",
    "tm:hyperbeam",
    "tm:icebeam",
    "tm:incinerate",
    "tm:infestation",
    "tm:irontail",
    "tm:megakick",
    "tm:megapunch",
    "tm:muddywater",
    "tm:mudshot",
    "tm:outrage",
    "tm:powerwhip",
    "tm:protect",
    "tm:raindance",
    "tm:rest",
    "tm:return",
    "tm:rockslide",
    "tm:rocksmash",
    "tm:round",
    "tm:secretpower",
    "tm:sleeptalk",
    "tm:sludgebomb",
    "tm:sludgewave",
    "tm:snore",
    "tm:stompingtantrum",
    "tm:strength",
    "tm:substitute",
    "tm:sunnyday",
    "tm:superpower",
    "tm:surf",
    "tm:swagger",
    "tm:thunder",
    "tm:thunderbolt",
    "tm:thunderpunch",
    "tm:toxic",
    "tm:weatherball",
    "tutor:dracometeor",
    "tutor:focuspunch",
    "tutor:laserfocus",
    "tutor:shockwave",
    "tutor:skittersmack"
  ],
  "labels": ["gen6", "pseudo_legendary", "kalos_regional", "regional"],
  "pokedex": ["cobblemon.species.goodra.desc1", "cobblemon.species.goodra.desc2"],
  "preEvolution": "sliggoo",
  "evolutions": [],
  "baseScale": 1.0,
  "hitbox": {
    "width": 1.0,
    "height": 1.0,
    "fixed": false
  },
  "baseFriendship": 35,
  "evYield": {
    "special_defence": 3
  },
  "height": 20,
  "weight": 1505
}
