{
    "name": "audino",
    "nationalPokedexNumber": 531,
    "primaryType": "normal",
    "abilities": [
        "healer",
        "regenerator",
        "h:klutz"
    ],
    "baseStats": {
        "hp": 103,
        "attack": 60,
        "defence": 86,
        "special_attack": 60,
        "special_defence": 86,
        "speed": 50
    },
    "catchRate": 255,
    "maleRatio": 0.5,
    "shoulderMountable": false,
    "forms": [
        {
            "name": "normal"
        },
        {
            "name": "mega",
            "secondaryType": "fairy",
            "abilities": [
                "healer"
            ],
            "baseStats": {
                "hp": 103,
                "attack": 60,
                "defence": 126,
                "special_attack": 80,
                "special_defence": 126,
                "speed": 50
            },
            "baseExperienceYield": 425,
            "moves": [
                "1:pound",
                "1:growl",
                "1:helpinghand",
                "1:hypervoice",
                "1:lastresort",
                "1:mistyterrain",
                "1:playnice",
                "5:babydolleyes",
                "9:refresh",
                "13:disarmingvoice",
                "17:doubleslap",
                "21:attract",
                "25:secretpower",
                "29:entrainment",
                "33:takedown",
                "37:healpulse",
                "41:afteryou",
                "45:simplebeam",
                "49:doubleedge",
                "53:hypervoice",
                "57:lastresort",
                "egg:amnesia",
                "egg:bestow",
                "egg:drainingkiss",
                "egg:encore",
                "egg:healbell",
                "egg:healingwish",
                "egg:luckychant",
                "egg:sleeptalk",
                "egg:sweetkiss",
                "egg:wish",
                "egg:yawn",
                "tm:attract",
                "tm:blizzard",
                "tm:calmmind",
                "tm:chargebeam",
                "tm:confide",
                "tm:dazzlinggleam",
                "tm:dig",
                "tm:doubleteam",
                "tm:dreameater",
                "tm:echoedvoice",
                "tm:facade",
                "tm:fireblast",
                "tm:flamethrower",
                "tm:flash",
                "tm:fling",
                "tm:frustration",
                "tm:grassknot",
                "tm:hiddenpower",
                "tm:hyperbeam",
                "tm:icebeam",
                "tm:incinerate",
                "tm:lightscreen",
                "tm:poweruppunch",
                "tm:protect",
                "tm:psychic",
                "tm:psychup",
                "tm:psyshock",
                "tm:raindance",
                "tm:reflect",
                "tm:rest",
                "tm:retaliate",
                "tm:return",
                "tm:round",
                "tm:safeguard",
                "tm:shadowball",
                "tm:sleeptalk",
                "tm:solarbeam",
                "tm:substitute",
                "tm:sunnyday",
                "tm:surf",
                "tm:swagger",
                "tm:thunder",
                "tm:thunderbolt",
                "tm:thunderwave",
                "tm:toxic",
                "tm:trickroom",
                "tm:wildcharge",
                "tm:workup",
                "tutor:afteryou",
                "tutor:allyswitch",
                "tutor:covet",
                "tutor:drainpunch",
                "tutor:firepunch",
                "tutor:focuspunch",
                "tutor:gravity",
                "tutor:healbell",
                "tutor:helpinghand",
                "tutor:hypervoice",
                "tutor:icepunch",
                "tutor:icywind",
                "tutor:irontail",
                "tutor:knockoff",
                "tutor:laserfocus",
                "tutor:lastresort",
                "tutor:lowkick",
                "tutor:magiccoat",
                "tutor:painsplit",
                "tutor:roleplay",
                "tutor:signalbeam",
                "tutor:skillswap",
                "tutor:snatch",
                "tutor:snore",
                "tutor:stompingtantrum",
                "tutor:telekinesis",
                "tutor:throatchop",
                "tutor:thunderpunch",
                "tutor:uproar",
                "tutor:zenheadbutt"
            ],
            "labels": [
                "gen5",
                "mega_evolution"
            ],
            "pokedex": [
                "cobblemon.form.audino-mega.desc1",
                "cobblemon.form.audino-mega.desc2"
            ],
            "height": 15,
            "weight": 320
        }
    ],
    "baseExperienceYield": 390,
    "experienceGroup": "fast",
    "eggCycles": 20,
    "eggGroups": [
        "fairy"
    ],
    "moves": [
        "1:pound",
        "1:playnice",
        "4:disarmingvoice",
        "9:refresh",
        "9:babydolleyes",
        "12:helpinghand",
        "16:growl",
        "17:doubleslap",
        "20:zenheadbutt",
        "24:lifedew",
        "25:secretpower",
        "28:afteryou",
        "32:takedown",
        "36:simplebeam",
        "40:hypervoice",
        "44:healpulse",
        "48:doubleedge",
        "52:entrainment",
        "56:mistyterrain",
        "60:lastresort",
        "egg:bestow",
        "egg:healbell",
        "egg:healingwish",
        "egg:luckychant",
        "egg:sweetkiss",
        "egg:wish",
        "egg:yawn",
        "tm:allyswitch",
        "tm:amnesia",
        "tm:attract",
        "tm:blizzard",
        "tm:bodyslam",
        "tm:calmmind",
        "tm:chargebeam",
        "tm:confide",
        "tm:dazzlinggleam",
        "tm:dig",
        "tm:doubleteam",
        "tm:drainingkiss",
        "tm:drainpunch",
        "tm:dreameater",
        "tm:echoedvoice",
        "tm:encore",
        "tm:endure",
        "tm:facade",
        "tm:fireblast",
        "tm:firepunch",
        "tm:flamethrower",
        "tm:flash",
        "tm:fling",
        "tm:frustration",
        "tm:gigaimpact",
        "tm:grassknot",
        "tm:helpinghand",
        "tm:hiddenpower",
        "tm:hyperbeam",
        "tm:hypervoice",
        "tm:icebeam",
        "tm:icepunch",
        "tm:icywind",
        "tm:incinerate",
        "tm:irontail",
        "tm:lightscreen",
        "tm:lowkick",
        "tm:megakick",
        "tm:megapunch",
        "tm:mistyterrain",
        "tm:poweruppunch",
        "tm:protect",
        "tm:psychic",
        "tm:psychup",
        "tm:psyshock",
        "tm:raindance",
        "tm:reflect",
        "tm:rest",
        "tm:retaliate",
        "tm:return",
        "tm:round",
        "tm:safeguard",
        "tm:shadowball",
        "tm:skillswap",
        "tm:sleeptalk",
        "tm:snore",
        "tm:solarbeam",
        "tm:stompingtantrum",
        "tm:substitute",
        "tm:sunnyday",
        "tm:surf",
        "tm:swagger",
        "tm:throatchop",
        "tm:thunder",
        "tm:thunderbolt",
        "tm:thunderpunch",
        "tm:thunderwave",
        "tm:toxic",
        "tm:trickroom",
        "tm:uproar",
        "tm:wildcharge",
        "tm:workup",
        "tm:zenheadbutt",
        "tutor:covet",
        "tutor:focuspunch",
        "tutor:gravity",
        "tutor:healbell",
        "tutor:knockoff",
        "tutor:laserfocus",
        "tutor:magiccoat",
        "tutor:painsplit",
        "tutor:roleplay",
        "tutor:signalbeam",
        "tutor:snatch",
        "tutor:telekinesis"
    ],
    "labels": [
        "gen5"
    ],
    "pokedex": [
        "cobblemon.species.audino.desc1",
        "cobblemon.species.audino.desc2"
    ],
    "evolutions": [],
    "baseScale": 1.0,
    "hitbox": {
        "width": 1.0,
        "height": 1.0,
        "fixed": false
    },
    "baseFriendship": 50,
    "evYield": {
        "hp": 2
    },
    "height": 11,
    "weight": 310
}