{
    "name": "haxorus",
    "nationalPokedexNumber": 612,
    "primaryType": "dragon",
    "abilities": [
        "rivalry",
        "moldbreaker",
        "h:unnerve"
    ],
    "baseStats": {
        "hp": 76,
        "attack": 147,
        "defence": 90,
        "special_attack": 60,
        "special_defence": 70,
        "speed": 97
    },
    "catchRate": 45,
    "maleRatio": 0.5,
    "shoulderMountable": false,
    "forms": [],
    "baseExperienceYield": 270,
    "experienceGroup": "slow",
    "eggCycles": 40,
    "eggGroups": [
        "monster",
        "dragon"
    ],
    "moves": [
        "1:scratch",
        "1:leer",
        "1:bite",
        "1:dragonrage",
        "1:falseswipe",
        "9:assurance",
        "10:dragonrage",
        "12:taunt",
        "15:slash",
        "18:dragonclaw",
        "21:scaryface",
        "24:crunch",
        "27:dragondance",
        "30:dualchop",
        "33:laserfocus",
        "36:dragonpulse",
        "41:swordsdance",
        "46:outrage",
        "53:guillotine",
        "60:gigaimpact",
        "tm:aerialace",
        "tm:assurance",
        "tm:attract",
        "tm:breakingswipe",
        "tm:brickbreak",
        "tm:brutalswing",
        "tm:bulldoze",
        "tm:closecombat",
        "tm:confide",
        "tm:crunch",
        "tm:cut",
        "tm:dig",
        "tm:doubleteam",
        "tm:dragonclaw",
        "tm:dragondance",
        "tm:dragonpulse",
        "tm:dragontail",
        "tm:earthquake",
        "tm:endure",
        "tm:facade",
        "tm:falseswipe",
        "tm:fling",
        "tm:focusblast",
        "tm:focusenergy",
        "tm:frustration",
        "tm:gigaimpact",
        "tm:grassknot",
        "tm:hiddenpower",
        "tm:honeclaws",
        "tm:hyperbeam",
        "tm:incinerate",
        "tm:irontail",
        "tm:lowkick",
        "tm:outrage",
        "tm:payback",
        "tm:poisonjab",
        "tm:protect",
        "tm:psychocut",
        "tm:raindance",
        "tm:rest",
        "tm:return",
        "tm:reversal",
        "tm:roar",
        "tm:rockslide",
        "tm:rocksmash",
        "tm:rocktomb",
        "tm:round",
        "tm:scaryface",
        "tm:secretpower",
        "tm:shadowclaw",
        "tm:sleeptalk",
        "tm:snarl",
        "tm:snore",
        "tm:stompingtantrum",
        "tm:strength",
        "tm:substitute",
        "tm:sunnyday",
        "tm:superpower",
        "tm:surf",
        "tm:swagger",
        "tm:swift",
        "tm:swordsdance",
        "tm:taunt",
        "tm:toxic",
        "tm:xscissor",
        "tutor:aquatail",
        "tutor:dracometeor",
        "tutor:endeavor",
        "tutor:scaleshot",
        "tutor:shockwave"
    ],
    "labels": [
        "gen5"
    ],
    "pokedex": [
        "cobblemon.species.haxorus.desc1",
        "cobblemon.species.haxorus.desc2"
    ],
    "preEvolution": "fraxure",
    "evolutions": [],
    "baseScale": 1.0,
    "hitbox": {
        "width": 1.0,
        "height": 1.0,
        "fixed": false
    },
    "baseFriendship": 35,
    "evYield": {
        "attack": 3
    },
    "height": 18,
    "weight": 1055
}