{
    "name": "oshawott",
    "nationalPokedexNumber": 501,
    "primaryType": "water",
    "abilities": [
        "torrent",
        "h:shellarmor"
    ],
    "baseStats": {
        "hp": 55,
        "attack": 55,
        "defence": 45,
        "special_attack": 63,
        "special_defence": 45,
        "speed": 45
    },
    "catchRate": 45,
    "maleRatio": 0.875,
    "shoulderMountable": false,
    "forms": [],
    "baseExperienceYield": 62,
    "experienceGroup": "mediumslow",
    "eggCycles": 20,
    "eggGroups": [
        "field"
    ],
    "moves": [
        "1:tackle",
        "5:tailwhip",
        "7:watergun",
        "11:watersport",
        "13:focusenergy",
        "17:razorshell",
        "19:furycutter",
        "23:waterpulse",
        "25:revenge",
        "29:aquajet",
        "31:encore",
        "35:aquatail",
        "37:retaliate",
        "41:swordsdance",
        "43:hydropump",
        "egg:airslash",
        "egg:assurance",
        "egg:brine",
        "egg:copycat",
        "egg:detect",
        "egg:nightslash",
        "egg:sacredsword",
        "egg:screech",
        "egg:trumpcard",
        "tm:aerialace",
        "tm:attract",
        "tm:blizzard",
        "tm:confide",
        "tm:cut",
        "tm:dig",
        "tm:dive",
        "tm:doubleteam",
        "tm:facade",
        "tm:falseswipe",
        "tm:fling",
        "tm:frustration",
        "tm:grassknot",
        "tm:hail",
        "tm:hiddenpower",
        "tm:icebeam",
        "tm:protect",
        "tm:raindance",
        "tm:rest",
        "tm:return",
        "tm:rocksmash",
        "tm:round",
        "tm:scald",
        "tm:secretpower",
        "tm:sleeptalk",
        "tm:substitute",
        "tm:surf",
        "tm:swagger",
        "tm:swordsdance",
        "tm:taunt",
        "tm:toxic",
        "tm:waterfall",
        "tm:workup",
        "tm:xscissor",
        "tutor:aquatail",
        "tutor:covet",
        "tutor:helpinghand",
        "tutor:icywind",
        "tutor:irontail",
        "tutor:snore",
        "tutor:waterpledge",
        "tutor:waterpulse"
    ],
    "labels": [
        "gen5"
    ],
    "pokedex": [
        "cobblemon.species.oshawott.desc1",
        "cobblemon.species.oshawott.desc2"
    ],
    "evolutions": [
        {
            "id": "oshawott_dewott",
            "variant": "level_up",
            "result": "dewott",
            "consumeHeldItem": false,
            "learnableMoves": [],
            "requirements": [
                {
                    "variant": "level",
                    "minLevel": 17
                }
            ]
        }
    ],
    "baseScale": 1.0,
    "hitbox": {
        "width": 1.0,
        "height": 1.0,
        "fixed": false
    },
    "baseFriendship": 70,
    "evYield": {
        "special_attack": 1
    },
    "height": 5,
    "weight": 59
}