{
    "name": "scrafty",
    "nationalPokedexNumber": 560,
    "primaryType": "dark",
    "secondaryType": "fighting",
    "abilities": [
        "shedskin",
        "moxie",
        "h:intimidate"
    ],
    "baseStats": {
        "hp": 65,
        "attack": 90,
        "defence": 115,
        "special_attack": 45,
        "special_defence": 115,
        "speed": 58
    },
    "catchRate": 90,
    "maleRatio": 0.5,
    "shoulderMountable": false,
    "forms": [],
    "baseExperienceYield": 171,
    "experienceGroup": "mediumfast",
    "eggCycles": 15,
    "eggGroups": [
        "field",
        "dragon"
    ],
    "moves": [
        "1:headbutt",
        "1:leer",
        "1:lowkick",
        "1:feintattack",
        "1:payback",
        "9:feintattack",
        "12:sandattack",
        "16:facade",
        "20:protect",
        "24:beatup",
        "27:chipaway",
        "28:scaryface",
        "32:brickbreak",
        "36:swagger",
        "42:crunch",
        "48:highjumpkick",
        "51:rockclimb",
        "54:focuspunch",
        "60:headsmash",
        "tm:amnesia",
        "tm:assurance",
        "tm:attract",
        "tm:beatup",
        "tm:brickbreak",
        "tm:bulkup",
        "tm:closecombat",
        "tm:confide",
        "tm:crunch",
        "tm:darkpulse",
        "tm:dig",
        "tm:doubleteam",
        "tm:dragonclaw",
        "tm:dragondance",
        "tm:dragonpulse",
        "tm:dragontail",
        "tm:drainpunch",
        "tm:endure",
        "tm:facade",
        "tm:faketears",
        "tm:firepunch",
        "tm:fling",
        "tm:focusblast",
        "tm:foulplay",
        "tm:frustration",
        "tm:gigaimpact",
        "tm:grassknot",
        "tm:hiddenpower",
        "tm:hyperbeam",
        "tm:icepunch",
        "tm:incinerate",
        "tm:irondefense",
        "tm:ironhead",
        "tm:irontail",
        "tm:lowkick",
        "tm:lowsweep",
        "tm:megakick",
        "tm:megapunch",
        "tm:outrage",
        "tm:payback",
        "tm:poisonjab",
        "tm:poweruppunch",
        "tm:protect",
        "tm:raindance",
        "tm:rest",
        "tm:retaliate",
        "tm:return",
        "tm:revenge",
        "tm:roar",
        "tm:rockslide",
        "tm:rocksmash",
        "tm:rocktomb",
        "tm:round",
        "tm:scaryface",
        "tm:secretpower",
        "tm:sleeptalk",
        "tm:sludgebomb",
        "tm:smackdown",
        "tm:snarl",
        "tm:snore",
        "tm:stoneedge",
        "tm:strength",
        "tm:substitute",
        "tm:sunnyday",
        "tm:taunt",
        "tm:thief",
        "tm:throatchop",
        "tm:thunderpunch",
        "tm:torment",
        "tm:toxic",
        "tm:workup",
        "tm:zenheadbutt",
        "tutor:coaching",
        "tutor:dualchop",
        "tutor:knockoff",
        "tutor:lashout",
        "tutor:snatch",
        "tutor:spite",
        "tutor:superfang"
    ],
    "labels": [
        "gen5"
    ],
    "pokedex": [
        "cobblemon.species.scrafty.desc1",
        "cobblemon.species.scrafty.desc2"
    ],
    "preEvolution": "scraggy",
    "evolutions": [],
    "baseScale": 1.0,
    "hitbox": {
        "width": 1.0,
        "height": 1.0,
        "fixed": false
    },
    "baseFriendship": 50,
    "evYield": {
        "defence": 1,
        "special_defence": 1
    },
    "height": 11,
    "weight": 300
}