{
    "name": "terrakion",
    "nationalPokedexNumber": 639,
    "primaryType": "rock",
    "secondaryType": "fighting",
    "abilities": [
        "justified"
    ],
    "baseStats": {
        "hp": 91,
        "attack": 129,
        "defence": 90,
        "special_attack": 72,
        "special_defence": 90,
        "speed": 108
    },
    "catchRate": 3,
    "maleRatio": -1,
    "shoulderMountable": false,
    "forms": [],
    "baseExperienceYield": 290,
    "experienceGroup": "slow",
    "eggCycles": 80,
    "eggGroups": [
        "undiscovered"
    ],
    "moves": [
        "1:leer",
        "1:quickattack",
        "1:helpinghand",
        "1:workup",
        "7:smackdown",
        "14:quickguard",
        "21:doublekick",
        "28:retaliate",
        "35:rockslide",
        "42:takedown",
        "49:sacredsword",
        "56:swordsdance",
        "63:stoneedge",
        "70:closecombat",
        "tm:aerialace",
        "tm:airslash",
        "tm:brickbreak",
        "tm:bulldoze",
        "tm:calmmind",
        "tm:closecombat",
        "tm:confide",
        "tm:cut",
        "tm:doubleteam",
        "tm:earthpower",
        "tm:earthquake",
        "tm:endure",
        "tm:facade",
        "tm:falseswipe",
        "tm:focusblast",
        "tm:frustration",
        "tm:gigaimpact",
        "tm:helpinghand",
        "tm:hiddenpower",
        "tm:hyperbeam",
        "tm:ironhead",
        "tm:megahorn",
        "tm:poisonjab",
        "tm:protect",
        "tm:psychup",
        "tm:reflect",
        "tm:rest",
        "tm:retaliate",
        "tm:return",
        "tm:revenge",
        "tm:reversal",
        "tm:roar",
        "tm:rockblast",
        "tm:rockpolish",
        "tm:rockslide",
        "tm:rocksmash",
        "tm:rocktomb",
        "tm:round",
        "tm:safeguard",
        "tm:sandstorm",
        "tm:scaryface",
        "tm:secretpower",
        "tm:sleeptalk",
        "tm:smartstrike",
        "tm:snore",
        "tm:stealthrock",
        "tm:stompingtantrum",
        "tm:stoneedge",
        "tm:strength",
        "tm:substitute",
        "tm:superpower",
        "tm:swagger",
        "tm:swift",
        "tm:swordsdance",
        "tm:taunt",
        "tm:toxic",
        "tm:workup",
        "tm:xscissor",
        "tm:zenheadbutt",
        "tutor:block",
        "tutor:coaching",
        "tutor:laserfocus"
    ],
    "labels": [
        "gen5",
        "legendary"
    ],
    "pokedex": [
        "cobblemon.species.terrakion.desc1",
        "cobblemon.species.terrakion.desc2"
    ],
    "evolutions": [],
    "baseScale": 1.0,
    "hitbox": {
        "width": 1.0,
        "height": 1.0,
        "fixed": false
    },
    "baseFriendship": 35,
    "evYield": {
        "attack": 3
    },
    "height": 19,
    "weight": 2600
}