{
    "name": "tympole",
    "nationalPokedexNumber": 535,
    "primaryType": "water",
    "abilities": [
        "swiftswim",
        "hydration",
        "h:waterabsorb"
    ],
    "baseStats": {
        "hp": 50,
        "attack": 50,
        "defence": 40,
        "special_attack": 50,
        "special_defence": 40,
        "speed": 64
    },
    "catchRate": 255,
    "maleRatio": 0.5,
    "shoulderMountable": false,
    "forms": [],
    "baseExperienceYield": 59,
    "experienceGroup": "mediumslow",
    "eggCycles": 20,
    "eggGroups": [
        "water_1"
    ],
    "moves": [
        "1:growl",
        "1:bubble",
        "1:echoedvoice",
        "4:acid",
        "8:supersonic",
        "12:mudshot",
        "16:round",
        "20:bubblebeam",
        "24:flail",
        "28:uproar",
        "32:aquaring",
        "36:hypervoice",
        "40:muddywater",
        "44:raindance",
        "48:hydropump",
        "egg:afteryou",
        "egg:mist",
        "egg:mudbomb",
        "egg:mudslap",
        "egg:mudsport",
        "egg:refresh",
        "egg:toxic",
        "egg:waterpulse",
        "tm:attract",
        "tm:bounce",
        "tm:confide",
        "tm:doubleteam",
        "tm:earthpower",
        "tm:endure",
        "tm:facade",
        "tm:frustration",
        "tm:hail",
        "tm:hiddenpower",
        "tm:hydropump",
        "tm:hypervoice",
        "tm:icywind",
        "tm:infestation",
        "tm:muddywater",
        "tm:mudshot",
        "tm:protect",
        "tm:raindance",
        "tm:rest",
        "tm:return",
        "tm:round",
        "tm:scald",
        "tm:screech",
        "tm:secretpower",
        "tm:sleeptalk",
        "tm:sludgebomb",
        "tm:sludgewave",
        "tm:snore",
        "tm:substitute",
        "tm:surf",
        "tm:swagger",
        "tm:uproar",
        "tm:venomdrench",
        "tm:weatherball",
        "tutor:afteryou",
        "tutor:endeavor"
    ],
    "labels": [
        "gen5"
    ],
    "pokedex": [
        "cobblemon.species.tympole.desc1",
        "cobblemon.species.tympole.desc2"
    ],
    "evolutions": [
        {
            "id": "tympole_palpitoad",
            "variant": "level_up",
            "result": "palpitoad",
            "consumeHeldItem": false,
            "learnableMoves": [],
            "requirements": [
                {
                    "variant": "level",
                    "minLevel": 25
                }
            ]
        }
    ],
    "baseScale": 1.0,
    "hitbox": {
        "width": 1.0,
        "height": 1.0,
        "fixed": false
    },
    "baseFriendship": 50,
    "evYield": {
        "speed": 1
    },
    "height": 5,
    "weight": 45
}