{
    "name": "woobat",
    "nationalPokedexNumber": 527,
    "primaryType": "psychic",
    "secondaryType": "flying",
    "abilities": [
        "unaware",
        "klutz",
        "h:simple"
    ],
    "baseStats": {
        "hp": 65,
        "attack": 45,
        "defence": 43,
        "special_attack": 55,
        "special_defence": 43,
        "speed": 72
    },
    "catchRate": 190,
    "maleRatio": 0.5,
    "shoulderMountable": false,
    "forms": [],
    "baseExperienceYield": 65,
    "experienceGroup": "mediumfast",
    "eggCycles": 15,
    "eggGroups": [
        "flying",
        "field"
    ],
    "moves": [
        "1:gust",
        "1:attract",
        "4:odorsleuth",
        "5:confusion",
        "10:endeavor",
        "15:aircutter",
        "15:heartstamp",
        "20:imprison",
        "25:assurance",
        "30:amnesia",
        "35:airslash",
        "40:psychic",
        "45:calmmind",
        "50:futuresight",
        "55:simplebeam",
        "egg:captivate",
        "egg:flatter",
        "egg:knockoff",
        "egg:psychoshift",
        "egg:roost",
        "egg:supersonic",
        "egg:synchronoise",
        "tm:acrobatics",
        "tm:aerialace",
        "tm:airslash",
        "tm:allyswitch",
        "tm:amnesia",
        "tm:assurance",
        "tm:attract",
        "tm:batonpass",
        "tm:calmmind",
        "tm:chargebeam",
        "tm:charm",
        "tm:confide",
        "tm:doubleteam",
        "tm:dreameater",
        "tm:embargo",
        "tm:endure",
        "tm:energyball",
        "tm:facade",
        "tm:faketears",
        "tm:flash",
        "tm:fly",
        "tm:frustration",
        "tm:futuresight",
        "tm:gigadrain",
        "tm:gyroball",
        "tm:heatwave",
        "tm:helpinghand",
        "tm:hiddenpower",
        "tm:imprison",
        "tm:lightscreen",
        "tm:nastyplot",
        "tm:pluck",
        "tm:protect",
        "tm:psychic",
        "tm:psychocut",
        "tm:psychup",
        "tm:psyshock",
        "tm:raindance",
        "tm:reflect",
        "tm:rest",
        "tm:return",
        "tm:round",
        "tm:safeguard",
        "tm:secretpower",
        "tm:shadowball",
        "tm:skillswap",
        "tm:sleeptalk",
        "tm:snore",
        "tm:speedswap",
        "tm:steelwing",
        "tm:storedpower",
        "tm:substitute",
        "tm:swagger",
        "tm:swift",
        "tm:taunt",
        "tm:thief",
        "tm:thunderwave",
        "tm:torment",
        "tm:toxic",
        "tm:trick",
        "tm:trickroom",
        "tm:uproar",
        "tm:uturn",
        "tm:venomdrench",
        "tm:zenheadbutt",
        "tutor:afteryou",
        "tutor:defog",
        "tutor:dualwingbeat",
        "tutor:expandingforce",
        "tutor:magiccoat",
        "tutor:shockwave",
        "tutor:signalbeam",
        "tutor:superfang",
        "tutor:tailwind",
        "tutor:telekinesis"
    ],
    "labels": [
        "gen5"
    ],
    "pokedex": [
        "cobblemon.species.woobat.desc1",
        "cobblemon.species.woobat.desc2"
    ],
    "evolutions": [
        {
            "id": "woobat_swoobat",
            "variant": "level_up",
            "result": "swoobat",
            "consumeHeldItem": false,
            "learnableMoves": [],
            "requirements": [
                {
                    "variant": "friendship",
                    "amount": 160
                }
            ]
        }
    ],
    "baseScale": 1.0,
    "hitbox": {
        "width": 1.0,
        "height": 1.0,
        "fixed": false
    },
    "baseFriendship": 50,
    "evYield": {
        "speed": 1
    },
    "height": 4,
    "weight": 21
}