{
    "name": "zweilous",
    "nationalPokedexNumber": 634,
    "primaryType": "dark",
    "secondaryType": "dragon",
    "abilities": [
        "hustle"
    ],
    "baseStats": {
        "hp": 72,
        "attack": 85,
        "defence": 70,
        "special_attack": 65,
        "special_defence": 70,
        "speed": 58
    },
    "catchRate": 45,
    "maleRatio": 0.5,
    "shoulderMountable": false,
    "forms": [],
    "baseExperienceYield": 147,
    "experienceGroup": "slow",
    "eggCycles": 40,
    "eggGroups": [
        "dragon"
    ],
    "moves": [
        "1:tackle",
        "1:bite",
        "1:dragonrage",
        "1:focusenergy",
        "1:dragonbreath",
        "1:doublehit",
        "12:roar",
        "16:assurance",
        "20:headbutt",
        "24:workup",
        "28:slam",
        "32:crunch",
        "36:scaryface",
        "40:dragonpulse",
        "44:bodyslam",
        "48:hypervoice",
        "54:dragonrush",
        "60:nastyplot",
        "66:outrage",
        "tm:assurance",
        "tm:attract",
        "tm:beatup",
        "tm:bodyslam",
        "tm:confide",
        "tm:crunch",
        "tm:darkpulse",
        "tm:doubleteam",
        "tm:dragonpulse",
        "tm:dragontail",
        "tm:earthpower",
        "tm:endure",
        "tm:facade",
        "tm:firefang",
        "tm:focusenergy",
        "tm:frustration",
        "tm:helpinghand",
        "tm:hiddenpower",
        "tm:hypervoice",
        "tm:icefang",
        "tm:incinerate",
        "tm:nastyplot",
        "tm:outrage",
        "tm:protect",
        "tm:psychup",
        "tm:raindance",
        "tm:rest",
        "tm:return",
        "tm:rocksmash",
        "tm:round",
        "tm:scaryface",
        "tm:screech",
        "tm:secretpower",
        "tm:sleeptalk",
        "tm:snore",
        "tm:strength",
        "tm:substitute",
        "tm:sunnyday",
        "tm:superpower",
        "tm:swagger",
        "tm:taunt",
        "tm:thief",
        "tm:thunderfang",
        "tm:thunderwave",
        "tm:torment",
        "tm:toxic",
        "tm:uproar",
        "tm:workup",
        "tm:zenheadbutt",
        "tutor:aquatail",
        "tutor:dracometeor",
        "tutor:shockwave",
        "tutor:spite"
    ],
    "labels": [
        "gen5"
    ],
    "pokedex": [
        "cobblemon.species.zweilous.desc1",
        "cobblemon.species.zweilous.desc2"
    ],
    "preEvolution": "deino",
    "evolutions": [
        {
            "id": "zweilous_hydreigon",
            "variant": "level_up",
            "result": "hydreigon",
            "consumeHeldItem": false,
            "learnableMoves": [],
            "requirements": [
                {
                    "variant": "level",
                    "minLevel": 64
                }
            ]
        }
    ],
    "baseScale": 1.0,
    "hitbox": {
        "width": 1.0,
        "height": 1.0,
        "fixed": false
    },
    "baseFriendship": 35,
    "evYield": {
        "attack": 2
    },
    "height": 14,
    "weight": 500
}