{
    "name": "abomasnow",
    "nationalPokedexNumber": 460,
    "primaryType": "grass",
    "secondaryType": "ice",
    "abilities": [
        "snowwarning",
        "h:soundproof"
    ],
    "baseStats": {
        "hp": 90,
        "attack": 92,
        "defence": 75,
        "special_attack": 92,
        "special_defence": 85,
        "speed": 60
    },
    "catchRate": 60,
    "maleRatio": 0.5,
    "shoulderMountable": false,
    "forms": [
        {
            "name": "normal"
        },
        {
            "name": "mega",
            "aspects": ["mega"],
            "abilities": [
                "snowwarning"
            ],
            "baseStats": {
                "hp": 90,
                "attack": 132,
                "defence": 105,
                "special_attack": 132,
                "special_defence": 105,
                "speed": 30
            },
            "baseExperienceYield": 208,
            "labels": [
                "gen4",
                "mega_evolution"
            ],
            "pokedex": [
                "cobblemon.form.abomasnow-mega.desc1",
                "cobblemon.form.abomasnow-mega.desc2"
            ],
            "height": 27,
            "weight": 1850
        }
    ],
    "baseExperienceYield": 173,
    "experienceGroup": "slow",
    "eggCycles": 20,
    "eggGroups": [
        "monster",
        "grass"
    ],
    "moves": [
        "0:icepunch",
        "1:icepunch",
        "1:leer",
        "1:mist",
        "1:powdersnow",
        "1:leafage",
        "1:auroraveil",
        "13:grasswhistle",
        "15:iceshard",
        "20:razorleaf",
        "25:icywind",
        "30:swagger",
        "35:ingrain",
        "43:woodhammer",
        "49:blizzard",
        "56:sheercold",
        "tm:attract",
        "tm:avalanche",
        "tm:blizzard",
        "tm:brickbreak",
        "tm:bulldoze",
        "tm:bulletseed",
        "tm:captivate",
        "tm:confide",
        "tm:doubleteam",
        "tm:earthpower",
        "tm:earthquake",
        "tm:endure",
        "tm:energyball",
        "tm:facade",
        "tm:flash",
        "tm:fling",
        "tm:focusblast",
        "tm:frostbreath",
        "tm:frustration",
        "tm:gigadrain",
        "tm:gigaimpact",
        "tm:grassknot",
        "tm:hail",
        "tm:hiddenpower",
        "tm:hyperbeam",
        "tm:icebeam",
        "tm:icepunch",
        "tm:iciclespear",
        "tm:icywind",
        "tm:irontail",
        "tm:leafstorm",
        "tm:lightscreen",
        "tm:magicalleaf",
        "tm:megakick",
        "tm:megapunch",
        "tm:naturalgift",
        "tm:outrage",
        "tm:protect",
        "tm:raindance",
        "tm:rest",
        "tm:return",
        "tm:rockclimb",
        "tm:rockslide",
        "tm:rocksmash",
        "tm:rocktomb",
        "tm:round",
        "tm:safeguard",
        "tm:secretpower",
        "tm:seedbomb",
        "tm:shadowball",
        "tm:sleeptalk",
        "tm:snore",
        "tm:solarbeam",
        "tm:stompingtantrum",
        "tm:strength",
        "tm:substitute",
        "tm:swordsdance",
        "tm:toxic",
        "tm:weatherball",
        "tutor:block",
        "tutor:focuspunch",
        "tutor:grassyglide",
        "tutor:headbutt",
        "tutor:mudslap",
        "tutor:roleplay",
        "tutor:synthesis",
        "tutor:waterpulse",
        "tutor:worryseed"
    ],
    "labels": [
        "gen4"
    ],
    "pokedex": [
        "cobblemon.species.abomasnow.desc1",
        "cobblemon.species.abomasnow.desc2"
    ],
    "preEvolution": "snover",
    "evolutions": [],
    "baseScale": 1.0,
    "hitbox": {
        "width": 1.0,
        "height": 1.0,
        "fixed": false
    },
    "baseFriendship": 50,
    "evYield": {
        "attack": 1,
        "special_attack": 1
    },
    "height": 22,
    "weight": 1355
}