{
    "name": "cresselia",
    "nationalPokedexNumber": 488,
    "primaryType": "psychic",
    "abilities": [
        "levitate"
    ],
    "baseStats": {
        "hp": 120,
        "attack": 70,
        "defence": 120,
        "special_attack": 75,
        "special_defence": 130,
        "speed": 85
    },
    "catchRate": 3,
    "maleRatio": 0.0,
    "shoulderMountable": false,
    "forms": [],
    "baseExperienceYield": 300,
    "experienceGroup": "slow",
    "eggCycles": 120,
    "eggGroups": [
        "undiscovered"
    ],
    "moves": [
        "1:confusion",
        "1:doubleteam",
        "6:mist",
        "12:aurorabeam",
        "18:psybeam",
        "24:psychoshift",
        "30:slash",
        "36:psychocut",
        "42:moonlight",
        "48:safeguard",
        "54:psychic",
        "60:moonblast",
        "66:futuresight",
        "72:lunardance",
        "tm:allyswitch",
        "tm:attract",
        "tm:bodyslam",
        "tm:calmmind",
        "tm:captivate",
        "tm:chargebeam",
        "tm:confide",
        "tm:dreameater",
        "tm:endure",
        "tm:energyball",
        "tm:facade",
        "tm:flash",
        "tm:frustration",
        "tm:futuresight",
        "tm:gigaimpact",
        "tm:grassknot",
        "tm:guardswap",
        "tm:helpinghand",
        "tm:hiddenpower",
        "tm:hyperbeam",
        "tm:icebeam",
        "tm:icywind",
        "tm:lightscreen",
        "tm:magicroom",
        "tm:naturalgift",
        "tm:powerswap",
        "tm:protect",
        "tm:psychic",
        "tm:psychocut",
        "tm:psychup",
        "tm:psyshock",
        "tm:raindance",
        "tm:reflect",
        "tm:rest",
        "tm:return",
        "tm:round",
        "tm:safeguard",
        "tm:secretpower",
        "tm:shadowball",
        "tm:skillswap",
        "tm:sleeptalk",
        "tm:snore",
        "tm:solarbeam",
        "tm:storedpower",
        "tm:substitute",
        "tm:sunnyday",
        "tm:swagger",
        "tm:swift",
        "tm:thunderwave",
        "tm:toxic",
        "tm:trick",
        "tm:trickroom",
        "tm:zenheadbutt",
        "tutor:expandingforce",
        "tutor:furycutter",
        "tutor:gravity",
        "tutor:magiccoat",
        "tutor:mudslap",
        "tutor:recycle",
        "tutor:signalbeam",
        "tutor:telekinesis"
    ],
    "labels": [
        "gen4",
        "legendary"
    ],
    "pokedex": [
        "cobblemon.species.cresselia.desc1",
        "cobblemon.species.cresselia.desc2"
    ],
    "evolutions": [],
    "baseScale": 1.0,
    "hitbox": {
        "width": 1.0,
        "height": 1.0,
        "fixed": false
    },
    "baseFriendship": 100,
    "evYield": {
        "special_defence": 3
    },
    "height": 15,
    "weight": 856
}