{
    "implemented": true,
    "name": "leafeon",
    "nationalPokedexNumber": 470,
    "primaryType": "grass",
    "abilities": [
        "leafguard",
        "h:chlorophyll"
    ],
    "baseStats": {
        "hp": 65,
        "attack": 110,
        "defence": 130,
        "special_attack": 60,
        "special_defence": 65,
        "speed": 95
    },
    "catchRate": 45,
    "maleRatio": 0.875,
    "shoulderMountable": false,
    "forms": [],
    "baseExperienceYield": 184,
    "experienceGroup": "mediumfast",
    "eggCycles": 35,
    "eggGroups": [
        "field"
    ],
    "moves": [
        "0:razorleaf",
        "1:tackle",
        "1:takedown",
        "1:doubleedge",
        "1:tailwhip",
        "1:bite",
        "1:growl",
        "1:razorleaf",
        "1:swift",
        "1:charm",
        "1:batonpass",
        "1:helpinghand",
        "1:covet",
        "1:copycat",
        "5:sandattack",
        "10:quickattack",
        "15:babydolleyes",
        "17:grasswhistle",
        "20:leechseed",
        "25:magicalleaf",
        "30:synthesis",
        "35:sunnyday",
        "40:gigadrain",
        "45:swordsdance",
        "50:leafblade",
        "55:lastresort",
        "tm:aerialace",
        "tm:attract",
        "tm:batonpass",
        "tm:bodyslam",
        "tm:bulletseed",
        "tm:captivate",
        "tm:charm",
        "tm:confide",
        "tm:dig",
        "tm:doubleteam",
        "tm:echoedvoice",
        "tm:endure",
        "tm:energyball",
        "tm:facade",
        "tm:faketears",
        "tm:flash",
        "tm:focusenergy",
        "tm:frustration",
        "tm:gigadrain",
        "tm:gigaimpact",
        "tm:grassknot",
        "tm:helpinghand",
        "tm:hiddenpower",
        "tm:hyperbeam",
        "tm:hypervoice",
        "tm:irontail",
        "tm:leafblade",
        "tm:leafstorm",
        "tm:magicalleaf",
        "tm:naturalgift",
        "tm:naturepower",
        "tm:payday",
        "tm:protect",
        "tm:raindance",
        "tm:rest",
        "tm:retaliate",
        "tm:return",
        "tm:roar",
        "tm:rocksmash",
        "tm:round",
        "tm:secretpower",
        "tm:seedbomb",
        "tm:shadowball",
        "tm:sleeptalk",
        "tm:snore",
        "tm:solarbeam",
        "tm:solarblade",
        "tm:storedpower",
        "tm:strength",
        "tm:substitute",
        "tm:sunnyday",
        "tm:swagger",
        "tm:swift",
        "tm:swordsdance",
        "tm:toxic",
        "tm:weatherball",
        "tm:workup",
        "tm:xscissor",
        "tutor:furycutter",
        "tutor:grassyglide",
        "tutor:headbutt",
        "tutor:healbell",
        "tutor:knockoff",
        "tutor:laserfocus",
        "tutor:mudslap",
        "tutor:worryseed"
    ],
    "labels": [
        "gen4"
    ],
    "pokedex": [
        "cobblemon.species.leafeon.desc1",
        "cobblemon.species.leafeon.desc2"
    ],
    "preEvolution": "eevee",
    "evolutions": [],
    "baseScale": 0.8,
    "hitbox": {
        "width": 0.9,
        "height": 1.1,
        "fixed": false
    },
    "baseFriendship": 35,
    "evYield": {
        "defence": 2
    },
    "height": 10,
    "weight": 255
}