{
    "name": "lucario",
    "nationalPokedexNumber": 448,
    "primaryType": "fighting",
    "secondaryType": "steel",
    "abilities": [
        "steadfast",
        "innerfocus",
        "h:justified"
    ],
    "baseStats": {
        "hp": 70,
        "attack": 110,
        "defence": 70,
        "special_attack": 115,
        "special_defence": 70,
        "speed": 90
    },
    "catchRate": 45,
    "maleRatio": 0.875,
    "shoulderMountable": false,
    "forms": [
        {
            "name": "normal"
        },
        {
            "name": "mega",
            "aspects": ["mega"],
            "abilities": [
                "adaptability"
            ],
            "baseStats": {
                "hp": 70,
                "attack": 145,
                "defence": 88,
                "special_attack": 140,
                "special_defence": 70,
                "speed": 112
            },
            "baseExperienceYield": 219,
            "labels": [
                "gen4",
                "mega_evolution"
            ],
            "pokedex": [
                "cobblemon.form.lucario-mega.desc1",
                "cobblemon.form.lucario-mega.desc2"
            ],
            "height": 13,
            "weight": 575
        }
    ],
    "baseExperienceYield": 184,
    "experienceGroup": "mediumslow",
    "eggCycles": 25,
    "eggGroups": [
        "field",
        "human_like"
    ],
    "moves": [
        "0:aurasphere",
        "1:quickattack",
        "1:screech",
        "1:reversal",
        "1:foresight",
        "1:detect",
        "1:metalclaw",
        "1:rocksmash",
        "1:helpinghand",
        "1:feint",
        "1:copycat",
        "1:forcepalm",
        "1:aurasphere",
        "1:nastyplot",
        "1:finalgambit",
        "1:workup",
        "1:lifedew",
        "12:counter",
        "16:laserfocus",
        "20:poweruppunch",
        "24:calmmind",
        "28:metalsound",
        "32:quickguard",
        "36:bonerush",
        "37:mefirst",
        "40:swordsdance",
        "44:healpulse",
        "48:meteormash",
        "52:dragonpulse",
        "56:extremespeed",
        "60:closecombat",
        "tm:agility",
        "tm:attract",
        "tm:aurasphere",
        "tm:blazekick",
        "tm:brickbreak",
        "tm:bulkup",
        "tm:bulldoze",
        "tm:calmmind",
        "tm:captivate",
        "tm:closecombat",
        "tm:confide",
        "tm:crunch",
        "tm:darkpulse",
        "tm:dig",
        "tm:doubleteam",
        "tm:dragonpulse",
        "tm:drainpunch",
        "tm:earthquake",
        "tm:endure",
        "tm:facade",
        "tm:flashcannon",
        "tm:fling",
        "tm:focusblast",
        "tm:focusenergy",
        "tm:frustration",
        "tm:gigaimpact",
        "tm:helpinghand",
        "tm:hiddenpower",
        "tm:honeclaws",
        "tm:hyperbeam",
        "tm:icepunch",
        "tm:irondefense",
        "tm:irontail",
        "tm:lowkick",
        "tm:lowsweep",
        "tm:megakick",
        "tm:megapunch",
        "tm:nastyplot",
        "tm:naturalgift",
        "tm:payback",
        "tm:poisonjab",
        "tm:protect",
        "tm:psychic",
        "tm:raindance",
        "tm:rest",
        "tm:retaliate",
        "tm:return",
        "tm:revenge",
        "tm:reversal",
        "tm:roar",
        "tm:rockclimb",
        "tm:rockslide",
        "tm:rocktomb",
        "tm:round",
        "tm:scaryface",
        "tm:screech",
        "tm:secretpower",
        "tm:shadowball",
        "tm:shadowclaw",
        "tm:sleeptalk",
        "tm:snore",
        "tm:stoneedge",
        "tm:strength",
        "tm:substitute",
        "tm:sunnyday",
        "tm:swagger",
        "tm:swift",
        "tm:swordsdance",
        "tm:thunderpunch",
        "tm:toxic",
        "tm:workup",
        "tm:zenheadbutt",
        "tutor:coaching",
        "tutor:dualchop",
        "tutor:focuspunch",
        "tutor:furycutter",
        "tutor:headbutt",
        "tutor:magnetrise",
        "tutor:mudslap",
        "tutor:roleplay",
        "tutor:steelbeam",
        "tutor:terrainpulse",
        "tutor:vacuumwave",
        "tutor:waterpulse"
    ],
    "labels": [
        "gen4"
    ],
    "pokedex": [
        "cobblemon.species.lucario.desc1",
        "cobblemon.species.lucario.desc2"
    ],
    "preEvolution": "riolu",
    "evolutions": [],
    "baseScale": 1.0,
    "hitbox": {
        "width": 1.0,
        "height": 1.0,
        "fixed": false
    },
    "baseFriendship": 50,
    "evYield": {
        "attack": 1,
        "special_attack": 1
    },
    "height": 12,
    "weight": 540
}