{
    "name": "spiritomb",
    "nationalPokedexNumber": 442,
    "primaryType": "ghost",
    "secondaryType": "dark",
    "abilities": [
        "pressure",
        "h:infiltrator"
    ],
    "baseStats": {
        "hp": 50,
        "attack": 92,
        "defence": 108,
        "special_attack": 92,
        "special_defence": 108,
        "speed": 35
    },
    "catchRate": 100,
    "maleRatio": 0.5,
    "shoulderMountable": false,
    "forms": [],
    "baseExperienceYield": 170,
    "experienceGroup": "mediumfast",
    "eggCycles": 30,
    "eggGroups": [
        "amorphous"
    ],
    "moves": [
        "1:nightshade",
        "1:confuseray",
        "1:pursuit",
        "5:shadowsneak",
        "7:feintattack",
        "10:spite",
        "15:payback",
        "20:nastyplot",
        "25:ominouswind",
        "25:hex",
        "30:memento",
        "35:suckerpunch",
        "40:curse",
        "45:shadowball",
        "50:darkpulse",
        "55:hypnosis",
        "60:dreameater",
        "egg:captivate",
        "egg:destinybond",
        "egg:disable",
        "egg:grudge",
        "egg:nightmare",
        "egg:painsplit",
        "egg:smokescreen",
        "tm:allyswitch",
        "tm:attract",
        "tm:calmmind",
        "tm:confide",
        "tm:darkpulse",
        "tm:doubleteam",
        "tm:embargo",
        "tm:endure",
        "tm:facade",
        "tm:flash",
        "tm:foulplay",
        "tm:frustration",
        "tm:gigaimpact",
        "tm:hex",
        "tm:hiddenpower",
        "tm:hyperbeam",
        "tm:icywind",
        "tm:imprison",
        "tm:infestation",
        "tm:nastyplot",
        "tm:naturalgift",
        "tm:payback",
        "tm:phantomforce",
        "tm:protect",
        "tm:psychic",
        "tm:psychup",
        "tm:quash",
        "tm:raindance",
        "tm:rest",
        "tm:retaliate",
        "tm:return",
        "tm:rocktomb",
        "tm:round",
        "tm:secretpower",
        "tm:shadowball",
        "tm:silverwind",
        "tm:sleeptalk",
        "tm:snarl",
        "tm:snore",
        "tm:substitute",
        "tm:sunnyday",
        "tm:swagger",
        "tm:taunt",
        "tm:thief",
        "tm:torment",
        "tm:toxic",
        "tm:trick",
        "tm:uproar",
        "tm:willowisp",
        "tm:wonderroom",
        "tutor:burningjealousy",
        "tutor:lashout",
        "tutor:poltergeist",
        "tutor:shockwave",
        "tutor:snatch",
        "tutor:telekinesis",
        "tutor:waterpulse"
    ],
    "labels": [
        "gen4"
    ],
    "pokedex": [
        "cobblemon.species.spiritomb.desc1",
        "cobblemon.species.spiritomb.desc2"
    ],
    "evolutions": [],
    "baseScale": 1.0,
    "hitbox": {
        "width": 1.0,
        "height": 1.0,
        "fixed": false
    },
    "baseFriendship": 50,
    "evYield": {
        "defence": 1,
        "special_defence": 1
    },
    "height": 10,
    "weight": 1080
}