{
  "name": "catastropika",
  "type": "Electric",
  "damageCategory": "Physical",
  "target": "normal",
  "power": 210,
  "accuracy": 100.0,
  "pp": 1,
  "priority": 0,
  "flags": {
    "contact": 1
  }
}