{
  "name": "darkvoid",
  "type": "Dark",
  "damageCategory": "Status",
  "target": "allAdjacentFoes",
  "power": 0,
  "accuracy": 50,
  "pp": 10,
  "priority": 0,
  "flags": {
    "protect": 1,
    "reflectable": 1,
    "mirror": 1
  }
}