{
  "name": "firelash",
  "type": "Fire",
  "damageCategory": "Physical",
  "target": "normal",
  "power": 80,
  "accuracy": 100,
  "pp": 15,
  "priority": 0,
  "effectChance": 100,
  "flags": {
    "contact": 1,
    "protect": 1,
    "mirror": 1
  }
}