{
  "name": "gust",
  "type": "Flying",
  "damageCategory": "Special",
  "target": "any",
  "power": 40,
  "accuracy": 100,
  "pp": 35,
  "priority": 0,
  "flags": {
    "protect": 1,
    "mirror": 1,
    "distance": 1
  }
}