{
  "name": "hurricane",
  "type": "Flying",
  "damageCategory": "Special",
  "target": "any",
  "power": 110,
  "accuracy": 70,
  "pp": 10,
  "priority": 0,
  "effectChance": 30,
  "flags": {
    "protect": 1,
    "mirror": 1,
    "distance": 1
  }
}