{
  "name": "mistyexplosion",
  "type": "Fairy",
  "damageCategory": "Special",
  "target": "allAdjacent",
  "power": 100,
  "accuracy": 100,
  "pp": 5,
  "priority": 0,
  "flags": {
    "protect": 1,
    "mirror": 1
  }
}