{
  "name": "mysticalfire",
  "type": "Fire",
  "damageCategory": "Special",
  "target": "normal",
  "power": 75,
  "accuracy": 100,
  "pp": 10,
  "priority": 0,
  "effectChance": 100,
  "flags": {
    "protect": 1,
    "mirror": 1
  }
}