{
  "name": "poisongas",
  "type": "Poison",
  "damageCategory": "Status",
  "target": "allAdjacentFoes",
  "power": 0,
  "accuracy": 90,
  "pp": 40,
  "priority": 0,
  "flags": {
    "protect": 1,
    "reflectable": 1,
    "mirror": 1
  }
}