{
  "name": "razorshell",
  "type": "Water",
  "damageCategory": "Physical",
  "target": "normal",
  "power": 75,
  "accuracy": 95,
  "pp": 10,
  "priority": 0,
  "effectChance": 50,
  "flags": {
    "contact": 1,
    "protect": 1,
    "mirror": 1
  }
}