{
  "name": "revelationdance",
  "type": "Normal",
  "damageCategory": "Special",
  "target": "normal",
  "power": 90,
  "accuracy": 100,
  "pp": 15,
  "priority": 0,
  "flags": {
    "protect": 1,
    "mirror": 1,
    "dance": 1
  }
}