{
  "name": "shadowforce",
  "type": "Ghost",
  "damageCategory": "Physical",
  "target": "normal",
  "power": 120,
  "accuracy": 100,
  "pp": 5,
  "priority": 0,
  "flags": {
    "contact": 1,
    "charge": 1,
    "mirror": 1
  }
}