{
  "name": "shellsidearm",
  "type": "Poison",
  "damageCategory": "Special",
  "target": "normal",
  "power": 90,
  "accuracy": 100,
  "pp": 10,
  "priority": 0,
  "effectChance": 20,
  "effectStatus": "psn",
  "flags": {
    "protect": 1,
    "mirror": 1
  }
}