{
  "name": "stunspore",
  "type": "Grass",
  "damageCategory": "Status",
  "target": "normal",
  "power": 0,
  "accuracy": 75,
  "pp": 30,
  "priority": 0,
  "flags": {
    "powder": 1,
    "protect": 1,
    "reflectable": 1,
    "mirror": 1
  }
}