{
  "name": "topsyturvy",
  "type": "Dark",
  "damageCategory": "Status",
  "target": "normal",
  "power": 0,
  "accuracy": 100.0,
  "pp": 20,
  "priority": 0,
  "flags": {
    "protect": 1,
    "reflectable": 1,
    "mirror": 1,
    "allyanim": 1
  }
}