{
  "name": "triattack",
  "type": "Normal",
  "damageCategory": "Special",
  "target": "normal",
  "power": 80,
  "accuracy": 100,
  "pp": 10,
  "priority": 0,
  "effectChance": 20,
  "flags": {
    "protect": 1,
    "mirror": 1
  }
}