{
  "name": "vcreate",
  "type": "Fire",
  "damageCategory": "Physical",
  "target": "normal",
  "power": 180,
  "accuracy": 95,
  "pp": 5,
  "priority": 0,
  "flags": {
    "contact": 1,
    "protect": 1,
    "mirror": 1
  }
}