{
  "name": "zapcannon",
  "type": "Electric",
  "damageCategory": "Special",
  "target": "normal",
  "power": 120,
  "accuracy": 50,
  "pp": 5,
  "priority": 0,
  "effectChance": 100,
  "effectStatus": "par",
  "flags": {
    "bullet": 1,
    "protect": 1,
    "mirror": 1
  }
}