{
	"format_version": "1.8.0",
	"animations": {
		"animation.dodrio.ground_idle": {
			"loop": true,
			"bones": {
				"headfluff": {
					"rotation": [-60, 0, 0]
				},
				"headfluff2": {
					"rotation": [-45, 0, 0]
				},
				"headfluff3": {
					"rotation": [-60, 0, 0]
				},
				"headfluff4": {
					"rotation": [-45, 0, 0]
				},
				"headfluff5": {
					"rotation": [-60, 0, 0]
				},
				"headfluff6": {
					"rotation": [-45, 0, 0]
				},
				"tail": {
					"rotation": [30, 0, 0]
				}
			}
		}
	}
}