{
    "name": "kartana",
    "nationalPokedexNumber": 798,
    "primaryType": "grass",
    "secondaryType": "steel",
    "abilities": [
        "beastboost"
    ],
    "baseStats": {
        "hp": 59,
        "attack": 181,
        "defence": 131,
        "special_attack": 59,
        "special_defence": 31,
        "speed": 109
    },
    "catchRate": 45,
    "maleRatio": -1,
    "shoulderMountable": false,
    "forms": [],
    "baseExperienceYield": 285,
    "experienceGroup": "slow",
    "eggCycles": 120,
    "eggGroups": [
        "undiscovered"
    ],
    "moves": [
        "1:furycutter",
        "1:vacuumwave",
        "5:razorleaf",
        "10:falseswipe",
        "15:cut",
        "20:aircutter",
        "25:aerialace",
        "30:detect",
        "35:nightslash",
        "40:synthesis",
        "45:laserfocus",
        "50:defog",
        "55:leafblade",
        "60:sacredsword",
        "65:swordsdance",
        "70:guillotine",
        "tm:airslash",
        "tm:brickbreak",
        "tm:calmmind",
        "tm:confide",
        "tm:doubleteam",
        "tm:endure",
        "tm:falseswipe",
        "tm:frustration",
        "tm:gigadrain",
        "tm:gigaimpact",
        "tm:hiddenpower",
        "tm:irondefense",
        "tm:leafblade",
        "tm:protect",
        "tm:psychocut",
        "tm:rest",
        "tm:return",
        "tm:round",
        "tm:screech",
        "tm:sleeptalk",
        "tm:smartstrike",
        "tm:snore",
        "tm:solarblade",
        "tm:substitute",
        "tm:swagger",
        "tm:swordsdance",
        "tm:toxic",
        "tm:xscissor",
        "tutor:knockoff",
        "tutor:lastresort",
        "tutor:steelbeam",
        "tutor:tailwind"
    ],
    "labels": [
        "gen7",
        "ultra_beast"
    ],
    "pokedex": [
        "cobblemon.species.kartana.desc1",
        "cobblemon.species.kartana.desc2"
    ],
    "evolutions": [],
    "baseScale": 1.0,
    "hitbox": {
        "width": 1.0,
        "height": 1.0,
        "fixed": false
    },
    "baseFriendship": 0,
    "evYield": {
        "attack": 3
    },
    "height": 3,
    "weight": 1
}