{
    "name": "komala",
    "nationalPokedexNumber": 775,
    "primaryType": "normal",
    "abilities": [
        "comatose"
    ],
    "baseStats": {
        "hp": 65,
        "attack": 115,
        "defence": 65,
        "special_attack": 75,
        "special_defence": 95,
        "speed": 65
    },
    "catchRate": 45,
    "maleRatio": 0.5,
    "shoulderMountable": false,
    "forms": [],
    "baseExperienceYield": 168,
    "experienceGroup": "slow",
    "eggCycles": 20,
    "eggGroups": [
        "field"
    ],
    "moves": [
        "1:defensecurl",
        "1:rollout",
        "6:stockpile",
        "6:spitup",
        "6:swallow",
        "11:rapidspin",
        "16:yawn",
        "21:slam",
        "26:flail",
        "31:suckerpunch",
        "36:psychup",
        "41:woodhammer",
        "46:thrash",
        "egg:charm",
        "egg:playrough",
        "egg:sing",
        "egg:wish",
        "tm:acrobatics",
        "tm:attract",
        "tm:brickbreak",
        "tm:bulkup",
        "tm:bulldoze",
        "tm:calmmind",
        "tm:confide",
        "tm:doubleteam",
        "tm:earthquake",
        "tm:facade",
        "tm:frustration",
        "tm:hiddenpower",
        "tm:lowsweep",
        "tm:payback",
        "tm:protect",
        "tm:psychup",
        "tm:quash",
        "tm:return",
        "tm:rockslide",
        "tm:round",
        "tm:shadowclaw",
        "tm:sleeptalk",
        "tm:substitute",
        "tm:sunnyday",
        "tm:swagger",
        "tm:swordsdance",
        "tm:toxic",
        "tm:uturn",
        "tm:workup",
        "tutor:endeavor",
        "tutor:ironhead",
        "tutor:knockoff",
        "tutor:lastresort",
        "tutor:snore",
        "tutor:stompingtantrum",
        "tutor:superpower",
        "tutor:zenheadbutt"
    ],
    "labels": [
        "gen7"
    ],
    "pokedex": [
        "cobblemon.species.komala.desc1",
        "cobblemon.species.komala.desc2"
    ],
    "evolutions": [],
    "baseScale": 1.0,
    "hitbox": {
        "width": 1.0,
        "height": 1.0,
        "fixed": false
    },
    "baseFriendship": 70,
    "evYield": {
        "attack": 2
    },
    "height": 4,
    "weight": 199
}