{
    "name": "melmetal",
    "nationalPokedexNumber": 809,
    "primaryType": "steel",
    "abilities": [
        "ironfist"
    ],
    "baseStats": {
        "hp": 135,
        "attack": 143,
        "defence": 143,
        "special_attack": 80,
        "special_defence": 65,
        "speed": 34
    },
    "catchRate": 3,
    "maleRatio": -1,
    "shoulderMountable": false,
    "forms": [
        {
            "name": "normal"
        },
        {
            "name": "gmax",
            "aspects": ["gmax"],
            "baseExperienceYield": 270,
            "moves": [],
            "labels": [
                "gen7",
                "gmax",
                "mythical"
            ],
            "pokedex": [
                "cobblemon.form.melmetal-gmax.desc1",
                "cobblemon.form.melmetal-gmax.desc2"
            ],
            "height": 250,
            "weight": 10000
        }
    ],
    "baseExperienceYield": 300,
    "experienceGroup": "slow",
    "eggCycles": 120,
    "eggGroups": [
        "undiscovered"
    ],
    "moves": [
        "0:thunderpunch",
        "1:thunderpunch",
        "1:headbutt",
        "1:tailwhip",
        "1:thundershock",
        "1:harden",
        "24:thunderwave",
        "32:acidarmor",
        "40:flashcannon",
        "48:megapunch",
        "56:protect",
        "64:discharge",
        "72:dynamicpunch",
        "80:superpower",
        "88:doubleironbash",
        "96:hyperbeam",
        "tm:bodypress",
        "tm:bodyslam",
        "tm:brickbreak",
        "tm:brutalswing",
        "tm:darkestlariat",
        "tm:earthquake",
        "tm:electricterrain",
        "tm:endure",
        "tm:facade",
        "tm:flashcannon",
        "tm:gigaimpact",
        "tm:gyroball",
        "tm:heavyslam",
        "tm:highhorsepower",
        "tm:hyperbeam",
        "tm:icebeam",
        "tm:icepunch",
        "tm:irondefense",
        "tm:ironhead",
        "tm:megakick",
        "tm:megapunch",
        "tm:protect",
        "tm:rest",
        "tm:rockslide",
        "tm:rocktomb",
        "tm:round",
        "tm:selfdestruct",
        "tm:sleeptalk",
        "tm:snore",
        "tm:solarbeam",
        "tm:substitute",
        "tm:superpower",
        "tm:thunder",
        "tm:thunderbolt",
        "tm:thunderpunch",
        "tm:thunderwave",
        "tm:toxic",
        "tutor:steelbeam",
        "tutor:steelroller"
    ],
    "labels": [
        "gen7",
        "mythical"
    ],
    "pokedex": [
        "cobblemon.species.melmetal.desc1",
        "cobblemon.species.melmetal.desc2"
    ],
    "evolutions": [],
    "baseScale": 1.0,
    "hitbox": {
        "width": 1.0,
        "height": 1.0,
        "fixed": false
    },
    "baseFriendship": 0,
    "evYield": {
        "attack": 3
    },
    "height": 25,
    "weight": 8000
}