{
    "implemented": true,
    "name": "mimikyu",
    "nationalPokedexNumber": 778,
    "primaryType": "ghost",
    "secondaryType": "fairy",
    "abilities": [
        "disguise"
    ],
    "baseStats": {
        "hp": 55,
        "attack": 90,
        "defence": 80,
        "special_attack": 50,
        "special_defence": 105,
        "speed": 96
    },
    "catchRate": 45,
    "maleRatio": 0.5,
    "shoulderMountable": false,
    "baseExperienceYield": 167,
    "experienceGroup": "mediumfast",
    "eggCycles": 20,
    "eggGroups": [
        "amorphous"
    ],
    "moves": [
        "1:scratch",
        "1:splash",
        "1:astonish",
        "1:copycat",
        "1:woodhammer",
        "6:shadowsneak",
        "12:doubleteam",
        "18:babydolleyes",
        "23:feintattack",
        "24:mimic",
        "30:honeclaws",
        "36:slash",
        "42:shadowclaw",
        "48:charm",
        "54:playrough",
        "60:painsplit",
        "egg:curse",
        "egg:destinybond",
        "egg:grudge",
        "egg:nightmare",
        "tm:attract",
        "tm:beatup",
        "tm:bulkup",
        "tm:chargebeam",
        "tm:charm",
        "tm:confide",
        "tm:darkpulse",
        "tm:dazzlinggleam",
        "tm:drainingkiss",
        "tm:drainpunch",
        "tm:dreameater",
        "tm:embargo",
        "tm:endure",
        "tm:facade",
        "tm:fling",
        "tm:frustration",
        "tm:gigadrain",
        "tm:gigaimpact",
        "tm:hex",
        "tm:hiddenpower",
        "tm:hyperbeam",
        "tm:infestation",
        "tm:leechlife",
        "tm:lightscreen",
        "tm:magicroom",
        "tm:payback",
        "tm:phantomforce",
        "tm:playrough",
        "tm:protect",
        "tm:psychic",
        "tm:psychup",
        "tm:rest",
        "tm:return",
        "tm:round",
        "tm:safeguard",
        "tm:screech",
        "tm:shadowball",
        "tm:shadowclaw",
        "tm:sleeptalk",
        "tm:snore",
        "tm:substitute",
        "tm:swagger",
        "tm:swordsdance",
        "tm:taunt",
        "tm:thief",
        "tm:thunder",
        "tm:thunderbolt",
        "tm:thunderwave",
        "tm:toxic",
        "tm:trick",
        "tm:trickroom",
        "tm:willowisp",
        "tm:workup",
        "tm:xscissor",
        "tutor:afteryou",
        "tutor:burningjealousy",
        "tutor:covet",
        "tutor:lastresort",
        "tutor:snatch",
        "tutor:spite",
        "tutor:telekinesis"
    ],
    "labels": [
        "gen7"
    ],
    "pokedex": [
        "cobblemon.species.mimikyu.desc1",
        "cobblemon.species.mimikyu.desc2"
    ],
    "evolutions": [],
    "baseScale": 0.7,
    "hitbox": {
        "width": 0.7,
        "height": 1.0,
        "fixed": false
    },
    "baseFriendship": 50,
    "evYield": {
        "special_defence": 2
    },
    "height": 2,
    "weight": 7,
    "forms": [
        {
            "name": "busted",
            "moves": [
                "1:scratch",
                "1:splash",
                "1:astonish",
                "1:copycat",
                "1:woodhammer",
                "6:shadowsneak",
                "12:doubleteam",
                "18:babydolleyes",
                "23:feintattack",
                "24:mimic",
                "30:honeclaws",
                "36:slash",
                "42:shadowclaw",
                "48:charm",
                "54:playrough",
                "60:painsplit",
                "egg:curse",
                "egg:destinybond",
                "egg:grudge",
                "egg:nightmare",
                "tm:attract",
                "tm:beatup",
                "tm:bulkup",
                "tm:chargebeam",
                "tm:charm",
                "tm:confide",
                "tm:darkpulse",
                "tm:dazzlinggleam",
                "tm:drainingkiss",
                "tm:drainpunch",
                "tm:dreameater",
                "tm:embargo",
                "tm:endure",
                "tm:facade",
                "tm:fling",
                "tm:frustration",
                "tm:gigadrain",
                "tm:gigaimpact",
                "tm:hex",
                "tm:hiddenpower",
                "tm:hyperbeam",
                "tm:infestation",
                "tm:leechlife",
                "tm:lightscreen",
                "tm:magicroom",
                "tm:payback",
                "tm:phantomforce",
                "tm:playrough",
                "tm:protect",
                "tm:psychic",
                "tm:psychup",
                "tm:rest",
                "tm:return",
                "tm:round",
                "tm:safeguard",
                "tm:screech",
                "tm:shadowball",
                "tm:shadowclaw",
                "tm:sleeptalk",
                "tm:snore",
                "tm:substitute",
                "tm:surf",
                "tm:swagger",
                "tm:swordsdance",
                "tm:taunt",
                "tm:thief",
                "tm:thunder",
                "tm:thunderbolt",
                "tm:thunderwave",
                "tm:toxic",
                "tm:trick",
                "tm:trickroom",
                "tm:willowisp",
                "tm:workup",
                "tm:xscissor",
                "tutor:afteryou",
                "tutor:burningjealousy",
                "tutor:covet",
                "tutor:lastresort",
                "tutor:snatch",
                "tutor:spite",
                "tutor:telekinesis"
            ],
            "pokedex": [
                "cobblemon.form.mimikyu-busted.desc1",
                "cobblemon.form.mimikyu-busted.desc2"
            ]
        },
        {
            "name": "totem-disguised",
            "moves": [
                "1:scratch",
                "1:splash",
                "1:astonish",
                "1:copycat",
                "1:woodhammer",
                "5:doubleteam",
                "10:babydolleyes",
                "14:shadowsneak",
                "19:mimic",
                "23:feintattack",
                "28:charm",
                "32:slash",
                "37:shadowclaw",
                "41:honeclaws",
                "46:playrough",
                "50:painsplit",
                "tm:attract",
                "tm:bulkup",
                "tm:chargebeam",
                "tm:confide",
                "tm:darkpulse",
                "tm:dazzlinggleam",
                "tm:doubleteam",
                "tm:dreameater",
                "tm:embargo",
                "tm:facade",
                "tm:fling",
                "tm:frustration",
                "tm:hiddenpower",
                "tm:hyperbeam",
                "tm:infestation",
                "tm:leechlife",
                "tm:lightscreen",
                "tm:payback",
                "tm:protect",
                "tm:psychic",
                "tm:psychup",
                "tm:rest",
                "tm:return",
                "tm:round",
                "tm:safeguard",
                "tm:shadowball",
                "tm:shadowclaw",
                "tm:sleeptalk",
                "tm:substitute",
                "tm:swagger",
                "tm:swordsdance",
                "tm:taunt",
                "tm:thief",
                "tm:thunder",
                "tm:thunderbolt",
                "tm:thunderwave",
                "tm:toxic",
                "tm:trickroom",
                "tm:willowisp",
                "tm:workup",
                "tm:xscissor",
                "tutor:afteryou",
                "tutor:covet",
                "tutor:drainpunch",
                "tutor:gigadrain",
                "tutor:lastresort",
                "tutor:magicroom",
                "tutor:painsplit",
                "tutor:snatch",
                "tutor:snore",
                "tutor:spite",
                "tutor:telekinesis",
                "tutor:trick"
            ],
            "pokedex": [
                "cobblemon.form.mimikyu-totem-disguised.desc1",
                "cobblemon.form.mimikyu-totem-disguised.desc2"
            ],
            "height": 4,
            "weight": 28
        },
        {
            "name": "totem-busted",
            "moves": [
                "1:scratch",
                "1:splash",
                "1:astonish",
                "1:copycat",
                "1:woodhammer",
                "5:doubleteam",
                "10:babydolleyes",
                "14:shadowsneak",
                "19:mimic",
                "23:feintattack",
                "28:charm",
                "32:slash",
                "37:shadowclaw",
                "41:honeclaws",
                "46:playrough",
                "50:painsplit",
                "tm:attract",
                "tm:bulkup",
                "tm:chargebeam",
                "tm:confide",
                "tm:darkpulse",
                "tm:dazzlinggleam",
                "tm:doubleteam",
                "tm:dreameater",
                "tm:embargo",
                "tm:facade",
                "tm:fling",
                "tm:frustration",
                "tm:hiddenpower",
                "tm:hyperbeam",
                "tm:infestation",
                "tm:leechlife",
                "tm:lightscreen",
                "tm:payback",
                "tm:protect",
                "tm:psychic",
                "tm:psychup",
                "tm:rest",
                "tm:return",
                "tm:round",
                "tm:safeguard",
                "tm:shadowball",
                "tm:shadowclaw",
                "tm:sleeptalk",
                "tm:substitute",
                "tm:surf",
                "tm:swagger",
                "tm:swordsdance",
                "tm:taunt",
                "tm:thief",
                "tm:thunder",
                "tm:thunderbolt",
                "tm:thunderwave",
                "tm:toxic",
                "tm:trickroom",
                "tm:willowisp",
                "tm:workup",
                "tm:xscissor",
                "tutor:afteryou",
                "tutor:covet",
                "tutor:drainpunch",
                "tutor:gigadrain",
                "tutor:lastresort",
                "tutor:magicroom",
                "tutor:painsplit",
                "tutor:snatch",
                "tutor:snore",
                "tutor:spite",
                "tutor:telekinesis",
                "tutor:trick"
            ],
            "pokedex": [
                "cobblemon.form.mimikyu-totem-busted.desc1",
                "cobblemon.form.mimikyu-totem-busted.desc2"
            ],
            "height": 4,
            "weight": 28
        }
    ]
}