{
    "name": "oranguru",
    "nationalPokedexNumber": 765,
    "primaryType": "normal",
    "secondaryType": "psychic",
    "abilities": [
        "innerfocus",
        "telepathy",
        "h:symbiosis"
    ],
    "baseStats": {
        "hp": 90,
        "attack": 60,
        "defence": 80,
        "special_attack": 90,
        "special_defence": 110,
        "speed": 60
    },
    "catchRate": 45,
    "maleRatio": 0.5,
    "shoulderMountable": false,
    "forms": [],
    "baseExperienceYield": 172,
    "experienceGroup": "slow",
    "eggCycles": 20,
    "eggGroups": [
        "field"
    ],
    "moves": [
        "1:confusion",
        "1:taunt",
        "5:afteryou",
        "10:calmmind",
        "15:storedpower",
        "20:psychup",
        "22:feintattack",
        "25:quash",
        "30:nastyplot",
        "35:zenheadbutt",
        "40:trickroom",
        "45:psychic",
        "50:instruct",
        "55:foulplay",
        "60:futuresight",
        "egg:dreameater",
        "egg:extrasensory",
        "egg:lastresort",
        "egg:yawn",
        "tm:allyswitch",
        "tm:attract",
        "tm:brickbreak",
        "tm:brutalswing",
        "tm:bulldoze",
        "tm:calmmind",
        "tm:chargebeam",
        "tm:confide",
        "tm:doubleteam",
        "tm:earthquake",
        "tm:embargo",
        "tm:encore",
        "tm:endure",
        "tm:energyball",
        "tm:facade",
        "tm:fling",
        "tm:focusblast",
        "tm:foulplay",
        "tm:frustration",
        "tm:futuresight",
        "tm:gigaimpact",
        "tm:hiddenpower",
        "tm:hyperbeam",
        "tm:imprison",
        "tm:lightscreen",
        "tm:magicroom",
        "tm:megakick",
        "tm:megapunch",
        "tm:nastyplot",
        "tm:naturepower",
        "tm:payback",
        "tm:protect",
        "tm:psychic",
        "tm:psychicterrain",
        "tm:psyshock",
        "tm:raindance",
        "tm:reflect",
        "tm:rest",
        "tm:return",
        "tm:rockslide",
        "tm:round",
        "tm:safeguard",
        "tm:shadowball",
        "tm:sleeptalk",
        "tm:snore",
        "tm:storedpower",
        "tm:substitute",
        "tm:sunnyday",
        "tm:swagger",
        "tm:taunt",
        "tm:thunder",
        "tm:thunderbolt",
        "tm:toxic",
        "tm:trick",
        "tm:trickroom",
        "tm:wonderroom",
        "tm:workup",
        "tm:zenheadbutt",
        "tutor:block",
        "tutor:covet",
        "tutor:expandingforce",
        "tutor:gravity",
        "tutor:knockoff",
        "tutor:magiccoat",
        "tutor:painsplit",
        "tutor:snatch",
        "tutor:spite",
        "tutor:telekinesis",
        "tutor:terrainpulse"
    ],
    "labels": [
        "gen7"
    ],
    "pokedex": [
        "cobblemon.species.oranguru.desc1",
        "cobblemon.species.oranguru.desc2"
    ],
    "evolutions": [],
    "baseScale": 1.0,
    "hitbox": {
        "width": 1.0,
        "height": 1.0,
        "fixed": false
    },
    "baseFriendship": 50,
    "evYield": {
        "special_defence": 2
    },
    "height": 15,
    "weight": 760
}