{
    "name": "pheromosa",
    "nationalPokedexNumber": 795,
    "primaryType": "bug",
    "secondaryType": "fighting",
    "abilities": [
        "beastboost"
    ],
    "baseStats": {
        "hp": 71,
        "attack": 137,
        "defence": 37,
        "special_attack": 137,
        "special_defence": 37,
        "speed": 151
    },
    "catchRate": 45,
    "maleRatio": -1,
    "shoulderMountable": false,
    "forms": [],
    "baseExperienceYield": 285,
    "experienceGroup": "slow",
    "eggCycles": 120,
    "eggGroups": [
        "undiscovered"
    ],
    "moves": [
        "1:rapidspin",
        "1:feint",
        "5:leer",
        "10:quickguard",
        "15:bugbite",
        "20:lowkick",
        "23:silverwind",
        "25:doublekick",
        "30:triplekick",
        "31:jumpkick",
        "35:stomp",
        "40:agility",
        "45:lunge",
        "50:bounce",
        "55:speedswap",
        "59:mefirst",
        "60:bugbuzz",
        "65:quiverdance",
        "70:highjumpkick",
        "tm:agility",
        "tm:assurance",
        "tm:blizzard",
        "tm:bounce",
        "tm:brickbreak",
        "tm:bugbuzz",
        "tm:closecombat",
        "tm:confide",
        "tm:doubleteam",
        "tm:drillrun",
        "tm:echoedvoice",
        "tm:electroweb",
        "tm:endure",
        "tm:facade",
        "tm:falseswipe",
        "tm:fling",
        "tm:focusblast",
        "tm:foulplay",
        "tm:frustration",
        "tm:gigaimpact",
        "tm:hiddenpower",
        "tm:hyperbeam",
        "tm:icebeam",
        "tm:icywind",
        "tm:lowkick",
        "tm:lowsweep",
        "tm:outrage",
        "tm:poisonjab",
        "tm:protect",
        "tm:rest",
        "tm:return",
        "tm:roost",
        "tm:round",
        "tm:sleeptalk",
        "tm:snore",
        "tm:speedswap",
        "tm:substitute",
        "tm:swagger",
        "tm:swift",
        "tm:taunt",
        "tm:throatchop",
        "tm:torment",
        "tm:toxic",
        "tm:uturn",
        "tutor:block",
        "tutor:coaching",
        "tutor:laserfocus",
        "tutor:shockwave",
        "tutor:signalbeam",
        "tutor:skittersmack",
        "tutor:snatch",
        "tutor:tripleaxel"
    ],
    "labels": [
        "gen7",
        "ultra_beast"
    ],
    "pokedex": [
        "cobblemon.species.pheromosa.desc1",
        "cobblemon.species.pheromosa.desc2"
    ],
    "evolutions": [],
    "baseScale": 1.0,
    "hitbox": {
        "width": 1.0,
        "height": 1.0,
        "fixed": false
    },
    "baseFriendship": 0,
    "evYield": {
        "speed": 3
    },
    "height": 18,
    "weight": 250
}