{
    "name": "primarina",
    "nationalPokedexNumber": 730,
    "primaryType": "water",
    "secondaryType": "fairy",
    "abilities": [
        "torrent",
        "h:liquidvoice"
    ],
    "baseStats": {
        "hp": 80,
        "attack": 74,
        "defence": 74,
        "special_attack": 126,
        "special_defence": 116,
        "speed": 60
    },
    "catchRate": 45,
    "maleRatio": 0.875,
    "shoulderMountable": false,
    "forms": [],
    "baseExperienceYield": 265,
    "experienceGroup": "mediumslow",
    "eggCycles": 15,
    "eggGroups": [
        "water_1",
        "field"
    ],
    "moves": [
        "0:sparklingaria",
        "1:pound",
        "1:growl",
        "1:watergun",
        "1:disarmingvoice",
        "1:sparklingaria",
        "9:aquajet",
        "12:babydolleyes",
        "15:icywind",
        "20:sing",
        "25:bubblebeam",
        "30:encore",
        "33:doubleslap",
        "37:mistyterrain",
        "44:hypervoice",
        "49:captivate",
        "51:moonblast",
        "58:hydropump",
        "tm:acrobatics",
        "tm:amnesia",
        "tm:attract",
        "tm:blizzard",
        "tm:brine",
        "tm:calmmind",
        "tm:charm",
        "tm:confide",
        "tm:dazzlinggleam",
        "tm:dive",
        "tm:doubleteam",
        "tm:drainingkiss",
        "tm:echoedvoice",
        "tm:encore",
        "tm:endure",
        "tm:energyball",
        "tm:facade",
        "tm:frustration",
        "tm:gigaimpact",
        "tm:hail",
        "tm:helpinghand",
        "tm:hiddenpower",
        "tm:hydropump",
        "tm:hyperbeam",
        "tm:hypervoice",
        "tm:icebeam",
        "tm:icywind",
        "tm:irontail",
        "tm:lightscreen",
        "tm:liquidation",
        "tm:mistyterrain",
        "tm:playrough",
        "tm:protect",
        "tm:psychic",
        "tm:psychup",
        "tm:raindance",
        "tm:reflect",
        "tm:rest",
        "tm:return",
        "tm:round",
        "tm:scald",
        "tm:shadowball",
        "tm:sleeptalk",
        "tm:snore",
        "tm:storedpower",
        "tm:substitute",
        "tm:surf",
        "tm:swagger",
        "tm:toxic",
        "tm:uproar",
        "tm:waterfall",
        "tm:weatherball",
        "tm:whirlpool",
        "tm:wonderroom",
        "tm:workup",
        "tutor:aquatail",
        "tutor:covet",
        "tutor:flipturn",
        "tutor:hydrocannon",
        "tutor:magiccoat",
        "tutor:mistyexplosion",
        "tutor:tripleaxel",
        "tutor:waterpledge",
        "tutor:waterpulse"
    ],
    "labels": [
        "gen7"
    ],
    "pokedex": [
        "cobblemon.species.primarina.desc1",
        "cobblemon.species.primarina.desc2"
    ],
    "preEvolution": "brionne",
    "evolutions": [],
    "baseScale": 1.0,
    "hitbox": {
        "width": 1.0,
        "height": 1.0,
        "fixed": false
    },
    "baseFriendship": 50,
    "evYield": {
        "special_attack": 3
    },
    "height": 18,
    "weight": 440
}