{
    "name": "cinderace",
    "nationalPokedexNumber": 815,
    "primaryType": "fire",
    "abilities": [
        "blaze",
        "h:libero"
    ],
    "baseStats": {
        "hp": 80,
        "attack": 116,
        "defence": 75,
        "special_attack": 65,
        "special_defence": 75,
        "speed": 119
    },
    "catchRate": 45,
    "maleRatio": 0.875,
    "shoulderMountable": false,
    "forms": [
        {
            "name": "normal"
        },
        {
            "name": "gmax",
            "aspects": ["gmax"],
            "moves": [],
            "labels": [
                "gen8",
                "gmax"
            ],
            "pokedex": [
                "cobblemon.form.cinderace-gmax.desc1",
                "cobblemon.form.cinderace-gmax.desc2"
            ],
            "height": 270,
            "weight": 10000
        }
    ],
    "baseExperienceYield": 265,
    "experienceGroup": "mediumslow",
    "eggCycles": 20,
    "eggGroups": [
        "field",
        "human_like"
    ],
    "moves": [
        "0:pyroball",
        "1:tackle",
        "1:growl",
        "1:ember",
        "1:quickattack",
        "1:feint",
        "1:pyroball",
        "12:doublekick",
        "19:flamecharge",
        "24:agility",
        "30:headbutt",
        "38:counter",
        "46:bounce",
        "54:doubleedge",
        "62:courtchange",
        "tm:acrobatics",
        "tm:agility",
        "tm:allyswitch",
        "tm:assurance",
        "tm:attract",
        "tm:batonpass",
        "tm:blazekick",
        "tm:bounce",
        "tm:bulkup",
        "tm:electroball",
        "tm:endure",
        "tm:facade",
        "tm:fireblast",
        "tm:firefang",
        "tm:firepunch",
        "tm:firespin",
        "tm:flamethrower",
        "tm:flareblitz",
        "tm:focusblast",
        "tm:focusenergy",
        "tm:gigaimpact",
        "tm:gunkshot",
        "tm:heatwave",
        "tm:helpinghand",
        "tm:hyperbeam",
        "tm:ironhead",
        "tm:lowkick",
        "tm:lowsweep",
        "tm:megakick",
        "tm:mudshot",
        "tm:overheat",
        "tm:protect",
        "tm:rest",
        "tm:revenge",
        "tm:reversal",
        "tm:round",
        "tm:shadowball",
        "tm:sleeptalk",
        "tm:snarl",
        "tm:snore",
        "tm:substitute",
        "tm:sunnyday",
        "tm:swift",
        "tm:taunt",
        "tm:uturn",
        "tm:workup",
        "tm:zenheadbutt",
        "tutor:blastburn",
        "tutor:coaching",
        "tutor:firepledge",
        "tutor:scorchingsands"
    ],
    "labels": [
        "gen8"
    ],
    "pokedex": [
        "cobblemon.species.cinderace.desc1",
        "cobblemon.species.cinderace.desc2"
    ],
    "preEvolution": "raboot",
    "evolutions": [],
    "baseScale": 1.0,
    "hitbox": {
        "width": 1.0,
        "height": 1.0,
        "fixed": false
    },
    "baseFriendship": 50,
    "evYield": {
        "speed": 3
    },
    "height": 14,
    "weight": 330
}