{
    "name": "grookey",
    "nationalPokedexNumber": 810,
    "primaryType": "grass",
    "abilities": [
        "overgrow",
        "h:grassysurge"
    ],
    "baseStats": {
        "hp": 50,
        "attack": 65,
        "defence": 50,
        "special_attack": 40,
        "special_defence": 40,
        "speed": 65
    },
    "catchRate": 45,
    "maleRatio": 0.875,
    "shoulderMountable": false,
    "forms": [],
    "baseExperienceYield": 62,
    "experienceGroup": "mediumslow",
    "eggCycles": 20,
    "eggGroups": [
        "field",
        "grass"
    ],
    "moves": [
        "1:scratch",
        "1:growl",
        "6:branchpoke",
        "8:taunt",
        "12:razorleaf",
        "17:screech",
        "20:knockoff",
        "24:slam",
        "28:uproar",
        "32:woodhammer",
        "36:endeavor",
        "egg:fakeout",
        "egg:growth",
        "egg:hammerarm",
        "egg:leechseed",
        "egg:naturepower",
        "egg:strength",
        "egg:worryseed",
        "tm:acrobatics",
        "tm:assurance",
        "tm:attract",
        "tm:drainpunch",
        "tm:endure",
        "tm:energyball",
        "tm:facade",
        "tm:falseswipe",
        "tm:fling",
        "tm:focusenergy",
        "tm:gigadrain",
        "tm:grassknot",
        "tm:lowkick",
        "tm:magicalleaf",
        "tm:megakick",
        "tm:megapunch",
        "tm:protect",
        "tm:rest",
        "tm:round",
        "tm:screech",
        "tm:sleeptalk",
        "tm:snore",
        "tm:solarbeam",
        "tm:solarblade",
        "tm:substitute",
        "tm:sunnyday",
        "tm:swift",
        "tm:swordsdance",
        "tm:taunt",
        "tm:uproar",
        "tm:uturn",
        "tm:workup",
        "tutor:grasspledge",
        "tutor:grassyglide"
    ],
    "labels": [
        "gen8"
    ],
    "pokedex": [
        "cobblemon.species.grookey.desc1",
        "cobblemon.species.grookey.desc2"
    ],
    "evolutions": [
        {
            "id": "grookey_thwackey",
            "variant": "level_up",
            "result": "thwackey",
            "consumeHeldItem": false,
            "learnableMoves": [],
            "requirements": [
                {
                    "variant": "level",
                    "minLevel": 16
                }
            ]
        }
    ],
    "baseScale": 1.0,
    "hitbox": {
        "width": 1.0,
        "height": 1.0,
        "fixed": false
    },
    "baseFriendship": 50,
    "evYield": {
        "attack": 1
    },
    "height": 3,
    "weight": 50
}