{
    "name": "morpeko",
    "nationalPokedexNumber": 877,
    "primaryType": "electric",
    "secondaryType": "dark",
    "abilities": [
        "hungerswitch"
    ],
    "baseStats": {
        "hp": 58,
        "attack": 95,
        "defence": 58,
        "special_attack": 70,
        "special_defence": 58,
        "speed": 97
    },
    "catchRate": 180,
    "maleRatio": 0.5,
    "shoulderMountable": false,
    "baseExperienceYield": 153,
    "experienceGroup": "mediumfast",
    "eggCycles": 10,
    "eggGroups": [
        "field",
        "fairy"
    ],
    "moves": [
        "1:tailwhip",
        "1:thundershock",
        "5:leer",
        "10:powertrip",
        "15:quickattack",
        "20:flatter",
        "25:bite",
        "30:spark",
        "35:torment",
        "40:agility",
        "45:bulletseed",
        "50:crunch",
        "55:aurawheel",
        "60:thrash",
        "egg:charge",
        "egg:fakeout",
        "egg:partingshot",
        "egg:quash",
        "egg:rapidspin",
        "egg:superfang",
        "egg:swagger",
        "egg:tickle",
        "tm:agility",
        "tm:assurance",
        "tm:attract",
        "tm:brickbreak",
        "tm:bulletseed",
        "tm:crunch",
        "tm:darkpulse",
        "tm:electricterrain",
        "tm:electroball",
        "tm:electroweb",
        "tm:endure",
        "tm:facade",
        "tm:faketears",
        "tm:firefang",
        "tm:fling",
        "tm:foulplay",
        "tm:icefang",
        "tm:nastyplot",
        "tm:outrage",
        "tm:payback",
        "tm:protect",
        "tm:psychicfangs",
        "tm:rest",
        "tm:revenge",
        "tm:round",
        "tm:scaryface",
        "tm:seedbomb",
        "tm:sleeptalk",
        "tm:snarl",
        "tm:snore",
        "tm:stompingtantrum",
        "tm:substitute",
        "tm:swift",
        "tm:taunt",
        "tm:thief",
        "tm:thunder",
        "tm:thunderbolt",
        "tm:thunderfang",
        "tm:thunderpunch",
        "tm:thunderwave",
        "tm:uproar",
        "tm:voltswitch",
        "tm:wildcharge",
        "tutor:lashout",
        "tutor:risingvoltage"
    ],
    "labels": [
        "gen8"
    ],
    "pokedex": [
        "cobblemon.species.morpeko.desc1",
        "cobblemon.species.morpeko.desc2"
    ],
    "evolutions": [],
    "baseScale": 1.0,
    "hitbox": {
        "width": 1.0,
        "height": 1.0,
        "fixed": false
    },
    "baseFriendship": 50,
    "evYield": {
        "speed": 2
    },
    "height": 3,
    "weight": 30,
    "forms": [
        {
            "name": "hangry",
            "pokedex": [
                "cobblemon.form.morpeko-hangry.desc1",
                "cobblemon.form.morpeko-hangry.desc2"
            ]
        }
    ]
}