{
    "name": "wyrdeer",
    "nationalPokedexNumber": 899,
    "primaryType": "normal",
    "secondaryType": "psychic",
    "abilities": [
        "intimidate",
        "frisk",
        "h:sapsipper"
    ],
    "baseStats": {
        "hp": 103,
        "attack": 105,
        "defence": 72,
        "special_attack": 105,
        "special_defence": 75,
        "speed": 65
    },
    "catchRate": 135,
    "maleRatio": 0.5,
    "shoulderMountable": false,
    "baseExperienceYield": null,
    "baseFriendship": null,
    "evYield": {
        "attack": 1
    },
    "experienceGroup": "slow",
    "eggCycles": null,
    "eggGroups": [
        "field"
    ],
    "moves": [],
    "labels": [
        "gen8"
    ],
    "pokedex": [
        "cobblemon.species.wyrdeer.desc1",
        "cobblemon.species.wyrdeer.desc2"
    ],
    "height": 18,
    "weight": 951,
    "preEvolution": "stantler",
    "evolutions": [],
    "forms": []
}