{
    "enabled": true,
    "neededInstalledMods": [],
    "neededUninstalledMods": [],
    "spawns": [
        {
            "id": "piloswine-1",
            "pokemon": "piloswine",
            "type": "pokemon",
            "context": "grounded",
            "bucket": "common",
            "level": "33-45",
            "weight": 0.9,
            "condition": {
                "canSeeSky": true,
                "biomes": [
                    "#cobblemon:is_tundra"
                ]
            }
        }
    ]
}