{
    "enabled": true,
    "neededInstalledMods": [],
    "neededUninstalledMods": [],
    "spawns": [
        {
            "id": "magnezone-1",
            "pokemon": "magnezone",
            "type": "pokemon",
            "context": "grounded",
            "bucket": "common",
            "level": "47-53",
            "weight": 0.02,
            "condition": {
                "canSeeSky": true,
                "biomes": [
                    "#cobblemon:is_mountain"
                ]
            }
        }
    ]
}