{
  "species": "cobblemon:zubat",
  "order": 1,
  "variations": [
    {
      "aspects": [
        "female"
      ],
      "texture": "cobblemon:textures/pokemon/0041_zubat/zubat_female.png"
    }
  ]
}