{
	"format_version": "1.8.0",
	"animations": {
		"animation.fearow.ground_idle": {
			"loop": true,
			"bones": {
				"neck": {
					"rotation": [-30, 0, 0]
				},
				"head": {
					"rotation": [25, 0, 0]
				},
				"leftwing": {
					"rotation": [0, 0, -70]
				},
				"leftwing2": {
					"rotation": [0, 0, 145]
				},
				"leftwing3": {
					"rotation": [0, 0, 15]
				},
				"rightwing4": {
					"rotation": [0, 0, 70]
				},
				"rightwing5": {
					"rotation": [0, 0, -145]
				},
				"rightwing6": {
					"rotation": [0, 0, -15]
				},
				"tail": {
					"rotation": [25, 0, 0]
				}
			}
		},
		"animation.fearow.air_idle": {
			"loop": true,
			"bones": {
				"leftleg": {
					"position": [0, 2.5, 0]
				},
				"rightleg": {
					"position": [0, 2.5, 0]
				},
				"body": {
					"rotation": [-30, 0, 0]
				},
				"neck": {
					"rotation": [25, 0, 0]
				},
				"leftwing": {
					"rotation": [0, 0, -15]
				},
				"leftwing2": {
					"rotation": [0, 0, 10]
				},
				"leftwing3": {
					"rotation": [0, 0, 5]
				},
				"rightwing4": {
					"rotation": [0, 0, 15]
				},
				"rightwing5": {
					"rotation": [0, 0, -10]
				},
				"rightwing6": {
					"rotation": [0, 0, -5]
				},
				"tail": {
					"rotation": [45, 0, 0]
				}
			}
		},
		"animation.fearow.air_fly": {
			"loop": true,
			"bones": {
				"leftleg": {
					"position": [0, 2.5, 0]
				},
				"rightleg": {
					"position": [0, 2.5, 0]
				}
			}
		}
	}
}