{
    "implemented": true,
    "name": "aerodactyl",
    "nationalPokedexNumber": 142,
    "primaryType": "rock",
    "secondaryType": "flying",
    "abilities": [
        "rockhead",
        "pressure",
        "h:unnerve"
    ],
    "baseStats": {
        "hp": 80,
        "attack": 105,
        "defence": 65,
        "special_attack": 60,
        "special_defence": 75,
        "speed": 130
    },
    "catchRate": 45,
    "maleRatio": 0.875,
    "shoulderMountable": false,
    "forms": [
        {
            "name": "normal"
        },
        {
            "name": "mega",
            "aspects": ["mega"],
            "abilities": [
                "toughclaws"
            ],
            "baseStats": {
                "hp": 80,
                "attack": 135,
                "defence": 85,
                "special_attack": 70,
                "special_defence": 95,
                "speed": 150
            },
            "baseExperienceYield": 215,
            "moves": [
                "1:wingattack",
                "1:bite",
                "1:scaryface",
                "1:thunderfang",
                "1:icefang",
                "1:firefang",
                "1:ironhead",
                "7:roar",
                "14:supersonic",
                "21:rockthrow",
                "25:ancientpower",
                "28:agility",
                "35:crunch",
                "42:rockslide",
                "49:fly",
                "49:skydrop",
                "56:takedown",
                "57:ironhead",
                "63:hyperbeam",
                "81:gigaimpact",
                "egg:assurance",
                "egg:curse",
                "egg:dragonbreath",
                "egg:foresight",
                "egg:pursuit",
                "egg:steelwing",
                "egg:tailwind",
                "egg:whirlwind",
                "egg:wideguard",
                "tm:aerialace",
                "tm:attract",
                "tm:brutalswing",
                "tm:bulldoze",
                "tm:confide",
                "tm:doubleteam",
                "tm:dragonclaw",
                "tm:dragonpulse",
                "tm:earthquake",
                "tm:facade",
                "tm:fireblast",
                "tm:flamethrower",
                "tm:fly",
                "tm:frustration",
                "tm:gigaimpact",
                "tm:headbutt",
                "tm:hiddenpower",
                "tm:honeclaws",
                "tm:hyperbeam",
                "tm:incinerate",
                "tm:irontail",
                "tm:payback",
                "tm:protect",
                "tm:raindance",
                "tm:reflect",
                "tm:rest",
                "tm:return",
                "tm:rockpolish",
                "tm:rockslide",
                "tm:rocksmash",
                "tm:rocktomb",
                "tm:roost",
                "tm:round",
                "tm:sandstorm",
                "tm:secretpower",
                "tm:skydrop",
                "tm:sleeptalk",
                "tm:smackdown",
                "tm:stealthrock",
                "tm:steelwing",
                "tm:stoneedge",
                "tm:strength",
                "tm:substitute",
                "tm:sunnyday",
                "tm:swagger",
                "tm:taunt",
                "tm:thief",
                "tm:torment",
                "tm:toxic",
                "tutor:aquatail",
                "tutor:defog",
                "tutor:earthpower",
                "tutor:heatwave",
                "tutor:ironhead",
                "tutor:laserfocus",
                "tutor:skyattack",
                "tutor:snore",
                "tutor:tailwind"
            ],
            "labels": [
                "gen1",
                "mega_evolution"
            ],
            "pokedex": [
                "cobblemon.form.aerodactyl-mega.desc1",
                "cobblemon.form.aerodactyl-mega.desc2"
            ],
            "height": 21,
            "weight": 790
        }
    ],
    "baseExperienceYield": 180,
    "experienceGroup": "slow",
    "eggCycles": 35,
    "eggGroups": [
        "flying"
    ],
    "behaviour": {
        "moving": {
            "fly": {
                "canFly": true
            }
        }
    },
    "moves": [
        "1:bite",
        "1:ancientpower",
        "5:supersonic",
        "10:wingattack",
        "15:scaryface",
        "20:rockslide",
        "21:rockthrow",
        "25:roar",
        "30:crunch",
        "35:ironhead",
        "40:takedown",
        "45:stoneedge",
        "49:skydrop",
        "50:agility",
        "55:hyperbeam",
        "60:gigaimpact",
        "egg:curse",
        "egg:dragonbreath",
        "egg:foresight",
        "egg:pursuit",
        "egg:roost",
        "egg:tailwind",
        "egg:whirlwind",
        "egg:wideguard",
        "tm:aerialace",
        "tm:agility",
        "tm:assurance",
        "tm:attract",
        "tm:bide",
        "tm:brutalswing",
        "tm:bulldoze",
        "tm:captivate",
        "tm:confide",
        "tm:crunch",
        "tm:detect",
        "tm:doubleteam",
        "tm:dragonclaw",
        "tm:dragondance",
        "tm:dragonpulse",
        "tm:dragonrage",
        "tm:earthpower",
        "tm:earthquake",
        "tm:endure",
        "tm:facade",
        "tm:fireblast",
        "tm:firefang",
        "tm:flamethrower",
        "tm:fly",
        "tm:frustration",
        "tm:gigaimpact",
        "tm:headbutt",
        "tm:heatwave",
        "tm:hiddenpower",
        "tm:honeclaws",
        "tm:hurricane",
        "tm:hyperbeam",
        "tm:icefang",
        "tm:incinerate",
        "tm:ironhead",
        "tm:irontail",
        "tm:naturalgift",
        "tm:payback",
        "tm:protect",
        "tm:psychicfangs",
        "tm:rage",
        "tm:raindance",
        "tm:razorwind",
        "tm:reflect",
        "tm:rest",
        "tm:return",
        "tm:rockblast",
        "tm:rockpolish",
        "tm:rockslide",
        "tm:rocksmash",
        "tm:rocktomb",
        "tm:round",
        "tm:sandstorm",
        "tm:scaryface",
        "tm:secretpower",
        "tm:skydrop",
        "tm:sleeptalk",
        "tm:smackdown",
        "tm:snore",
        "tm:stealthrock",
        "tm:steelwing",
        "tm:stoneedge",
        "tm:strength",
        "tm:substitute",
        "tm:sunnyday",
        "tm:swagger",
        "tm:swift",
        "tm:taunt",
        "tm:thief",
        "tm:thunderfang",
        "tm:torment",
        "tm:toxic",
        "tutor:aircutter",
        "tutor:aquatail",
        "tutor:defog",
        "tutor:doubleedge",
        "tutor:dualwingbeat",
        "tutor:laserfocus",
        "tutor:meteorbeam",
        "tutor:mimic",
        "tutor:ominouswind",
        "tutor:skyattack",
        "tutor:twister"
    ],
    "labels": [
        "gen1"
    ],
    "pokedex": [
        "cobblemon.species.aerodactyl.desc1",
        "cobblemon.species.aerodactyl.desc2"
    ],
    "evolutions": [],
    "baseScale": 1.8,
    "hitbox": {
        "width": 1,
        "height": 1,
        "fixed": false
    },
    "baseFriendship": 50,
    "evYield": {
        "speed": 2
    },
    "height": 18,
    "weight": 590
}