{
    "implemented": true,
    "name": "clefairy",
    "nationalPokedexNumber": 35,
    "primaryType": "fairy",
    "abilities": [
        "cutecharm",
        "magicguard",
        "h:friendguard"
    ],
    "baseStats": {
        "hp": 70,
        "attack": 45,
        "defence": 48,
        "special_attack": 60,
        "special_defence": 65,
        "speed": 35
    },
    "catchRate": 150,
    "maleRatio": 0.25,
    "shoulderMountable": false,
    "forms": [],
    "baseExperienceYield": 113,
    "experienceGroup": "fast",
    "eggCycles": 10,
    "eggGroups": [
        "fairy"
    ],
    "moves": [
        "1:pound",
        "1:growl",
        "1:sing",
        "1:defensecurl",
        "1:splash",
        "1:sweetkiss",
        "1:charm",
        "1:encore",
        "1:copycat",
        "1:disarmingvoice",
        "1:spotlight",
        "4:storedpower",
        "8:minimize",
        "12:doubleslap",
        "12:afteryou",
        "16:lifedew",
        "19:bestow",
        "20:metronome",
        "22:wakeupslap",
        "24:moonlight",
        "28:gravity",
        "32:meteormash",
        "36:followme",
        "37:luckychant",
        "40:cosmicpower",
        "44:moonblast",
        "48:healingwish",
        "tm:allyswitch",
        "tm:amnesia",
        "tm:attract",
        "tm:batonpass",
        "tm:bide",
        "tm:blizzard",
        "tm:bodyslam",
        "tm:bounce",
        "tm:brickbreak",
        "tm:bubblebeam",
        "tm:calmmind",
        "tm:captivate",
        "tm:chargebeam",
        "tm:charm",
        "tm:confide",
        "tm:cosmicpower",
        "tm:curse",
        "tm:dazzlinggleam",
        "tm:detect",
        "tm:dig",
        "tm:doubleteam",
        "tm:drainingkiss",
        "tm:drainpunch",
        "tm:dreameater",
        "tm:echoedvoice",
        "tm:encore",
        "tm:endure",
        "tm:facade",
        "tm:faketears",
        "tm:fireblast",
        "tm:firepunch",
        "tm:flamethrower",
        "tm:flash",
        "tm:fling",
        "tm:frustration",
        "tm:grassknot",
        "tm:headbutt",
        "tm:helpinghand",
        "tm:hiddenpower",
        "tm:hypervoice",
        "tm:icebeam",
        "tm:icepunch",
        "tm:icywind",
        "tm:imprison",
        "tm:incinerate",
        "tm:irontail",
        "tm:lightscreen",
        "tm:magicalleaf",
        "tm:megakick",
        "tm:megapunch",
        "tm:metronome",
        "tm:mistyterrain",
        "tm:mysticalfire",
        "tm:naturalgift",
        "tm:playrough",
        "tm:poweruppunch",
        "tm:protect",
        "tm:psychic",
        "tm:psychup",
        "tm:psyshock",
        "tm:psywave",
        "tm:rage",
        "tm:raindance",
        "tm:reflect",
        "tm:rest",
        "tm:retaliate",
        "tm:return",
        "tm:rocksmash",
        "tm:round",
        "tm:safeguard",
        "tm:secretpower",
        "tm:seismictoss",
        "tm:shadowball",
        "tm:skullbash",
        "tm:sleeptalk",
        "tm:snore",
        "tm:solarbeam",
        "tm:stealthrock",
        "tm:storedpower",
        "tm:strength",
        "tm:submission",
        "tm:substitute",
        "tm:sunnyday",
        "tm:swagger",
        "tm:takedown",
        "tm:teleport",
        "tm:thunder",
        "tm:thunderbolt",
        "tm:thunderpunch",
        "tm:thunderwave",
        "tm:toxic",
        "tm:triattack",
        "tm:trick",
        "tm:uproar",
        "tm:watergun",
        "tm:wonderroom",
        "tm:workup",
        "tm:zapcannon",
        "tm:zenheadbutt",
        "tutor:counter",
        "tutor:covet",
        "tutor:doubleedge",
        "tutor:dualwingbeat",
        "tutor:dynamicpunch",
        "tutor:endeavor",
        "tutor:focuspunch",
        "tutor:healbell",
        "tutor:knockoff",
        "tutor:lastresort",
        "tutor:magiccoat",
        "tutor:meteorbeam",
        "tutor:mimic",
        "tutor:mistyexplosion",
        "tutor:mudslap",
        "tutor:nightmare",
        "tutor:recycle",
        "tutor:roleplay",
        "tutor:rollout",
        "tutor:shockwave",
        "tutor:signalbeam",
        "tutor:snatch",
        "tutor:softboiled",
        "tutor:telekinesis",
        "tutor:waterpulse"
    ],
    "labels": [
        "gen1"
    ],
    "pokedex": [
        "cobblemon.species.clefairy.desc1",
        "cobblemon.species.clefairy.desc2"
    ],
    "preEvolution": "cleffa",
    "evolutions": [
        {
            "id": "clefairy_clefable",
            "variant": "item_interact",
            "result": "clefable",
            "consumeHeldItem": false,
            "learnableMoves": [],
            "requirements": [],
            "requiredContext": "cobblemon:moon_stone"
        }
    ],
    "baseScale": 0.8,
    "hitbox": {
        "width": 0.6,
        "height": 0.8,
        "fixed": false
    },
    "baseFriendship": 140,
    "evYield": {
        "hp": 2
    },
    "height": 6,
    "weight": 75
}