{
    "implemented": true,
    "name": "flareon",
    "nationalPokedexNumber": 136,
    "primaryType": "fire",
    "abilities": [
        "flashfire",
        "h:guts"
    ],
    "baseStats": {
        "hp": 65,
        "attack": 130,
        "defence": 60,
        "special_attack": 95,
        "special_defence": 110,
        "speed": 65
    },
    "catchRate": 45,
    "maleRatio": 0.875,
    "shoulderMountable": false,
    "forms": [],
    "baseExperienceYield": 184,
    "experienceGroup": "mediumfast",
    "eggCycles": 35,
    "eggGroups": [
        "field"
    ],
    "moves": [
        "0:ember",
        "1:tackle",
        "1:takedown",
        "1:doubleedge",
        "1:tailwhip",
        "1:growl",
        "1:ember",
        "1:swift",
        "1:charm",
        "1:batonpass",
        "1:helpinghand",
        "1:yawn",
        "1:covet",
        "1:copycat",
        "5:sandattack",
        "10:doublekick",
        "10:quickattack",
        "15:babydolleyes",
        "20:smog",
        "25:bite",
        "30:firefang",
        "35:firespin",
        "40:lavaplume",
        "45:scaryface",
        "47:leer",
        "50:flareblitz",
        "55:lastresort",
        "tm:attract",
        "tm:batonpass",
        "tm:bide",
        "tm:bodyslam",
        "tm:captivate",
        "tm:charm",
        "tm:confide",
        "tm:curse",
        "tm:detect",
        "tm:dig",
        "tm:doubleteam",
        "tm:echoedvoice",
        "tm:endure",
        "tm:facade",
        "tm:faketears",
        "tm:fireblast",
        "tm:firefang",
        "tm:firespin",
        "tm:flamecharge",
        "tm:flamethrower",
        "tm:flareblitz",
        "tm:focusenergy",
        "tm:frustration",
        "tm:gigaimpact",
        "tm:headbutt",
        "tm:heatwave",
        "tm:helpinghand",
        "tm:hiddenpower",
        "tm:hyperbeam",
        "tm:hypervoice",
        "tm:incinerate",
        "tm:irontail",
        "tm:mysticalfire",
        "tm:naturalgift",
        "tm:overheat",
        "tm:payday",
        "tm:protect",
        "tm:rage",
        "tm:raindance",
        "tm:reflect",
        "tm:rest",
        "tm:retaliate",
        "tm:return",
        "tm:roar",
        "tm:rocksmash",
        "tm:round",
        "tm:scaryface",
        "tm:secretpower",
        "tm:shadowball",
        "tm:skullbash",
        "tm:sleeptalk",
        "tm:snore",
        "tm:storedpower",
        "tm:strength",
        "tm:substitute",
        "tm:sunnyday",
        "tm:superpower",
        "tm:swagger",
        "tm:swift",
        "tm:toxic",
        "tm:weatherball",
        "tm:willowisp",
        "tm:workup",
        "tm:zapcannon",
        "tutor:burningjealousy",
        "tutor:healbell",
        "tutor:laserfocus",
        "tutor:mimic",
        "tutor:mudslap",
        "tutor:scorchingsands"
    ],
    "labels": [
        "gen1"
    ],
    "pokedex": [
        "cobblemon.species.flareon.desc1",
        "cobblemon.species.flareon.desc2"
    ],
    "preEvolution": "eevee",
    "evolutions": [],
    "baseScale": 0.8,
    "hitbox": {
        "width": 0.9,
        "height": 1.1,
        "fixed": false
    },
    "baseFriendship": 50,
    "evYield": {
        "attack": 2
    },
    "height": 9,
    "weight": 250
}