{
    "implemented": true,
    "name": "haunter",
    "nationalPokedexNumber": 93,
    "primaryType": "ghost",
    "secondaryType": "poison",
    "abilities": [
        "levitate"
    ],
    "baseStats": {
        "hp": 45,
        "attack": 50,
        "defence": 45,
        "special_attack": 115,
        "special_defence": 55,
        "speed": 95
    },
    "catchRate": 90,
    "maleRatio": 0.5,
    "shoulderMountable": false,
    "forms": [],
    "baseExperienceYield": 142,
    "experienceGroup": "mediumslow",
    "eggCycles": 20,
    "eggGroups": [
        "amorphous"
    ],
    "behaviour": {
        "moving": {
            "fly": {
                "canFly": true
            },
            "walk": {
                "canWalk": false
            }
        }
    },
    "drops": {
        "amount": "1",
        "entries": [
            {
                "item": "cobblemon:link_cable",
                "percentage": 5
            }
        ]
    },
    "moves": [
        "0:shadowpunch",
        "1:hypnosis",
        "1:confuseray",
        "1:lick",
        "1:smog",
        "1:meanlook",
        "1:shadowpunch",
        "7:poisongas",
        "12:payback",
        "16:spite",
        "20:curse",
        "21:toxic",
        "24:hex",
        "30:nightshade",
        "36:suckerpunch",
        "42:darkpulse",
        "48:shadowball",
        "54:destinybond",
        "60:dreameater",
        "61:nightmare",
        "tm:allyswitch",
        "tm:attract",
        "tm:bide",
        "tm:captivate",
        "tm:confide",
        "tm:darkpulse",
        "tm:dazzlinggleam",
        "tm:doubleteam",
        "tm:embargo",
        "tm:encore",
        "tm:endure",
        "tm:energyball",
        "tm:explosion",
        "tm:facade",
        "tm:firepunch",
        "tm:fling",
        "tm:foulplay",
        "tm:frustration",
        "tm:gigadrain",
        "tm:headbutt",
        "tm:hex",
        "tm:hiddenpower",
        "tm:icepunch",
        "tm:icywind",
        "tm:infestation",
        "tm:megadrain",
        "tm:naturalgift",
        "tm:payback",
        "tm:poisonjab",
        "tm:protect",
        "tm:psychic",
        "tm:psychup",
        "tm:psywave",
        "tm:rage",
        "tm:raindance",
        "tm:rest",
        "tm:return",
        "tm:round",
        "tm:scaryface",
        "tm:secretpower",
        "tm:selfdestruct",
        "tm:shadowball",
        "tm:shadowclaw",
        "tm:skillswap",
        "tm:sleeptalk",
        "tm:sludgebomb",
        "tm:sludgewave",
        "tm:snore",
        "tm:substitute",
        "tm:sunnyday",
        "tm:swagger",
        "tm:taunt",
        "tm:thief",
        "tm:thunder",
        "tm:thunderbolt",
        "tm:thunderpunch",
        "tm:torment",
        "tm:toxic",
        "tm:trick",
        "tm:trickroom",
        "tm:uproar",
        "tm:venoshock",
        "tm:willowisp",
        "tm:wonderroom",
        "tm:zapcannon",
        "tutor:corrosivegas",
        "tutor:knockoff",
        "tutor:mimic",
        "tutor:ominouswind",
        "tutor:painsplit",
        "tutor:poltergeist",
        "tutor:skittersmack",
        "tutor:snatch",
        "tutor:telekinesis"
    ],
    "labels": [
        "gen1"
    ],
    "pokedex": [
        "cobblemon.species.haunter.desc1",
        "cobblemon.species.haunter.desc2"
    ],
    "preEvolution": "gastly",
    "evolutions": [
        {
            "id": "haunter_gengar",
            "variant": "trade",
            "result": "gengar",
            "consumeHeldItem": false,
            "learnableMoves": [],
            "requirements": [],
            "requiredContext": null
        }
    ],
    "baseScale": 1.3,
    "hitbox": {
        "width": 0.7,
        "height": 0.8,
        "fixed": false
    },
    "baseFriendship": 50,
    "evYield": {
        "special_attack": 2
    },
    "height": 16,
    "weight": 1
}