{
    "implemented": true,
    "name": "krabby",
    "nationalPokedexNumber": 98,
    "primaryType": "water",
    "abilities": [
        "hypercutter",
        "shellarmor",
        "h:sheerforce"
    ],
    "baseStats": {
        "hp": 30,
        "attack": 105,
        "defence": 90,
        "special_attack": 25,
        "special_defence": 25,
        "speed": 50
    },
    "catchRate": 225,
    "maleRatio": 0.5,
    "shoulderMountable": false,
    "forms": [],
    "baseExperienceYield": 65,
    "experienceGroup": "mediumfast",
    "eggCycles": 20,
    "eggGroups": [
        "water_3"
    ],
    "behaviour": {
        "moving": {
            "swim": {
                "swimSpeed": 0.1,
                "canSwimInWater": false,
                "canBreatheUnderwater": true
            }
        }
    },
    "moves": [
        "1:leer",
        "1:watergun",
        "1:bubble",
        "1:mudsport",
        "4:harden",
        "5:visegrip",
        "8:metalclaw",
        "12:mudshot",
        "16:protect",
        "20:bubblebeam",
        "24:stomp",
        "29:flail",
        "32:razorshell",
        "36:slam",
        "40:swordsdance",
        "44:crabhammer",
        "48:guillotine",
        "egg:ancientpower",
        "egg:bide",
        "egg:chipaway",
        "egg:hammerarm",
        "egg:haze",
        "egg:knockoff",
        "egg:nightslash",
        "egg:slash",
        "egg:tickle",
        "tm:agility",
        "tm:allyswitch",
        "tm:amnesia",
        "tm:attract",
        "tm:blizzard",
        "tm:bodyslam",
        "tm:brickbreak",
        "tm:brine",
        "tm:captivate",
        "tm:confide",
        "tm:curse",
        "tm:cut",
        "tm:dig",
        "tm:dive",
        "tm:doubleteam",
        "tm:endure",
        "tm:facade",
        "tm:falseswipe",
        "tm:fling",
        "tm:frustration",
        "tm:hail",
        "tm:headbutt",
        "tm:hiddenpower",
        "tm:honeclaws",
        "tm:icebeam",
        "tm:icywind",
        "tm:irondefense",
        "tm:liquidation",
        "tm:mudshot",
        "tm:naturalgift",
        "tm:protect",
        "tm:rage",
        "tm:raindance",
        "tm:razorshell",
        "tm:rest",
        "tm:return",
        "tm:rockslide",
        "tm:rocksmash",
        "tm:rocktomb",
        "tm:round",
        "tm:scald",
        "tm:secretpower",
        "tm:sleeptalk",
        "tm:snore",
        "tm:strength",
        "tm:substitute",
        "tm:superpower",
        "tm:surf",
        "tm:swagger",
        "tm:swordsdance",
        "tm:takedown",
        "tm:thief",
        "tm:toxic",
        "tm:whirlpool",
        "tm:xscissor",
        "tutor:doubleedge",
        "tutor:furycutter",
        "tutor:mimic",
        "tutor:mudslap",
        "tutor:waterpulse"
    ],
    "labels": [
        "gen1"
    ],
    "pokedex": [
        "cobblemon.species.krabby.desc1",
        "cobblemon.species.krabby.desc2"
    ],
    "evolutions": [
        {
            "id": "krabby_kingler",
            "variant": "level_up",
            "result": "kingler",
            "consumeHeldItem": false,
            "learnableMoves": [],
            "requirements": [
                {
                    "variant": "level",
                    "minLevel": 28
                }
            ]
        }
    ],
    "baseScale": 0.7,
    "hitbox": {
        "width": 1,
        "height": 0.7,
        "fixed": false
    },
    "baseFriendship": 50,
    "evYield": {
        "attack": 1
    },
    "height": 4,
    "weight": 65
}