{
    "implemented": true,
    "name": "mankey",
    "nationalPokedexNumber": 56,
    "primaryType": "fighting",
    "abilities": [
        "vitalspirit",
        "angerpoint",
        "h:defiant"
    ],
    "baseStats": {
        "hp": 40,
        "attack": 80,
        "defence": 35,
        "special_attack": 35,
        "special_defence": 45,
        "speed": 70
    },
    "catchRate": 190,
    "maleRatio": 0.5,
    "shoulderMountable": false,
    "forms": [],
    "baseExperienceYield": 61,
    "experienceGroup": "mediumfast",
    "eggCycles": 20,
    "eggGroups": [
        "field"
    ],
    "moves": [
        "1:scratch",
        "1:leer",
        "1:covet",
        "5:focusenergy",
        "8:taunt",
        "12:pursuit",
        "13:karatechop",
        "16:furyswipes",
        "19:swagger",
        "21:lowkick",
        "22:crosschop",
        "24:seismictoss",
        "26:assurance",
        "29:uturn",
        "29:punishment",
        "32:screech",
        "36:closecombat",
        "37:thrash",
        "40:outrage",
        "43:stompingtantrum",
        "50:finalgambit",
        "egg:beatup",
        "egg:closecombat",
        "egg:counter",
        "egg:encore",
        "egg:focuspunch",
        "egg:foresight",
        "egg:meditate",
        "egg:nightslash",
        "egg:powertrip",
        "egg:revenge",
        "egg:reversal",
        "egg:sleeptalk",
        "egg:smellingsalts",
        "tm:acrobatics",
        "tm:aerialace",
        "tm:attract",
        "tm:bide",
        "tm:brickbreak",
        "tm:bulkup",
        "tm:bulldoze",
        "tm:captivate",
        "tm:confide",
        "tm:curse",
        "tm:detect",
        "tm:dig",
        "tm:doubleteam",
        "tm:earthquake",
        "tm:endure",
        "tm:facade",
        "tm:firepunch",
        "tm:fling",
        "tm:focusblast",
        "tm:frustration",
        "tm:headbutt",
        "tm:helpinghand",
        "tm:hiddenpower",
        "tm:honeclaws",
        "tm:icepunch",
        "tm:irontail",
        "tm:lowsweep",
        "tm:naturalgift",
        "tm:outrage",
        "tm:overheat",
        "tm:payback",
        "tm:payday",
        "tm:poisonjab",
        "tm:poweruppunch",
        "tm:protect",
        "tm:rage",
        "tm:raindance",
        "tm:rest",
        "tm:retaliate",
        "tm:return",
        "tm:rockclimb",
        "tm:rockslide",
        "tm:rocksmash",
        "tm:rocktomb",
        "tm:round",
        "tm:secretpower",
        "tm:seismictoss",
        "tm:skullbash",
        "tm:sleeptalk",
        "tm:smackdown",
        "tm:strength",
        "tm:submission",
        "tm:substitute",
        "tm:sunnyday",
        "tm:swagger",
        "tm:takedown",
        "tm:taunt",
        "tm:thief",
        "tm:thunder",
        "tm:thunderbolt",
        "tm:thunderpunch",
        "tm:toxic",
        "tm:uturn",
        "tm:workup",
        "tutor:bodyslam",
        "tutor:covet",
        "tutor:defensecurl",
        "tutor:doubleedge",
        "tutor:dualchop",
        "tutor:dynamicpunch",
        "tutor:endeavor",
        "tutor:focuspunch",
        "tutor:gunkshot",
        "tutor:megakick",
        "tutor:megapunch",
        "tutor:metronome",
        "tutor:mimic",
        "tutor:mudslap",
        "tutor:psychup",
        "tutor:roleplay",
        "tutor:seedbomb",
        "tutor:snore",
        "tutor:spite",
        "tutor:stompingtantrum",
        "tutor:swift",
        "tutor:uproar",
        "tutor:vacuumwave"
    ],
    "labels": [
        "gen1"
    ],
    "pokedex": [
        "cobblemon.species.mankey.desc1",
        "cobblemon.species.mankey.desc2"
    ],
    "evolutions": [
        {
            "id": "mankey_primeape",
            "variant": "level_up",
            "result": "primeape",
            "consumeHeldItem": false,
            "learnableMoves": [],
            "requirements": [
                {
                    "variant": "level",
                    "minLevel": 28
                }
            ]
        }
    ],
    "baseScale": 0.9,
    "hitbox": {
        "width": 0.7,
        "height": 0.9,
        "fixed": false
    },
    "baseFriendship": 70,
    "evYield": {
        "attack": 1
    },
    "height": 5,
    "weight": 280
}