{
    "implemented": true,
    "name": "oddish",
    "nationalPokedexNumber": 43,
    "primaryType": "grass",
    "secondaryType": "poison",
    "abilities": [
        "chlorophyll",
        "h:runaway"
    ],
    "baseStats": {
        "hp": 45,
        "attack": 50,
        "defence": 55,
        "special_attack": 75,
        "special_defence": 65,
        "speed": 30
    },
    "catchRate": 255,
    "maleRatio": 0.5,
    "shoulderMountable": false,
    "features": [
        "valencian"
    ],
    "baseExperienceYield": 64,
    "experienceGroup": "mediumslow",
    "eggCycles": 20,
    "eggGroups": [
        "grass"
    ],
    "moves": [
        "1:absorb",
        "1:growth",
        "4:acid",
        "8:sweetscent",
        "12:megadrain",
        "14:poisonpowder",
        "16:stunspore",
        "18:sleeppowder",
        "20:gigadrain",
        "23:luckychant",
        "24:toxic",
        "28:moonblast",
        "32:grassyterrain",
        "36:moonlight",
        "39:naturalgift",
        "40:petaldance",
        "egg:afteryou",
        "egg:flail",
        "egg:ingrain",
        "egg:leechseed",
        "egg:naturepower",
        "egg:razorleaf",
        "egg:secretpower",
        "egg:strengthsap",
        "egg:synthesis",
        "egg:teeterdance",
        "egg:tickle",
        "tm:attract",
        "tm:bide",
        "tm:bulletseed",
        "tm:captivate",
        "tm:charm",
        "tm:confide",
        "tm:curse",
        "tm:cut",
        "tm:dazzlinggleam",
        "tm:doubleteam",
        "tm:endure",
        "tm:energyball",
        "tm:facade",
        "tm:flash",
        "tm:frustration",
        "tm:gigadrain",
        "tm:grassknot",
        "tm:grassyterrain",
        "tm:headbutt",
        "tm:hiddenpower",
        "tm:infestation",
        "tm:protect",
        "tm:rage",
        "tm:reflect",
        "tm:rest",
        "tm:return",
        "tm:round",
        "tm:seedbomb",
        "tm:sleeptalk",
        "tm:sludgebomb",
        "tm:snore",
        "tm:solarbeam",
        "tm:substitute",
        "tm:sunnyday",
        "tm:swagger",
        "tm:swordsdance",
        "tm:takedown",
        "tm:venoshock",
        "tutor:doubleedge",
        "tutor:gastroacid",
        "tutor:grassyglide",
        "tutor:mimic",
        "tutor:worryseed"
    ],
    "labels": [
        "gen1"
    ],
    "pokedex": [
        "cobblemon.species.oddish.desc1",
        "cobblemon.species.oddish.desc2"
    ],
    "evolutions": [
        {
            "id": "oddish_gloom",
            "variant": "level_up",
            "result": "gloom",
            "consumeHeldItem": false,
            "learnableMoves": [],
            "requirements": [
                {
                    "variant": "level",
                    "minLevel": 21
                }
            ]
        }
    ],
    "baseScale": 0.7,
    "hitbox": {
        "width": 0.6,
        "height": 1.1,
        "fixed": false
    },
    "baseFriendship": 50,
    "evYield": {
        "special_attack": 1
    },
    "height": 5,
    "weight": 54,
    "forms": []
}