{
    "implemented": true,
    "name": "paras",
    "nationalPokedexNumber": 46,
    "primaryType": "bug",
    "secondaryType": "grass",
    "abilities": [
        "effectspore",
        "dryskin",
        "h:damp"
    ],
    "baseStats": {
        "hp": 35,
        "attack": 70,
        "defence": 55,
        "special_attack": 45,
        "special_defence": 55,
        "speed": 25
    },
    "catchRate": 190,
    "maleRatio": 0.5,
    "shoulderMountable": false,
    "forms": [],
    "baseExperienceYield": 57,
    "experienceGroup": "mediumfast",
    "eggCycles": 20,
    "eggGroups": [
        "bug",
        "grass"
    ],
    "drops": {
        "amount": "1",
        "entries": [
            {
                "item": "minecraft:red_mushroom",
                "quantityRange": "1-2",
                "percentage": 66
            }
        ]
    },
    "moves": [
        "1:scratch",
        "2:sleeppowder",
        "4:stunspore",
        "6:poisonpowder",
        "9:absorb",
        "12:growth",
        "15:furyswipes",
        "17:furycutter",
        "19:slash",
        "23:leechlife",
        "27:spore",
        "31:xscissor",
        "38:gigadrain",
        "43:aromatherapy",
        "49:ragepowder",
        "egg:agility",
        "egg:bugbite",
        "egg:counter",
        "egg:crosspoison",
        "egg:endure",
        "egg:fellstinger",
        "egg:flail",
        "egg:grassyterrain",
        "egg:leechseed",
        "egg:metalclaw",
        "egg:naturalgift",
        "egg:psybeam",
        "egg:pursuit",
        "egg:rototiller",
        "egg:screech",
        "egg:sweetscent",
        "egg:wideguard",
        "tm:aerialace",
        "tm:attract",
        "tm:bide",
        "tm:brickbreak",
        "tm:bulletseed",
        "tm:captivate",
        "tm:confide",
        "tm:curse",
        "tm:cut",
        "tm:dig",
        "tm:doubleteam",
        "tm:energyball",
        "tm:facade",
        "tm:falseswipe",
        "tm:flash",
        "tm:frustration",
        "tm:grassknot",
        "tm:headbutt",
        "tm:hiddenpower",
        "tm:honeclaws",
        "tm:lightscreen",
        "tm:megadrain",
        "tm:naturepower",
        "tm:protect",
        "tm:rage",
        "tm:reflect",
        "tm:rest",
        "tm:return",
        "tm:rocksmash",
        "tm:round",
        "tm:secretpower",
        "tm:skullbash",
        "tm:sleeptalk",
        "tm:sludgebomb",
        "tm:solarbeam",
        "tm:strugglebug",
        "tm:substitute",
        "tm:sunnyday",
        "tm:swagger",
        "tm:swordsdance",
        "tm:takedown",
        "tm:thief",
        "tm:toxic",
        "tm:venoshock",
        "tm:xscissor",
        "tutor:afteryou",
        "tutor:bodyslam",
        "tutor:bugbite",
        "tutor:doubleedge",
        "tutor:gigadrain",
        "tutor:knockoff",
        "tutor:mimic",
        "tutor:seedbomb",
        "tutor:snore",
        "tutor:stringshot",
        "tutor:synthesis",
        "tutor:worryseed"
    ],
    "labels": [
        "gen1"
    ],
    "pokedex": [
        "cobblemon.species.paras.desc1",
        "cobblemon.species.paras.desc2"
    ],
    "evolutions": [
        {
            "id": "paras_parasect",
            "variant": "level_up",
            "result": "parasect",
            "consumeHeldItem": false,
            "learnableMoves": [],
            "requirements": [
                {
                    "variant": "level",
                    "minLevel": 24
                }
            ]
        }
    ],
    "baseScale": 0.7,
    "hitbox": {
        "width": 1.0,
        "height": 0.5,
        "fixed": false
    },
    "baseFriendship": 70,
    "evYield": {
        "attack": 1
    },
    "height": 3,
    "weight": 54
}