{
    "implemented": true,
    "name": "pidgey",
    "nationalPokedexNumber": 16,
    "primaryType": "normal",
    "secondaryType": "flying",
    "abilities": [
        "keeneye",
        "tangledfeet",
        "h:bigpecks"
    ],
    "baseStats": {
        "hp": 40,
        "attack": 45,
        "defence": 40,
        "special_attack": 35,
        "special_defence": 35,
        "speed": 56
    },
    "catchRate": 255,
    "maleRatio": 0.5,
    "shoulderMountable": true,
    "shoulderEffects": ["slow_fall"],
    "forms": [],
    "baseExperienceYield": 50,
    "experienceGroup": "mediumslow",
    "eggCycles": 15,
    "eggGroups": [
        "flying"
    ],
    "behaviour": {
        "moving": {
            "fly": {
                "canFly": true
            }
        }
    },
    "drops": {
        "amount": "2",
        "entries": [
            {
                "item": "minecraft:feather",
                "percentage": 50
            },
            {
                "item": "minecraft:chicken"
            }
        ]
    },
    "moves": [
        "1:tackle",
        "3:sandattack",
        "5:gust",
        "9:mirrormove",
        "11:quickattack",
        "15:wingattack",
        "17:roost",
        "21:whirlwind",
        "21:twister",
        "23:agility",
        "25:featherdance",
        "27:airslash",
        "29:razorwind",
        "41:tailwind",
        "53:hurricane",
        "egg:aircutter",
        "egg:bravebird",
        "egg:defog",
        "egg:feintattack",
        "egg:foresight",
        "egg:pursuit",
        "egg:steelwing",
        "egg:uproar",
        "tm:aerialace",
        "tm:attract",
        "tm:bide",
        "tm:captivate",
        "tm:confide",
        "tm:curse",
        "tm:detect",
        "tm:doubleteam",
        "tm:endure",
        "tm:facade",
        "tm:fly",
        "tm:frustration",
        "tm:headbutt",
        "tm:hiddenpower",
        "tm:naturalgift",
        "tm:pluck",
        "tm:protect",
        "tm:rage",
        "tm:raindance",
        "tm:reflect",
        "tm:rest",
        "tm:return",
        "tm:roost",
        "tm:round",
        "tm:secretpower",
        "tm:sleeptalk",
        "tm:steelwing",
        "tm:substitute",
        "tm:sunnyday",
        "tm:swagger",
        "tm:takedown",
        "tm:thief",
        "tm:toxic",
        "tm:uturn",
        "tm:workup",
        "tutor:defog",
        "tutor:doubleedge",
        "tutor:heatwave",
        "tutor:mimic",
        "tutor:mudslap",
        "tutor:ominouswind",
        "tutor:skyattack",
        "tutor:snore",
        "tutor:swift",
        "tutor:tailwind",
        "tutor:uproar"
    ],
    "labels": [
        "gen1"
    ],
    "pokedex": [
        "cobblemon.species.pidgey.desc1",
        "cobblemon.species.pidgey.desc2"
    ],
    "evolutions": [
        {
            "id": "pidgey_pidgeotto",
            "variant": "level_up",
            "result": "pidgeotto",
            "consumeHeldItem": false,
            "learnableMoves": [],
            "requirements": [
                {
                    "variant": "level",
                    "minLevel": 18
                }
            ]
        }
    ],
    "baseScale": 0.8,
    "hitbox": {
        "width": 0.5,
        "height": 0.7,
        "fixed": false
    },
    "baseFriendship": 70,
    "evYield": {
        "speed": 1
    },
    "height": 3,
    "weight": 18
}