{
  "implemented": true,
  "name": "sandslash",
  "nationalPokedexNumber": 28,
  "primaryType": "ground",
  "abilities": ["sandveil", "h:sandrush"],
  "baseStats": {
    "hp": 75,
    "attack": 100,
    "defence": 110,
    "special_attack": 45,
    "special_defence": 55,
    "speed": 65
  },
  "catchRate": 90,
  "maleRatio": 0.5,
  "shoulderMountable": false,
  "forms": [
    {
      "name": "normal"
    },
    {
      "name": "alola",
      "aspects": ["alolan"],
      "primaryType": "ice",
      "secondaryType": "steel",
      "abilities": ["snowcloak", "h:slushrush"],
      "baseStats": {
        "hp": 75,
        "attack": 100,
        "defence": 120,
        "special_attack": 25,
        "special_defence": 65,
        "speed": 65
      },
      "moves": [
        "0:iciclespear",
        "1:scratch",
        "1:swordsdance",
        "1:mist",
        "1:blizzard",
        "1:counter",
        "1:defensecurl",
        "1:bide",
        "1:swift",
        "1:furyswipes",
        "1:slash",
        "1:powdersnow",
        "1:rollout",
        "1:furycutter",
        "1:rapidspin",
        "1:metalclaw",
        "1:hail",
        "1:iceball",
        "1:iciclespear",
        "1:irondefense",
        "1:gyroball",
        "1:metalburst",
        "1:iceshard",
        "1:ironhead",
        "1:iciclecrash",
        "tm:aerialace",
        "tm:agility",
        "tm:amnesia",
        "tm:attract",
        "tm:auroraveil",
        "tm:avalanche",
        "tm:blizzard",
        "tm:bodyslam",
        "tm:brickbreak",
        "tm:bulldoze",
        "tm:confide",
        "tm:dig",
        "tm:doubleteam",
        "tm:drillrun",
        "tm:earthquake",
        "tm:endure",
        "tm:facade",
        "tm:fling",
        "tm:focusblast",
        "tm:frostbreath",
        "tm:frustration",
        "tm:gigaimpact",
        "tm:gyroball",
        "tm:hail",
        "tm:headbutt",
        "tm:hiddenpower",
        "tm:hyperbeam",
        "tm:icebeam",
        "tm:icepunch",
        "tm:iciclespear",
        "tm:icywind",
        "tm:irondefense",
        "tm:ironhead",
        "tm:irontail",
        "tm:leechlife",
        "tm:pinmissile",
        "tm:poisonjab",
        "tm:protect",
        "tm:rest",
        "tm:return",
        "tm:rockslide",
        "tm:rocktomb",
        "tm:round",
        "tm:safeguard",
        "tm:seismictoss",
        "tm:shadowclaw",
        "tm:sleeptalk",
        "tm:snore",
        "tm:spikes",
        "tm:stealthrock",
        "tm:substitute",
        "tm:sunnyday",
        "tm:swagger",
        "tm:swift",
        "tm:swordsdance",
        "tm:thief",
        "tm:throatchop",
        "tm:toxic",
        "tm:workup",
        "tm:xscissor",
        "tutor:aquatail",
        "tutor:covet",
        "tutor:focuspunch",
        "tutor:knockoff",
        "tutor:steelbeam",
        "tutor:steelroller",
        "tutor:superfang",
        "tutor:tripleaxel"
      ],
      "pokedex": [
        "cobblemon.form.sandslash-alola.desc1",
        "cobblemon.form.sandslash-alola.desc2"
      ],
      "height": 12,
      "weight": 550,
      "labels": ["gen1", "alola_regional", "regional"],
      "preEvolution": "sandshrew alolan"
    }
  ],
  "baseExperienceYield": 158,
  "experienceGroup": "mediumfast",
  "eggCycles": 20,
  "eggGroups": ["field"],
  "moves": [
    "1:scratch",
    "1:sandattack",
    "1:poisonsting",
    "1:counter",
    "1:defensecurl",
    "1:crushclaw",
    "9:rollout",
    "12:furycutter",
    "14:magnitude",
    "15:rapidspin",
    "18:bulldoze",
    "21:swift",
    "26:furyswipes",
    "31:sandtomb",
    "36:slash",
    "41:dig",
    "46:gyroball",
    "51:swordsdance",
    "56:sandstorm",
    "61:earthquake",
    "tm:aerialace",
    "tm:agility",
    "tm:amnesia",
    "tm:attract",
    "tm:bide",
    "tm:bodyslam",
    "tm:brickbreak",
    "tm:bulldoze",
    "tm:captivate",
    "tm:confide",
    "tm:curse",
    "tm:cut",
    "tm:detect",
    "tm:dig",
    "tm:doubleteam",
    "tm:drillrun",
    "tm:earthpower",
    "tm:earthquake",
    "tm:endure",
    "tm:facade",
    "tm:fissure",
    "tm:fling",
    "tm:focusblast",
    "tm:frustration",
    "tm:gigaimpact",
    "tm:gyroball",
    "tm:headbutt",
    "tm:hiddenpower",
    "tm:honeclaws",
    "tm:hyperbeam",
    "tm:irontail",
    "tm:leechlife",
    "tm:mudshot",
    "tm:naturalgift",
    "tm:pinmissile",
    "tm:poisonjab",
    "tm:protect",
    "tm:rage",
    "tm:rest",
    "tm:return",
    "tm:rockclimb",
    "tm:rockslide",
    "tm:rocksmash",
    "tm:rocktomb",
    "tm:round",
    "tm:safeguard",
    "tm:sandstorm",
    "tm:sandtomb",
    "tm:secretpower",
    "tm:seismictoss",
    "tm:shadowclaw",
    "tm:skullbash",
    "tm:sleeptalk",
    "tm:snore",
    "tm:spikes",
    "tm:stealthrock",
    "tm:stompingtantrum",
    "tm:stoneedge",
    "tm:strength",
    "tm:submission",
    "tm:substitute",
    "tm:sunnyday",
    "tm:swagger",
    "tm:swift",
    "tm:swordsdance",
    "tm:takedown",
    "tm:thief",
    "tm:throatchop",
    "tm:toxic",
    "tm:workup",
    "tm:xscissor",
    "tutor:covet",
    "tutor:doubleedge",
    "tutor:dynamicpunch",
    "tutor:focuspunch",
    "tutor:knockoff",
    "tutor:mimic",
    "tutor:mudslap",
    "tutor:scorchingsands",
    "tutor:steelroller",
    "tutor:superfang"
  ],
  "labels": ["gen1", "kanto_regional", "regional"],
  "pokedex": [
    "cobblemon.species.sandslash.desc1",
    "cobblemon.species.sandslash.desc2"
  ],
  "preEvolution": "sandshrew",
  "evolutions": [],
  "baseScale": 0.7,
  "hitbox": {
    "width": 1.0,
    "height": 1.3,
    "fixed": false
  },
  "baseFriendship": 50,
  "evYield": {
    "defence": 2
  },
  "height": 10,
  "weight": 295
}
