{
    "implemented": true,
    "name": "venomoth",
    "nationalPokedexNumber": 49,
    "primaryType": "bug",
    "secondaryType": "poison",
    "abilities": [
        "shielddust",
        "tintedlens",
        "h:wonderskin"
    ],
    "baseStats": {
        "hp": 70,
        "attack": 65,
        "defence": 60,
        "special_attack": 90,
        "special_defence": 75,
        "speed": 90
    },
    "catchRate": 75,
    "maleRatio": 0.5,
    "shoulderMountable": false,
    "forms": [],
    "baseExperienceYield": 158,
    "experienceGroup": "mediumfast",
    "eggCycles": 20,
    "eggGroups": [
        "bug"
    ],
    "behaviour": {
        "moving": {
            "swim": {
                "canWalkOnWater": true
            },
            "fly": {
                "canFly": true
            }
        }
    },
    "moves": [
        "0:gust",
        "1:gust",
        "1:tackle",
        "1:supersonic",
        "1:disable",
        "1:confusion",
        "1:agility",
        "1:screech",
        "1:foresight",
        "1:silverwind",
        "4:disable",
        "8:supersonic",
        "12:confusion",
        "14:poisonpowder",
        "16:stunspore",
        "20:psybeam",
        "24:sleeppowder",
        "25:signalbeam",
        "28:leechlife",
        "37:psychic",
        "41:zenheadbutt",
        "46:bugbuzz",
        "47:poisonfang",
        "55:quiverdance",
        "tm:acrobatics",
        "tm:aerialace",
        "tm:attract",
        "tm:bide",
        "tm:captivate",
        "tm:confide",
        "tm:curse",
        "tm:doubleteam",
        "tm:dreameater",
        "tm:endure",
        "tm:energyball",
        "tm:facade",
        "tm:flash",
        "tm:frustration",
        "tm:gigaimpact",
        "tm:headbutt",
        "tm:hiddenpower",
        "tm:hyperbeam",
        "tm:infestation",
        "tm:megadrain",
        "tm:naturalgift",
        "tm:protect",
        "tm:psychic",
        "tm:psywave",
        "tm:rage",
        "tm:razorwind",
        "tm:reflect",
        "tm:rest",
        "tm:return",
        "tm:roost",
        "tm:round",
        "tm:secretpower",
        "tm:sleeptalk",
        "tm:sludgebomb",
        "tm:solarbeam",
        "tm:strugglebug",
        "tm:substitute",
        "tm:sunnyday",
        "tm:swagger",
        "tm:sweetscent",
        "tm:takedown",
        "tm:teleport",
        "tm:thief",
        "tm:toxic",
        "tm:uturn",
        "tm:venoshock",
        "tm:whirlwind",
        "tutor:aircutter",
        "tutor:bugbite",
        "tutor:defog",
        "tutor:doubleedge",
        "tutor:gigadrain",
        "tutor:mimic",
        "tutor:ominouswind",
        "tutor:signalbeam",
        "tutor:skillswap",
        "tutor:snore",
        "tutor:stringshot",
        "tutor:swift",
        "tutor:tailwind",
        "tutor:twister",
        "tutor:zenheadbutt"
    ],
    "labels": [
        "gen1"
    ],
    "pokedex": [
        "cobblemon.species.venomoth.desc1",
        "cobblemon.species.venomoth.desc2"
    ],
    "preEvolution": "venonat",
    "evolutions": [],
    "baseScale": 0.9,
    "hitbox": {
        "width": 0.9,
        "height": 1.3,
        "fixed": false
    },
    "baseFriendship": 70,
    "evYield": {
        "special_attack": 1,
        "speed": 1
    },
    "height": 15,
    "weight": 125
}