{
    "implemented": true,
    "name": "vileplume",
    "nationalPokedexNumber": 45,
    "primaryType": "grass",
    "secondaryType": "poison",
    "abilities": [
        "chlorophyll",
        "h:effectspore"
    ],
    "baseStats": {
        "hp": 75,
        "attack": 80,
        "defence": 85,
        "special_attack": 110,
        "special_defence": 90,
        "speed": 50
    },
    "catchRate": 45,
    "maleRatio": 0.5,
    "shoulderMountable": false,
    "features": [
        "valencian"
    ],
    "baseExperienceYield": 245,
    "experienceGroup": "mediumslow",
    "eggCycles": 20,
    "eggGroups": [
        "grass"
    ],
    "moves": [
        "0:petalblizzard",
        "1:acid",
        "1:absorb",
        "1:megadrain",
        "1:growth",
        "1:poisonpowder",
        "1:stunspore",
        "1:sleeppowder",
        "1:petaldance",
        "1:toxic",
        "1:gigadrain",
        "1:sweetscent",
        "1:moonlight",
        "1:aromatherapy",
        "1:petalblizzard",
        "1:grassyterrain",
        "1:moonblast",
        "tm:attract",
        "tm:bide",
        "tm:bodyslam",
        "tm:bulletseed",
        "tm:captivate",
        "tm:charm",
        "tm:confide",
        "tm:curse",
        "tm:cut",
        "tm:dazzlinggleam",
        "tm:doubleteam",
        "tm:drainpunch",
        "tm:endure",
        "tm:energyball",
        "tm:facade",
        "tm:flash",
        "tm:fling",
        "tm:frustration",
        "tm:gigadrain",
        "tm:gigaimpact",
        "tm:grassknot",
        "tm:grassyterrain",
        "tm:headbutt",
        "tm:hiddenpower",
        "tm:hyperbeam",
        "tm:infestation",
        "tm:naturalgift",
        "tm:naturepower",
        "tm:pollenpuff",
        "tm:protect",
        "tm:rage",
        "tm:reflect",
        "tm:rest",
        "tm:return",
        "tm:round",
        "tm:safeguard",
        "tm:secretpower",
        "tm:seedbomb",
        "tm:sleeptalk",
        "tm:sludgebomb",
        "tm:sludgewave",
        "tm:snore",
        "tm:solarbeam",
        "tm:substitute",
        "tm:sunnyday",
        "tm:swagger",
        "tm:swordsdance",
        "tm:takedown",
        "tm:venoshock",
        "tutor:afteryou",
        "tutor:corrosivegas",
        "tutor:doubleedge",
        "tutor:gastroacid",
        "tutor:grassyglide",
        "tutor:mimic",
        "tutor:synthesis",
        "tutor:worryseed"
    ],
    "labels": [
        "gen1"
    ],
    "pokedex": [
        "cobblemon.species.vileplume.desc1",
        "cobblemon.species.vileplume.desc2"
    ],
    "preEvolution": "gloom",
    "evolutions": [],
    "baseScale": 1.0,
    "hitbox": {
        "width": 1.2,
        "height": 1.0,
        "fixed": false
    },
    "baseFriendship": 50,
    "evYield": {
        "special_attack": 3
    },
    "height": 12,
    "weight": 186,
    "forms": []
}