{
	"format_version": "1.8.0",
	"animations": {
		"animation.slowking.ground_idle": {
			"loop": true,
			"bones": {
				"tail": {
					"rotation": [-15, 0, 0]
				},
				"tail2": {
					"rotation": [15, 0, 0]
				},
				"tail3": {
					"rotation": [15, 0, 0]
				},
				"leftarm": {
					"rotation": [90, 0, 50]
				},
				"rightarm": {
					"rotation": [90, 0, -50]
				}
			}
		},
		"animation.slowking.water_idle": {
			"loop": true,
			"bones": {
				"tail": {
					"rotation": [-30, 0, 0]
				},
				"tail2": {
					"rotation": [7.5, 0, 0]
				},
				"tail3": {
					"rotation": [7.5, 0, 0]
				},
				"leftarm": {
					"rotation": [95, -5, 50]
				},
				"rightarm": {
					"rotation": [95, 5, -50]
				},
				"body": {
					"rotation": [15, 0, 0]
				},
				"head": {
					"rotation": [-15, 0, 0]
				},
				"leftleg": {
					"rotation": [7.5, -5, -5]
				},
				"leftfoot": {
					"rotation": [15, 0, 0]
				},
				"rightleg": {
					"rotation": [7.5, 5, 5]
				},
				"rightfoot": {
					"rotation": [15, 0, 0]
				}
			}
		},
		"animation.slowking.water_swim": {
			"loop": true,
			"bones": {
				"tail": {
					"rotation": [-45, 0, 0]
				},
				"tail2": {
					"rotation": [5, 0, 0]
				},
				"tail3": {
					"rotation": [5, 0, 0]
				},
				"leftarm": {
					"rotation": [105, -10, 55]
				},
				"rightarm": {
					"rotation": [105, 10, -55]
				},
				"body": {
					"rotation": [45, 0, 0]
				},
				"head": {
					"rotation": [-40, 0, 0]
				},
				"leftleg": {
					"rotation": [15, -5, -5]
				},
				"rightleg": {
					"rotation": [15, 5, 5]
				},
				"leftfoot": {
					"rotation": [30, 0, 0]
				},
				"rightfoot": {
					"rotation": [30, 0, 0]
				}
			}
		}
	}
}