{
    "name": "breloom",
    "nationalPokedexNumber": 286,
    "primaryType": "grass",
    "secondaryType": "fighting",
    "abilities": [
        "effectspore",
        "poisonheal",
        "h:technician"
    ],
    "baseStats": {
        "hp": 60,
        "attack": 130,
        "defence": 80,
        "special_attack": 60,
        "special_defence": 60,
        "speed": 70
    },
    "catchRate": 90,
    "maleRatio": 0.5,
    "shoulderMountable": false,
    "forms": [],
    "baseExperienceYield": 161,
    "experienceGroup": "fluctuating",
    "eggCycles": 15,
    "eggGroups": [
        "fairy",
        "grass"
    ],
    "moves": [
        "0:machpunch",
        "1:tackle",
        "1:absorb",
        "1:leechseed",
        "1:stunspore",
        "1:machpunch",
        "5:stunspore",
        "8:leechseed",
        "12:megadrain",
        "15:headbutt",
        "19:feint",
        "22:counter",
        "28:forcepalm",
        "33:mindreader",
        "39:skyuppercut",
        "44:seedbomb",
        "50:dynamicpunch",
        "tm:attract",
        "tm:brickbreak",
        "tm:bulkup",
        "tm:bulletseed",
        "tm:captivate",
        "tm:confide",
        "tm:cut",
        "tm:doubleteam",
        "tm:endure",
        "tm:energyball",
        "tm:facade",
        "tm:falseswipe",
        "tm:flash",
        "tm:fling",
        "tm:focusblast",
        "tm:frustration",
        "tm:gigaimpact",
        "tm:grassknot",
        "tm:hiddenpower",
        "tm:hyperbeam",
        "tm:lowsweep",
        "tm:naturalgift",
        "tm:poweruppunch",
        "tm:protect",
        "tm:rest",
        "tm:retaliate",
        "tm:return",
        "tm:rockslide",
        "tm:rocksmash",
        "tm:rocktomb",
        "tm:round",
        "tm:safeguard",
        "tm:secretpower",
        "tm:sleeptalk",
        "tm:sludgebomb",
        "tm:solarbeam",
        "tm:stoneedge",
        "tm:strength",
        "tm:substitute",
        "tm:sunnyday",
        "tm:swagger",
        "tm:swordsdance",
        "tm:toxic",
        "tm:venoshock",
        "tm:workup",
        "tutor:bodyslam",
        "tutor:doubleedge",
        "tutor:drainpunch",
        "tutor:focuspunch",
        "tutor:furycutter",
        "tutor:gigadrain",
        "tutor:helpinghand",
        "tutor:irontail",
        "tutor:laserfocus",
        "tutor:megakick",
        "tutor:megapunch",
        "tutor:mimic",
        "tutor:mudslap",
        "tutor:seedbomb",
        "tutor:seismictoss",
        "tutor:snatch",
        "tutor:snore",
        "tutor:superpower",
        "tutor:synthesis",
        "tutor:thunderpunch",
        "tutor:vacuumwave",
        "tutor:worryseed"
    ],
    "labels": [
        "gen3"
    ],
    "pokedex": [
        "cobblemon.species.breloom.desc1",
        "cobblemon.species.breloom.desc2"
    ],
    "preEvolution": "shroomish",
    "evolutions": [],
    "baseScale": 1.0,
    "hitbox": {
        "width": 1.0,
        "height": 1.0,
        "fixed": false
    },
    "baseFriendship": 70,
    "evYield": {
        "attack": 2
    },
    "height": 12,
    "weight": 392
}