{
    "name": "cacnea",
    "nationalPokedexNumber": 331,
    "primaryType": "grass",
    "abilities": [
        "sandveil",
        "h:waterabsorb"
    ],
    "baseStats": {
        "hp": 50,
        "attack": 85,
        "defence": 40,
        "special_attack": 85,
        "special_defence": 40,
        "speed": 35
    },
    "catchRate": 190,
    "maleRatio": 0.5,
    "shoulderMountable": false,
    "forms": [],
    "baseExperienceYield": 67,
    "experienceGroup": "mediumslow",
    "eggCycles": 20,
    "eggGroups": [
        "grass",
        "human_like"
    ],
    "moves": [
        "1:poisonsting",
        "1:leer",
        "4:absorb",
        "7:growth",
        "10:leechseed",
        "13:sandattack",
        "16:needlearm",
        "19:feintattack",
        "22:ingrain",
        "26:payback",
        "30:spikes",
        "34:suckerpunch",
        "38:pinmissile",
        "42:energyball",
        "46:cottonspore",
        "50:sandstorm",
        "54:destinybond",
        "egg:acid",
        "egg:belch",
        "egg:block",
        "egg:counter",
        "egg:disable",
        "egg:dynamicpunch",
        "egg:fellstinger",
        "egg:grasswhistle",
        "egg:lowkick",
        "egg:magicalleaf",
        "egg:nastyplot",
        "egg:poweruppunch",
        "egg:rototiller",
        "egg:seedbomb",
        "egg:smellingsalts",
        "egg:switcheroo",
        "egg:teeterdance",
        "egg:worryseed",
        "tm:attract",
        "tm:brickbreak",
        "tm:bulletseed",
        "tm:captivate",
        "tm:confide",
        "tm:cut",
        "tm:darkpulse",
        "tm:doubleteam",
        "tm:endure",
        "tm:energyball",
        "tm:facade",
        "tm:flash",
        "tm:fling",
        "tm:frustration",
        "tm:grassknot",
        "tm:hiddenpower",
        "tm:naturalgift",
        "tm:naturepower",
        "tm:payback",
        "tm:poisonjab",
        "tm:protect",
        "tm:rest",
        "tm:return",
        "tm:round",
        "tm:sandstorm",
        "tm:secretpower",
        "tm:sleeptalk",
        "tm:solarbeam",
        "tm:substitute",
        "tm:sunnyday",
        "tm:swagger",
        "tm:swordsdance",
        "tm:toxic",
        "tm:venoshock",
        "tutor:block",
        "tutor:bodyslam",
        "tutor:doubleedge",
        "tutor:drainpunch",
        "tutor:focuspunch",
        "tutor:furycutter",
        "tutor:gigadrain",
        "tutor:headbutt",
        "tutor:lowkick",
        "tutor:megapunch",
        "tutor:mimic",
        "tutor:mudslap",
        "tutor:roleplay",
        "tutor:seedbomb",
        "tutor:seismictoss",
        "tutor:snore",
        "tutor:spite",
        "tutor:synthesis",
        "tutor:thunderpunch",
        "tutor:worryseed"
    ],
    "labels": [
        "gen3"
    ],
    "pokedex": [
        "cobblemon.species.cacnea.desc1",
        "cobblemon.species.cacnea.desc2"
    ],
    "evolutions": [
        {
            "id": "cacnea_cacturne",
            "variant": "level_up",
            "result": "cacturne",
            "consumeHeldItem": false,
            "learnableMoves": [],
            "requirements": [
                {
                    "variant": "level",
                    "minLevel": 32
                }
            ]
        }
    ],
    "baseScale": 1.0,
    "hitbox": {
        "width": 1.0,
        "height": 1.0,
        "fixed": false
    },
    "baseFriendship": 35,
    "evYield": {
        "special_attack": 1
    },
    "height": 4,
    "weight": 513
}