{
    "implemented": true,
    "name": "combusken",
    "nationalPokedexNumber": 256,
    "primaryType": "fire",
    "secondaryType": "fighting",
    "abilities": [
        "blaze",
        "h:speedboost"
    ],
    "baseStats": {
        "hp": 60,
        "attack": 85,
        "defence": 60,
        "special_attack": 85,
        "special_defence": 60,
        "speed": 55
    },
    "catchRate": 45,
    "maleRatio": 0.875,
    "shoulderMountable": false,
    "forms": [],
    "baseExperienceYield": 142,
    "experienceGroup": "mediumslow",
    "eggCycles": 20,
    "eggGroups": [
        "field"
    ],
    "drops": {
        "amount": "2",
        "entries": [
            {
                "item": "minecraft:feather",
                "quantityRange": "1-2",
                "percentage": 66
            },
            {
                "item": "minecraft:chicken"
            }
        ]
    },
    "moves": [
        "0:doublekick",
        "1:scratch",
        "1:doublekick",
        "1:growl",
        "1:ember",
        "1:flamethrower",
        "1:quickattack",
        "1:featherdance",
        "9:flamecharge",
        "12:detect",
        "14:peck",
        "15:sandattack",
        "20:aerialace",
        "25:slash",
        "30:bounce",
        "35:focusenergy",
        "40:blazekick",
        "45:bulkup",
        "47:mirrormove",
        "50:reversal",
        "53:skyuppercut",
        "55:flareblitz",
        "tm:agility",
        "tm:assurance",
        "tm:attract",
        "tm:batonpass",
        "tm:blazekick",
        "tm:bodyslam",
        "tm:bounce",
        "tm:brickbreak",
        "tm:bulkup",
        "tm:captivate",
        "tm:confide",
        "tm:cut",
        "tm:dig",
        "tm:doubleteam",
        "tm:echoedvoice",
        "tm:endure",
        "tm:facade",
        "tm:fireblast",
        "tm:firepunch",
        "tm:firespin",
        "tm:flamethrower",
        "tm:flareblitz",
        "tm:fling",
        "tm:focusblast",
        "tm:focusenergy",
        "tm:frustration",
        "tm:heatwave",
        "tm:helpinghand",
        "tm:hiddenpower",
        "tm:honeclaws",
        "tm:incinerate",
        "tm:lowkick",
        "tm:lowsweep",
        "tm:megakick",
        "tm:megapunch",
        "tm:naturalgift",
        "tm:overheat",
        "tm:poisonjab",
        "tm:poweruppunch",
        "tm:protect",
        "tm:rest",
        "tm:return",
        "tm:revenge",
        "tm:reversal",
        "tm:rockslide",
        "tm:rocksmash",
        "tm:rocktomb",
        "tm:round",
        "tm:secretpower",
        "tm:shadowclaw",
        "tm:sleeptalk",
        "tm:snore",
        "tm:strength",
        "tm:substitute",
        "tm:sunnyday",
        "tm:swagger",
        "tm:swift",
        "tm:swordsdance",
        "tm:thunderpunch",
        "tm:toxic",
        "tm:willowisp",
        "tm:workup",
        "tutor:coaching",
        "tutor:counter",
        "tutor:defog",
        "tutor:doubleedge",
        "tutor:dualchop",
        "tutor:dynamicpunch",
        "tutor:firepledge",
        "tutor:focuspunch",
        "tutor:furycutter",
        "tutor:headbutt",
        "tutor:lastresort",
        "tutor:mimic",
        "tutor:mudslap",
        "tutor:seismictoss",
        "tutor:vacuumwave"
    ],
    "labels": [
        "gen3"
    ],
    "pokedex": [
        "cobblemon.species.combusken.desc1",
        "cobblemon.species.combusken.desc2"
    ],
    "preEvolution": "torchic",
    "evolutions": [
        {
            "id": "combusken_blaziken",
            "variant": "level_up",
            "result": "blaziken",
            "consumeHeldItem": false,
            "learnableMoves": [],
            "requirements": [
                {
                    "variant": "level",
                    "minLevel": 36
                }
            ]
        }
    ],
    "baseScale": 0.6,
    "hitbox": {
        "width": 1.0,
        "height": 1.5,
        "fixed": false
    },
    "baseFriendship": 50,
    "evYield": {
        "attack": 1,
        "special_attack": 1
    },
    "height": 9,
    "weight": 195
}