{
    "name": "dustox",
    "nationalPokedexNumber": 269,
    "primaryType": "bug",
    "secondaryType": "poison",
    "abilities": [
        "shielddust",
        "h:compoundeyes"
    ],
    "baseStats": {
        "hp": 60,
        "attack": 50,
        "defence": 70,
        "special_attack": 50,
        "special_defence": 90,
        "speed": 65
    },
    "catchRate": 45,
    "maleRatio": 0.5,
    "shoulderMountable": false,
    "forms": [],
    "baseExperienceYield": 173,
    "experienceGroup": "mediumfast",
    "eggCycles": 15,
    "eggGroups": [
        "bug"
    ],
    "moves": [
        "0:gust",
        "1:gust",
        "12:confusion",
        "15:poisonpowder",
        "17:moonlight",
        "20:venoshock",
        "22:psybeam",
        "25:silverwind",
        "27:lightscreen",
        "30:whirlwind",
        "32:toxic",
        "35:bugbuzz",
        "37:protect",
        "40:quiverdance",
        "tm:acrobatics",
        "tm:aerialace",
        "tm:attract",
        "tm:captivate",
        "tm:confide",
        "tm:doubleteam",
        "tm:endure",
        "tm:energyball",
        "tm:facade",
        "tm:flash",
        "tm:frustration",
        "tm:gigaimpact",
        "tm:hiddenpower",
        "tm:hyperbeam",
        "tm:infestation",
        "tm:lightscreen",
        "tm:naturalgift",
        "tm:protect",
        "tm:psychic",
        "tm:rest",
        "tm:return",
        "tm:roost",
        "tm:round",
        "tm:secretpower",
        "tm:shadowball",
        "tm:sleeptalk",
        "tm:sludgebomb",
        "tm:solarbeam",
        "tm:strugglebug",
        "tm:substitute",
        "tm:sunnyday",
        "tm:swagger",
        "tm:thief",
        "tm:toxic",
        "tm:uturn",
        "tm:venoshock",
        "tutor:aircutter",
        "tutor:bugbite",
        "tutor:defog",
        "tutor:doubleedge",
        "tutor:electroweb",
        "tutor:gigadrain",
        "tutor:laserfocus",
        "tutor:mimic",
        "tutor:ominouswind",
        "tutor:signalbeam",
        "tutor:snore",
        "tutor:stringshot",
        "tutor:swift",
        "tutor:tailwind",
        "tutor:twister"
    ],
    "labels": [
        "gen3"
    ],
    "pokedex": [
        "cobblemon.species.dustox.desc1",
        "cobblemon.species.dustox.desc2"
    ],
    "preEvolution": "cascoon",
    "evolutions": [],
    "baseScale": 1.0,
    "hitbox": {
        "width": 1.0,
        "height": 1.0,
        "fixed": false
    },
    "baseFriendship": 70,
    "evYield": {
        "special_defence": 3
    },
    "height": 12,
    "weight": 316
}