{
    "name": "hariyama",
    "nationalPokedexNumber": 297,
    "primaryType": "fighting",
    "abilities": [
        "thickfat",
        "guts",
        "h:sheerforce"
    ],
    "baseStats": {
        "hp": 144,
        "attack": 120,
        "defence": 60,
        "special_attack": 40,
        "special_defence": 60,
        "speed": 50
    },
    "catchRate": 200,
    "maleRatio": 0.75,
    "shoulderMountable": false,
    "forms": [],
    "baseExperienceYield": 166,
    "experienceGroup": "fluctuating",
    "eggCycles": 20,
    "eggGroups": [
        "human_like"
    ],
    "moves": [
        "1:sandattack",
        "1:tackle",
        "1:focusenergy",
        "1:armthrust",
        "1:brine",
        "4:sandattack",
        "7:armthrust",
        "10:fakeout",
        "13:forcepalm",
        "16:whirlwind",
        "19:knockoff",
        "22:vitalthrow",
        "26:bellydrum",
        "30:smellingsalts",
        "34:seismictoss",
        "38:wakeupslap",
        "42:endure",
        "46:closecombat",
        "50:reversal",
        "54:heavyslam",
        "tm:attract",
        "tm:brickbreak",
        "tm:bulkup",
        "tm:bulldoze",
        "tm:captivate",
        "tm:confide",
        "tm:dig",
        "tm:doubleteam",
        "tm:earthquake",
        "tm:facade",
        "tm:fling",
        "tm:focusblast",
        "tm:frustration",
        "tm:gigaimpact",
        "tm:hiddenpower",
        "tm:hyperbeam",
        "tm:lowsweep",
        "tm:naturalgift",
        "tm:payback",
        "tm:poisonjab",
        "tm:poweruppunch",
        "tm:protect",
        "tm:raindance",
        "tm:rest",
        "tm:retaliate",
        "tm:return",
        "tm:rockclimb",
        "tm:rockslide",
        "tm:rocksmash",
        "tm:rocktomb",
        "tm:round",
        "tm:secretpower",
        "tm:sleeptalk",
        "tm:smackdown",
        "tm:stoneedge",
        "tm:strength",
        "tm:substitute",
        "tm:sunnyday",
        "tm:surf",
        "tm:swagger",
        "tm:toxic",
        "tm:whirlpool",
        "tm:workup",
        "tutor:bodyslam",
        "tutor:counter",
        "tutor:doubleedge",
        "tutor:dynamicpunch",
        "tutor:firepunch",
        "tutor:focuspunch",
        "tutor:headbutt",
        "tutor:helpinghand",
        "tutor:icepunch",
        "tutor:ironhead",
        "tutor:knockoff",
        "tutor:lowkick",
        "tutor:megakick",
        "tutor:megapunch",
        "tutor:metronome",
        "tutor:mimic",
        "tutor:mudslap",
        "tutor:roleplay",
        "tutor:snore",
        "tutor:stompingtantrum",
        "tutor:superpower",
        "tutor:throatchop",
        "tutor:thunderpunch",
        "tutor:vacuumwave"
    ],
    "labels": [
        "gen3"
    ],
    "pokedex": [
        "cobblemon.species.hariyama.desc1",
        "cobblemon.species.hariyama.desc2"
    ],
    "preEvolution": "makuhita",
    "evolutions": [],
    "baseScale": 1.0,
    "hitbox": {
        "width": 1.0,
        "height": 1.0,
        "fixed": false
    },
    "baseFriendship": 70,
    "evYield": {
        "hp": 2
    },
    "height": 23,
    "weight": 2538
}