{
    "name": "latios",
    "nationalPokedexNumber": 381,
    "primaryType": "dragon",
    "secondaryType": "psychic",
    "abilities": [
        "levitate"
    ],
    "baseStats": {
        "hp": 80,
        "attack": 90,
        "defence": 80,
        "special_attack": 130,
        "special_defence": 110,
        "speed": 110
    },
    "catchRate": 3,
    "maleRatio": 1.0,
    "shoulderMountable": false,
    "forms": [
        {
            "name": "normal"
        },
        {
            "name": "mega",
            "aspects": ["mega"],
            "baseStats": {
                "hp": 80,
                "attack": 130,
                "defence": 100,
                "special_attack": 160,
                "special_defence": 120,
                "speed": 110
            },
            "baseExperienceYield": 315,
            "labels": [
                "gen3",
                "legendary",
                "mega_evolution"
            ],
            "pokedex": [
                "cobblemon.form.latios-mega.desc1",
                "cobblemon.form.latios-mega.desc2"
            ],
            "height": 23,
            "weight": 700
        }
    ],
    "baseExperienceYield": 300,
    "experienceGroup": "slow",
    "eggCycles": 120,
    "eggGroups": [
        "undiscovered"
    ],
    "moves": [
        "1:psywave",
        "1:dragondance",
        "1:healblock",
        "1:storedpower",
        "5:helpinghand",
        "10:recover",
        "13:refresh",
        "15:confusion",
        "20:tailwind",
        "25:dragonbreath",
        "30:allyswitch",
        "35:lusterpurge",
        "36:telekinesis",
        "40:zenheadbutt",
        "45:dragonpulse",
        "50:healpulse",
        "55:simplebeam",
        "60:psychic",
        "65:powersplit",
        "70:memento",
        "75:psychoshift",
        "tm:aerialace",
        "tm:agility",
        "tm:airslash",
        "tm:allyswitch",
        "tm:attract",
        "tm:aurasphere",
        "tm:batonpass",
        "tm:bodyslam",
        "tm:breakingswipe",
        "tm:bulldoze",
        "tm:calmmind",
        "tm:captivate",
        "tm:chargebeam",
        "tm:confide",
        "tm:cut",
        "tm:dive",
        "tm:doubleteam",
        "tm:dragonclaw",
        "tm:dragondance",
        "tm:dragonpulse",
        "tm:dreameater",
        "tm:earthquake",
        "tm:endure",
        "tm:energyball",
        "tm:facade",
        "tm:flash",
        "tm:fly",
        "tm:frustration",
        "tm:futuresight",
        "tm:gigaimpact",
        "tm:grassknot",
        "tm:helpinghand",
        "tm:hiddenpower",
        "tm:honeclaws",
        "tm:hyperbeam",
        "tm:icebeam",
        "tm:icywind",
        "tm:lightscreen",
        "tm:mysticalfire",
        "tm:naturalgift",
        "tm:outrage",
        "tm:protect",
        "tm:psychic",
        "tm:psychocut",
        "tm:psychup",
        "tm:psyshock",
        "tm:raindance",
        "tm:reflect",
        "tm:rest",
        "tm:retaliate",
        "tm:return",
        "tm:roar",
        "tm:roost",
        "tm:round",
        "tm:safeguard",
        "tm:sandstorm",
        "tm:secretpower",
        "tm:shadowball",
        "tm:shadowclaw",
        "tm:sleeptalk",
        "tm:snore",
        "tm:solarbeam",
        "tm:steelwing",
        "tm:storedpower",
        "tm:substitute",
        "tm:sunnyday",
        "tm:surf",
        "tm:swagger",
        "tm:swift",
        "tm:thunder",
        "tm:thunderbolt",
        "tm:thunderwave",
        "tm:toxic",
        "tm:triattack",
        "tm:trick",
        "tm:waterfall",
        "tm:whirlpool",
        "tm:wonderroom",
        "tm:zenheadbutt",
        "tutor:defog",
        "tutor:doubleedge",
        "tutor:dracometeor",
        "tutor:dualwingbeat",
        "tutor:furycutter",
        "tutor:laserfocus",
        "tutor:lastresort",
        "tutor:magiccoat",
        "tutor:mimic",
        "tutor:mudslap",
        "tutor:scaleshot",
        "tutor:shockwave",
        "tutor:telekinesis",
        "tutor:twister",
        "tutor:waterpulse"
    ],
    "labels": [
        "gen3",
        "legendary"
    ],
    "pokedex": [
        "cobblemon.species.latios.desc1",
        "cobblemon.species.latios.desc2"
    ],
    "evolutions": [],
    "baseScale": 1.0,
    "hitbox": {
        "width": 1.0,
        "height": 1.0,
        "fixed": false
    },
    "baseFriendship": 90,
    "evYield": {
        "special_attack": 3
    },
    "height": 20,
    "weight": 600
}