{
    "name": "pelipper",
    "nationalPokedexNumber": 279,
    "primaryType": "water",
    "secondaryType": "flying",
    "abilities": [
        "keeneye",
        "drizzle",
        "h:raindish"
    ],
    "baseStats": {
        "hp": 60,
        "attack": 50,
        "defence": 100,
        "special_attack": 95,
        "special_defence": 70,
        "speed": 65
    },
    "catchRate": 45,
    "maleRatio": 0.5,
    "shoulderMountable": false,
    "forms": [],
    "baseExperienceYield": 154,
    "experienceGroup": "mediumfast",
    "eggCycles": 20,
    "eggGroups": [
        "water_1",
        "flying"
    ],
    "moves": [
        "1:growl",
        "1:supersonic",
        "1:watergun",
        "1:agility",
        "1:quickattack",
        "1:protect",
        "1:watersport",
        "1:tailwind",
        "1:airslash",
        "1:soak",
        "15:wingattack",
        "20:waterpulse",
        "28:stockpile",
        "28:spitup",
        "28:swallow",
        "34:fling",
        "41:mist",
        "48:roost",
        "55:hurricane",
        "62:hydropump",
        "tm:aerialace",
        "tm:agility",
        "tm:airslash",
        "tm:attract",
        "tm:blizzard",
        "tm:bravebird",
        "tm:brine",
        "tm:captivate",
        "tm:confide",
        "tm:doubleteam",
        "tm:echoedvoice",
        "tm:endure",
        "tm:facade",
        "tm:fling",
        "tm:fly",
        "tm:frustration",
        "tm:gigaimpact",
        "tm:gunkshot",
        "tm:hail",
        "tm:hiddenpower",
        "tm:hurricane",
        "tm:hydropump",
        "tm:hyperbeam",
        "tm:icebeam",
        "tm:icywind",
        "tm:liquidation",
        "tm:naturalgift",
        "tm:payback",
        "tm:pluck",
        "tm:protect",
        "tm:raindance",
        "tm:rest",
        "tm:return",
        "tm:round",
        "tm:scald",
        "tm:secretpower",
        "tm:seedbomb",
        "tm:skydrop",
        "tm:sleeptalk",
        "tm:snore",
        "tm:steelwing",
        "tm:substitute",
        "tm:surf",
        "tm:swagger",
        "tm:swift",
        "tm:thief",
        "tm:toxic",
        "tm:uproar",
        "tm:uturn",
        "tm:weatherball",
        "tm:whirlpool",
        "tutor:aircutter",
        "tutor:defog",
        "tutor:doubleedge",
        "tutor:dualwingbeat",
        "tutor:knockoff",
        "tutor:mimic",
        "tutor:mudslap",
        "tutor:ominouswind",
        "tutor:shockwave",
        "tutor:skyattack",
        "tutor:twister"
    ],
    "labels": [
        "gen3"
    ],
    "pokedex": [
        "cobblemon.species.pelipper.desc1",
        "cobblemon.species.pelipper.desc2"
    ],
    "preEvolution": "wingull",
    "evolutions": [],
    "baseScale": 1.0,
    "hitbox": {
        "width": 1.0,
        "height": 1.0,
        "fixed": false
    },
    "baseFriendship": 50,
    "evYield": {
        "defence": 2
    },
    "height": 12,
    "weight": 280
}