{
    "name": "spheal",
    "nationalPokedexNumber": 363,
    "primaryType": "ice",
    "secondaryType": "water",
    "abilities": [
        "thickfat",
        "icebody",
        "h:oblivious"
    ],
    "baseStats": {
        "hp": 70,
        "attack": 40,
        "defence": 50,
        "special_attack": 55,
        "special_defence": 50,
        "speed": 25
    },
    "catchRate": 255,
    "maleRatio": 0.5,
    "shoulderMountable": false,
    "forms": [],
    "baseExperienceYield": 58,
    "experienceGroup": "mediumslow",
    "eggCycles": 20,
    "eggGroups": [
        "water_1",
        "field"
    ],
    "moves": [
        "1:defensecurl",
        "1:rollout",
        "4:growl",
        "8:watergun",
        "12:powdersnow",
        "13:iceball",
        "16:rest",
        "20:snore",
        "24:brine",
        "28:aurorabeam",
        "33:encore",
        "36:bodyslam",
        "40:surf",
        "44:blizzard",
        "48:hail",
        "52:sheercold",
        "egg:aquaring",
        "egg:bellydrum",
        "egg:curse",
        "egg:fissure",
        "egg:signalbeam",
        "egg:spitup",
        "egg:stockpile",
        "egg:swallow",
        "egg:waterpulse",
        "egg:watersport",
        "egg:yawn",
        "tm:attract",
        "tm:blizzard",
        "tm:bodyslam",
        "tm:brine",
        "tm:bulldoze",
        "tm:captivate",
        "tm:confide",
        "tm:dive",
        "tm:doubleteam",
        "tm:earthquake",
        "tm:echoedvoice",
        "tm:encore",
        "tm:endure",
        "tm:facade",
        "tm:frostbreath",
        "tm:frustration",
        "tm:hail",
        "tm:hiddenpower",
        "tm:icebeam",
        "tm:icywind",
        "tm:irontail",
        "tm:naturalgift",
        "tm:protect",
        "tm:raindance",
        "tm:rest",
        "tm:return",
        "tm:rockslide",
        "tm:rocksmash",
        "tm:rocktomb",
        "tm:round",
        "tm:secretpower",
        "tm:sleeptalk",
        "tm:snore",
        "tm:strength",
        "tm:substitute",
        "tm:surf",
        "tm:swagger",
        "tm:toxic",
        "tm:waterfall",
        "tm:whirlpool",
        "tutor:aquatail",
        "tutor:doubleedge",
        "tutor:headbutt",
        "tutor:mimic",
        "tutor:mudslap",
        "tutor:signalbeam",
        "tutor:steelroller",
        "tutor:superfang"
    ],
    "labels": [
        "gen3"
    ],
    "pokedex": [
        "cobblemon.species.spheal.desc1",
        "cobblemon.species.spheal.desc2"
    ],
    "evolutions": [
        {
            "id": "spheal_sealeo",
            "variant": "level_up",
            "result": "sealeo",
            "consumeHeldItem": false,
            "learnableMoves": [],
            "requirements": [
                {
                    "variant": "level",
                    "minLevel": 32
                }
            ]
        }
    ],
    "baseScale": 1.0,
    "hitbox": {
        "width": 1.0,
        "height": 1.0,
        "fixed": false
    },
    "baseFriendship": 50,
    "evYield": {
        "hp": 1
    },
    "height": 8,
    "weight": 395
}