{
    "name": "swellow",
    "nationalPokedexNumber": 277,
    "primaryType": "normal",
    "secondaryType": "flying",
    "abilities": [
        "guts",
        "h:scrappy"
    ],
    "baseStats": {
        "hp": 60,
        "attack": 85,
        "defence": 60,
        "special_attack": 75,
        "special_defence": 50,
        "speed": 125
    },
    "catchRate": 45,
    "maleRatio": 0.5,
    "shoulderMountable": false,
    "forms": [],
    "baseExperienceYield": 159,
    "experienceGroup": "mediumslow",
    "eggCycles": 15,
    "eggGroups": [
        "flying"
    ],
    "moves": [
        "1:growl",
        "1:peck",
        "1:quickattack",
        "1:focusenergy",
        "1:pluck",
        "1:airslash",
        "1:bravebird",
        "5:focusenergy",
        "9:quickattack",
        "13:wingattack",
        "17:doubleteam",
        "21:aerialace",
        "27:quickguard",
        "33:agility",
        "39:airslash",
        "45:endeavor",
        "51:bravebird",
        "57:reversal",
        "tm:aerialace",
        "tm:attract",
        "tm:captivate",
        "tm:confide",
        "tm:doubleteam",
        "tm:echoedvoice",
        "tm:endure",
        "tm:facade",
        "tm:fly",
        "tm:frustration",
        "tm:gigaimpact",
        "tm:hiddenpower",
        "tm:hyperbeam",
        "tm:naturalgift",
        "tm:protect",
        "tm:raindance",
        "tm:rest",
        "tm:return",
        "tm:roost",
        "tm:round",
        "tm:secretpower",
        "tm:sleeptalk",
        "tm:steelwing",
        "tm:substitute",
        "tm:sunnyday",
        "tm:swagger",
        "tm:thief",
        "tm:toxic",
        "tm:uturn",
        "tm:workup",
        "tutor:aircutter",
        "tutor:counter",
        "tutor:defog",
        "tutor:doubleedge",
        "tutor:endeavor",
        "tutor:heatwave",
        "tutor:laserfocus",
        "tutor:mimic",
        "tutor:mudslap",
        "tutor:ominouswind",
        "tutor:skyattack",
        "tutor:snore",
        "tutor:swift",
        "tutor:tailwind",
        "tutor:twister"
    ],
    "labels": [
        "gen3"
    ],
    "pokedex": [
        "cobblemon.species.swellow.desc1",
        "cobblemon.species.swellow.desc2"
    ],
    "preEvolution": "taillow",
    "evolutions": [],
    "baseScale": 1.0,
    "hitbox": {
        "width": 1.0,
        "height": 1.0,
        "fixed": false
    },
    "baseFriendship": 70,
    "evYield": {
        "speed": 2
    },
    "height": 7,
    "weight": 198
}