{
    "name": "tropius",
    "nationalPokedexNumber": 357,
    "primaryType": "grass",
    "secondaryType": "flying",
    "abilities": [
        "chlorophyll",
        "solarpower",
        "h:harvest"
    ],
    "baseStats": {
        "hp": 99,
        "attack": 68,
        "defence": 83,
        "special_attack": 72,
        "special_defence": 87,
        "speed": 51
    },
    "catchRate": 200,
    "maleRatio": 0.5,
    "shoulderMountable": false,
    "forms": [],
    "baseExperienceYield": 161,
    "experienceGroup": "slow",
    "eggCycles": 25,
    "eggGroups": [
        "monster",
        "grass"
    ],
    "moves": [
        "1:gust",
        "1:leer",
        "1:growth",
        "1:razorleaf",
        "1:leafstorm",
        "6:sweetscent",
        "10:stomp",
        "16:magicalleaf",
        "21:whirlwind",
        "26:leaftornado",
        "30:naturalgift",
        "36:airslash",
        "41:bodyslam",
        "46:bestow",
        "50:synthesis",
        "56:solarbeam",
        "61:leafstorm",
        "egg:bulletseed",
        "egg:curse",
        "egg:dragondance",
        "egg:dragonhammer",
        "egg:headbutt",
        "egg:leafblade",
        "egg:leafstorm",
        "egg:leechseed",
        "egg:naturalgift",
        "egg:naturepower",
        "egg:razorwind",
        "egg:slam",
        "egg:synthesis",
        "tm:aerialace",
        "tm:attract",
        "tm:brutalswing",
        "tm:bulldoze",
        "tm:captivate",
        "tm:confide",
        "tm:cut",
        "tm:doubleteam",
        "tm:earthquake",
        "tm:endure",
        "tm:energyball",
        "tm:facade",
        "tm:flash",
        "tm:fly",
        "tm:frustration",
        "tm:gigaimpact",
        "tm:grassknot",
        "tm:hiddenpower",
        "tm:hyperbeam",
        "tm:naturepower",
        "tm:protect",
        "tm:rest",
        "tm:return",
        "tm:roar",
        "tm:rocksmash",
        "tm:roost",
        "tm:round",
        "tm:safeguard",
        "tm:secretpower",
        "tm:silverwind",
        "tm:sleeptalk",
        "tm:solarbeam",
        "tm:steelwing",
        "tm:strength",
        "tm:substitute",
        "tm:sunnyday",
        "tm:swagger",
        "tm:swordsdance",
        "tm:toxic",
        "tutor:aircutter",
        "tutor:defog",
        "tutor:doubleedge",
        "tutor:dragonpulse",
        "tutor:furycutter",
        "tutor:gigadrain",
        "tutor:mimic",
        "tutor:mudslap",
        "tutor:ominouswind",
        "tutor:outrage",
        "tutor:seedbomb",
        "tutor:snore",
        "tutor:stompingtantrum",
        "tutor:synthesis",
        "tutor:tailwind",
        "tutor:twister",
        "tutor:worryseed"
    ],
    "labels": [
        "gen3"
    ],
    "pokedex": [
        "cobblemon.species.tropius.desc1",
        "cobblemon.species.tropius.desc2"
    ],
    "evolutions": [],
    "baseScale": 1.0,
    "hitbox": {
        "width": 1.0,
        "height": 1.0,
        "fixed": false
    },
    "baseFriendship": 70,
    "evYield": {
        "hp": 2
    },
    "height": 20,
    "weight": 1000
}