{
    "name": "vibrava",
    "nationalPokedexNumber": 329,
    "primaryType": "ground",
    "secondaryType": "dragon",
    "abilities": [
        "levitate"
    ],
    "baseStats": {
        "hp": 50,
        "attack": 70,
        "defence": 50,
        "special_attack": 50,
        "special_defence": 50,
        "speed": 70
    },
    "catchRate": 120,
    "maleRatio": 0.5,
    "shoulderMountable": false,
    "forms": [],
    "baseExperienceYield": 119,
    "experienceGroup": "mediumslow",
    "eggCycles": 20,
    "eggGroups": [
        "bug",
        "dragon"
    ],
    "moves": [
        "0:dragonbreath",
        "1:sandattack",
        "1:bite",
        "1:supersonic",
        "1:sonicboom",
        "1:fissure",
        "1:dig",
        "1:bide",
        "1:feintattack",
        "1:dragonbreath",
        "1:crunch",
        "1:superpower",
        "1:astonish",
        "1:bulldoze",
        "1:laserfocus",
        "12:mudslap",
        "16:sandtomb",
        "20:dragontail",
        "24:screech",
        "28:bugbuzz",
        "32:sandstorm",
        "38:earthpower",
        "44:earthquake",
        "50:uproar",
        "56:dragonrush",
        "62:boomburst",
        "tm:airslash",
        "tm:attract",
        "tm:bodyslam",
        "tm:bugbuzz",
        "tm:bulldoze",
        "tm:captivate",
        "tm:confide",
        "tm:crunch",
        "tm:dig",
        "tm:doubleteam",
        "tm:dragonpulse",
        "tm:earthpower",
        "tm:earthquake",
        "tm:endure",
        "tm:facade",
        "tm:fly",
        "tm:focusenergy",
        "tm:frustration",
        "tm:gigadrain",
        "tm:heatwave",
        "tm:hiddenpower",
        "tm:hyperbeam",
        "tm:mudshot",
        "tm:naturalgift",
        "tm:outrage",
        "tm:protect",
        "tm:rest",
        "tm:return",
        "tm:rockslide",
        "tm:rocksmash",
        "tm:rocktomb",
        "tm:roost",
        "tm:round",
        "tm:sandstorm",
        "tm:sandtomb",
        "tm:screech",
        "tm:secretpower",
        "tm:silverwind",
        "tm:sleeptalk",
        "tm:snore",
        "tm:solarbeam",
        "tm:steelwing",
        "tm:strength",
        "tm:strugglebug",
        "tm:substitute",
        "tm:sunnyday",
        "tm:superpower",
        "tm:swagger",
        "tm:swift",
        "tm:throatchop",
        "tm:toxic",
        "tm:uproar",
        "tm:uturn",
        "tutor:aircutter",
        "tutor:bugbite",
        "tutor:defog",
        "tutor:doubleedge",
        "tutor:dracometeor",
        "tutor:dualwingbeat",
        "tutor:furycutter",
        "tutor:headbutt",
        "tutor:mimic",
        "tutor:ominouswind",
        "tutor:scorchingsands",
        "tutor:signalbeam",
        "tutor:tailwind",
        "tutor:twister"
    ],
    "labels": [
        "gen3"
    ],
    "pokedex": [
        "cobblemon.species.vibrava.desc1",
        "cobblemon.species.vibrava.desc2"
    ],
    "preEvolution": "trapinch",
    "evolutions": [
        {
            "id": "vibrava_flygon",
            "variant": "level_up",
            "result": "flygon",
            "consumeHeldItem": false,
            "learnableMoves": [],
            "requirements": [
                {
                    "variant": "level",
                    "minLevel": 45
                }
            ]
        }
    ],
    "baseScale": 1.0,
    "hitbox": {
        "width": 1.0,
        "height": 1.0,
        "fixed": false
    },
    "baseFriendship": 50,
    "evYield": {
        "attack": 1,
        "speed": 1
    },
    "height": 11,
    "weight": 153
}