{
    "name": "whiscash",
    "nationalPokedexNumber": 340,
    "primaryType": "water",
    "secondaryType": "ground",
    "abilities": [
        "oblivious",
        "anticipation",
        "h:hydration"
    ],
    "baseStats": {
        "hp": 110,
        "attack": 78,
        "defence": 73,
        "special_attack": 76,
        "special_defence": 71,
        "speed": 60
    },
    "catchRate": 75,
    "maleRatio": 0.5,
    "shoulderMountable": false,
    "forms": [],
    "baseExperienceYield": 164,
    "experienceGroup": "mediumfast",
    "eggCycles": 20,
    "eggGroups": [
        "water_2"
    ],
    "moves": [
        "0:thrash",
        "1:thrash",
        "1:watergun",
        "1:rest",
        "1:snore",
        "1:mudslap",
        "1:mudsport",
        "1:tickle",
        "1:watersport",
        "1:zenheadbutt",
        "1:belch",
        "6:mudsport",
        "6:watersport",
        "12:waterpulse",
        "13:mudbomb",
        "18:amnesia",
        "20:magnitude",
        "24:aquatail",
        "33:muddywater",
        "40:earthquake",
        "48:futuresight",
        "56:fissure",
        "tm:amnesia",
        "tm:attract",
        "tm:blizzard",
        "tm:bounce",
        "tm:bulldoze",
        "tm:captivate",
        "tm:confide",
        "tm:dive",
        "tm:doubleteam",
        "tm:dragondance",
        "tm:earthpower",
        "tm:earthquake",
        "tm:endure",
        "tm:facade",
        "tm:frustration",
        "tm:futuresight",
        "tm:gigaimpact",
        "tm:hail",
        "tm:hiddenpower",
        "tm:hydropump",
        "tm:hyperbeam",
        "tm:icebeam",
        "tm:icywind",
        "tm:liquidation",
        "tm:muddywater",
        "tm:mudshot",
        "tm:naturalgift",
        "tm:protect",
        "tm:raindance",
        "tm:rest",
        "tm:return",
        "tm:rockslide",
        "tm:rocksmash",
        "tm:rocktomb",
        "tm:round",
        "tm:sandstorm",
        "tm:sandtomb",
        "tm:scald",
        "tm:secretpower",
        "tm:sleeptalk",
        "tm:snore",
        "tm:stompingtantrum",
        "tm:stoneedge",
        "tm:strength",
        "tm:substitute",
        "tm:surf",
        "tm:swagger",
        "tm:toxic",
        "tm:uproar",
        "tm:waterfall",
        "tm:weatherball",
        "tm:whirlpool",
        "tm:zenheadbutt",
        "tutor:doubleedge",
        "tutor:headbutt",
        "tutor:mimic"
    ],
    "labels": [
        "gen3"
    ],
    "pokedex": [
        "cobblemon.species.whiscash.desc1",
        "cobblemon.species.whiscash.desc2"
    ],
    "preEvolution": "barboach",
    "evolutions": [],
    "baseScale": 1.0,
    "hitbox": {
        "width": 1.0,
        "height": 1.0,
        "fixed": false
    },
    "baseFriendship": 50,
    "evYield": {
        "hp": 2
    },
    "height": 9,
    "weight": 236
}