{
	"format_version": "1.8.0",
	"animations": {
		"animation.rowlet.ground_idle": {
			"loop": true,
			"bones": {
				"wing_right_main": {
					"rotation": [90, 0, -85]
				},
				"wing_right1": {
					"rotation": [0, 0, -5]
				},
				"wing_right2": {
					"rotation": [0, 0, -2.5]
				},
				"wing_right3": {
					"rotation": [0, 0, 2.5]
				},
				"wing_left_main": {
					"rotation": [90, 0, 85]
				},
				"wing_left1": {
					"rotation": [0, 0, 5]
				},
				"wing_left2": {
					"rotation": [0, 0, 2.5]
				},
				"wing_left3": {
					"rotation": [0, 0, -2.5]
				}
			}
		}
	}
}