{
	"format_version": "1.12.0",
	"minecraft:geometry": [
		{
			"description": {
				"identifier": "geometry.dratini",
				"texture_width": 64,
				"texture_height": 64,
				"visible_bounds_width": 4,
				"visible_bounds_height": 2.5,
				"visible_bounds_offset": [0, 0.75, 0]
			},
			"bones": [
				{
					"name": "dratini",
					"pivot": [0, 0, 0]
				},
				{
					"name": "body",
					"parent": "dratini",
					"pivot": [0, 5, 0]
				},
				{
					"name": "head",
					"parent": "body",
					"pivot": [0, 14, -0.25],
					"cubes": [
						{"origin": [-3.5, 14, -4], "size": [7, 7, 7], "uv": [0, 0]},
						{"origin": [-3, 14.25, -6], "size": [6, 3, 2], "uv": [33, 26]},
						{"origin": [-0.5, 19.75, -4.25], "size": [1, 1, 1], "pivot": [0, 20.25, -3.75], "rotation": [-5, 0, 0], "uv": [39, 0]}
					]
				},
				{
					"name": "eyes",
					"parent": "head",
					"pivot": [0, 18.5, -3.025],
					"cubes": [
						{"origin": [-3.525, 17, -4.025], "size": [2, 3, 2], "inflate": 0.02, "uv": [0, 48]},
						{"origin": [1.525, 17, -4.025], "size": [2, 3, 2], "inflate": 0.02, "uv": [0, 48], "mirror": true}
					]
				},
				{
					"name": "eyelids",
					"parent": "head",
					"pivot": [0, 18.5, -2.775],
					"cubes": [
						{"origin": [-3.275, 17, -3.775], "size": [2, 3, 2], "inflate": 0.04, "uv": [9, 48]},
						{"origin": [1.275, 17, -3.775], "size": [2, 3, 2], "inflate": 0.04, "uv": [9, 48], "mirror": true}
					]
				},
				{
					"name": "wing_right",
					"parent": "head",
					"pivot": [-3.5, 18.25, -1.5],
					"rotation": [0, 65, 0],
					"cubes": [
						{"origin": [-8.5, 14.25, -1.5], "size": [5, 9, 0], "uv": [10, 37]}
					]
				},
				{
					"name": "wing_left",
					"parent": "head",
					"pivot": [3.5, 18.25, -1.5],
					"rotation": [0, -65, 0],
					"cubes": [
						{"origin": [3.5, 14.25, -1.5], "size": [5, 9, 0], "uv": [0, 37]}
					]
				},
				{
					"name": "tail1",
					"parent": "body",
					"pivot": [0, 14, -0.25],
					"cubes": [
						{"origin": [-2.5, 8, -2.75], "size": [5, 7, 5], "uv": [20, 14]}
					]
				},
				{
					"name": "tail2",
					"parent": "tail1",
					"pivot": [0, 8, -2.75],
					"cubes": [
						{"origin": [-2.5, 2, -2.75], "size": [5, 6, 5], "inflate": 0.02, "uv": [0, 26]}
					]
				},
				{
					"name": "tail3",
					"parent": "tail2",
					"pivot": [0, 2, -2.75],
					"cubes": [
						{"origin": [-2.5, -5, -2.75], "size": [5, 7, 5], "uv": [0, 14]}
					]
				},
				{
					"name": "tail4",
					"parent": "tail3",
					"pivot": [0, -5, -2.75],
					"cubes": [
						{"origin": [-2, -11, -2.75], "size": [4, 6, 5], "uv": [20, 26]}
					]
				},
				{
					"name": "tail5",
					"parent": "tail4",
					"pivot": [0, -11, -0.25],
					"cubes": [
						{"origin": [-1.5, -17, -2.25], "size": [3, 7, 4], "uv": [28, 0]}
					]
				},
				{
					"name": "tail6",
					"parent": "tail5",
					"pivot": [0, -17, -0.25],
					"cubes": [
						{"origin": [-1, -23, -1.25], "size": [2, 7, 2], "uv": [36, 35]}
					]
				}
			]
		}
	]
}